2024-01-27 19:15:26 =ERROR REPORT====
Failed to start Ranch listener {acceptor,{0,0,0,0,0,0,0,1},61613} in ranch_tcp:listen([{cacerts,'...'},{key,'...'},{cert,'...'},{ip,{0,0,0,0,0,0,0,1}},{port,61613},inet6,{backlog,128},{nodelay,true}]) for reason eaddrnotavail (can't assign requested address)
2024-01-27 19:15:26 =SUPERVISOR REPORT====
     Supervisor: {<0.498.0>,ranch_listener_sup}
     Context:    start_error
     Reason:     {listen_error,{acceptor,{0,0,0,0,0,0,0,1},61613},eaddrnotavail}
     Offender:   [{pid,undefined},{id,ranch_acceptors_sup},{mfargs,{ranch_acceptors_sup,start_link,[{acceptor,{0,0,0,0,0,0,0,1},61613},ranch_tcp]}},{restart_type,permanent},{shutdown,infinity},{child_type,supervisor}]

2024-01-27 19:15:26 =CRASH REPORT====
  crasher:
    initial call: supervisor:ranch_acceptors_sup/1
    pid: <0.500.0>
    registered_name: []
    exception exit: {{listen_error,{acceptor,{0,0,0,0,0,0,0,1},61613},eaddrnotavail},[{ranch_acceptors_sup,listen_error,5,[{file,"src/ranch_acceptors_sup.erl"},{line,66}]},{supervisor,init,1,[{file,"supervisor.erl"},{line,295}]},{gen_server,init_it,2,[{file,"gen_server.erl"},{line,374}]},{gen_server,init_it,6,[{file,"gen_server.erl"},{line,342}]},{proc_lib,init_p_do_apply,3,[{file,"proc_lib.erl"},{line,249}]}]}
    ancestors: [<0.498.0>,<0.497.0>,rabbit_stomp_sup,<0.495.0>]
    message_queue_len: 0
    messages: []
    links: [<0.498.0>]
    dictionary: [{logger,error_logger}]
    trap_exit: true
    status: running
    heap_size: 987
    stack_size: 27
    reductions: 1445
  neighbours:
2024-01-27 19:15:26 =SUPERVISOR REPORT====
     Supervisor: {<0.497.0>,tcp_listener_sup}
     Context:    start_error
     Reason:     {shutdown,{failed_to_start_child,ranch_acceptors_sup,{listen_error,{acceptor,{0,0,0,0,0,0,0,1},61613},eaddrnotavail}}}
     Offender:   [{pid,undefined},{id,{ranch_listener_sup,{acceptor,{0,0,0,0,0,0,0,1},61613}}},{mfargs,{ranch_listener_sup,start_link,[{acceptor,{0,0,0,0,0,0,0,1},61613},ranch_tcp,#{connection_type => supervisor,handshake_timeout => 5000,max_connections => infinity,num_acceptors => 10,socket_opts => [{ip,{0,0,0,0,0,0,0,1}},{port,61613},inet6,{backlog,128},{nodelay,true}]},rabbit_stomp_client_sup,{stomp_configuration,<<"guest">>,<<"guest">>,false,false,false}]}},{restart_type,permanent},{shutdown,infinity},{child_type,supervisor}]

2024-01-27 19:15:26 =SUPERVISOR REPORT====
     Supervisor: {local,rabbit_stomp_sup}
     Context:    start_error
     Reason:     {shutdown,{failed_to_start_child,{ranch_listener_sup,{acceptor,{0,0,0,0,0,0,0,1},61613}},{shutdown,{failed_to_start_child,ranch_acceptors_sup,{listen_error,{acceptor,{0,0,0,0,0,0,0,1},61613},eaddrnotavail}}}}}
     Offender:   [{pid,undefined},{id,'rabbit_stomp_listener_sup_::1:61613'},{mfargs,{tcp_listener_sup,start_link,[{0,0,0,0,0,0,0,1},61613,ranch_tcp,[inet6,{backlog,128},{nodelay,true}],rabbit_stomp_client_sup,{stomp_configuration,<<"guest">>,<<"guest">>,false,false,false},{rabbit_networking,tcp_listener_started,[stomp,[{backlog,128},{nodelay,true}]]},{rabbit_networking,tcp_listener_stopped,[stomp,[{backlog,128},{nodelay,true}]]},10,"STOMP TCP listener"]}},{restart_type,transient},{shutdown,infinity},{child_type,supervisor}]

2024-01-27 19:15:26 =CRASH REPORT====
  crasher:
    initial call: application_master:init/4
    pid: <0.494.0>
    registered_name: []
    exception exit: {{{shutdown,{failed_to_start_child,'rabbit_stomp_listener_sup_::1:61613',{shutdown,{failed_to_start_child,{ranch_listener_sup,{acceptor,{0,0,0,0,0,0,0,1},61613}},{shutdown,{failed_to_start_child,ranch_acceptors_sup,{listen_error,{acceptor,{0,0,0,0,0,0,0,1},61613},eaddrnotavail}}}}}}},{rabbit_stomp,start,[normal,[]]}},[{application_master,init,4,[{file,"application_master.erl"},{line,138}]},{proc_lib,init_p_do_apply,3,[{file,"proc_lib.erl"},{line,249}]}]}
    ancestors: [<0.493.0>]
    message_queue_len: 1
    messages: [{'EXIT',<0.495.0>,normal}]
    links: [<0.493.0>,<0.44.0>]
    dictionary: []
    trap_exit: true
    status: running
    heap_size: 376
    stack_size: 27
    reductions: 220
  neighbours:
2024-01-27 19:15:43 =ERROR REPORT====
Failed to start Ranch listener {acceptor,{0,0,0,0,0,0,0,1},61613} in ranch_tcp:listen([{cacerts,'...'},{key,'...'},{cert,'...'},{ip,{0,0,0,0,0,0,0,1}},{port,61613},inet6,{backlog,128},{nodelay,true}]) for reason eaddrnotavail (can't assign requested address)
2024-01-27 19:15:43 =SUPERVISOR REPORT====
     Supervisor: {<0.478.0>,ranch_listener_sup}
     Context:    start_error
     Reason:     {listen_error,{acceptor,{0,0,0,0,0,0,0,1},61613},eaddrnotavail}
     Offender:   [{pid,undefined},{id,ranch_acceptors_sup},{mfargs,{ranch_acceptors_sup,start_link,[{acceptor,{0,0,0,0,0,0,0,1},61613},ranch_tcp]}},{restart_type,permanent},{shutdown,infinity},{child_type,supervisor}]

2024-01-27 19:15:43 =CRASH REPORT====
  crasher:
    initial call: supervisor:ranch_acceptors_sup/1
    pid: <0.480.0>
    registered_name: []
    exception exit: {{listen_error,{acceptor,{0,0,0,0,0,0,0,1},61613},eaddrnotavail},[{ranch_acceptors_sup,listen_error,5,[{file,"src/ranch_acceptors_sup.erl"},{line,66}]},{supervisor,init,1,[{file,"supervisor.erl"},{line,295}]},{gen_server,init_it,2,[{file,"gen_server.erl"},{line,374}]},{gen_server,init_it,6,[{file,"gen_server.erl"},{line,342}]},{proc_lib,init_p_do_apply,3,[{file,"proc_lib.erl"},{line,249}]}]}
    ancestors: [<0.478.0>,<0.477.0>,rabbit_stomp_sup,<0.475.0>]
    message_queue_len: 0
    messages: []
    links: [<0.478.0>]
    dictionary: [{logger,error_logger}]
    trap_exit: true
    status: running
    heap_size: 987
    stack_size: 27
    reductions: 1445
  neighbours:
2024-01-27 19:15:43 =SUPERVISOR REPORT====
     Supervisor: {<0.477.0>,tcp_listener_sup}
     Context:    start_error
     Reason:     {shutdown,{failed_to_start_child,ranch_acceptors_sup,{listen_error,{acceptor,{0,0,0,0,0,0,0,1},61613},eaddrnotavail}}}
     Offender:   [{pid,undefined},{id,{ranch_listener_sup,{acceptor,{0,0,0,0,0,0,0,1},61613}}},{mfargs,{ranch_listener_sup,start_link,[{acceptor,{0,0,0,0,0,0,0,1},61613},ranch_tcp,#{connection_type => supervisor,handshake_timeout => 5000,max_connections => infinity,num_acceptors => 10,socket_opts => [{ip,{0,0,0,0,0,0,0,1}},{port,61613},inet6,{backlog,128},{nodelay,true}]},rabbit_stomp_client_sup,{stomp_configuration,<<"guest">>,<<"guest">>,false,false,false}]}},{restart_type,permanent},{shutdown,infinity},{child_type,supervisor}]

2024-01-27 19:15:43 =SUPERVISOR REPORT====
     Supervisor: {local,rabbit_stomp_sup}
     Context:    start_error
     Reason:     {shutdown,{failed_to_start_child,{ranch_listener_sup,{acceptor,{0,0,0,0,0,0,0,1},61613}},{shutdown,{failed_to_start_child,ranch_acceptors_sup,{listen_error,{acceptor,{0,0,0,0,0,0,0,1},61613},eaddrnotavail}}}}}
     Offender:   [{pid,undefined},{id,'rabbit_stomp_listener_sup_::1:61613'},{mfargs,{tcp_listener_sup,start_link,[{0,0,0,0,0,0,0,1},61613,ranch_tcp,[inet6,{backlog,128},{nodelay,true}],rabbit_stomp_client_sup,{stomp_configuration,<<"guest">>,<<"guest">>,false,false,false},{rabbit_networking,tcp_listener_started,[stomp,[{backlog,128},{nodelay,true}]]},{rabbit_networking,tcp_listener_stopped,[stomp,[{backlog,128},{nodelay,true}]]},10,"STOMP TCP listener"]}},{restart_type,transient},{shutdown,infinity},{child_type,supervisor}]

2024-01-27 19:15:43 =CRASH REPORT====
  crasher:
    initial call: application_master:init/4
    pid: <0.474.0>
    registered_name: []
    exception exit: {{{shutdown,{failed_to_start_child,'rabbit_stomp_listener_sup_::1:61613',{shutdown,{failed_to_start_child,{ranch_listener_sup,{acceptor,{0,0,0,0,0,0,0,1},61613}},{shutdown,{failed_to_start_child,ranch_acceptors_sup,{listen_error,{acceptor,{0,0,0,0,0,0,0,1},61613},eaddrnotavail}}}}}}},{rabbit_stomp,start,[normal,[]]}},[{application_master,init,4,[{file,"application_master.erl"},{line,138}]},{proc_lib,init_p_do_apply,3,[{file,"proc_lib.erl"},{line,249}]}]}
    ancestors: [<0.473.0>]
    message_queue_len: 1
    messages: [{'EXIT',<0.475.0>,normal}]
    links: [<0.473.0>,<0.44.0>]
    dictionary: []
    trap_exit: true
    status: running
    heap_size: 376
    stack_size: 27
    reductions: 220
  neighbours:
2024-01-27 19:16:00 =ERROR REPORT====
Failed to start Ranch listener {acceptor,{0,0,0,0,0,0,0,1},61613} in ranch_tcp:listen([{cacerts,'...'},{key,'...'},{cert,'...'},{ip,{0,0,0,0,0,0,0,1}},{port,61613},inet6,{backlog,128},{nodelay,true}]) for reason eaddrnotavail (can't assign requested address)
2024-01-27 19:16:00 =SUPERVISOR REPORT====
     Supervisor: {<0.478.0>,ranch_listener_sup}
     Context:    start_error
     Reason:     {listen_error,{acceptor,{0,0,0,0,0,0,0,1},61613},eaddrnotavail}
     Offender:   [{pid,undefined},{id,ranch_acceptors_sup},{mfargs,{ranch_acceptors_sup,start_link,[{acceptor,{0,0,0,0,0,0,0,1},61613},ranch_tcp]}},{restart_type,permanent},{shutdown,infinity},{child_type,supervisor}]

2024-01-27 19:16:00 =CRASH REPORT====
  crasher:
    initial call: supervisor:ranch_acceptors_sup/1
    pid: <0.480.0>
    registered_name: []
    exception exit: {{listen_error,{acceptor,{0,0,0,0,0,0,0,1},61613},eaddrnotavail},[{ranch_acceptors_sup,listen_error,5,[{file,"src/ranch_acceptors_sup.erl"},{line,66}]},{supervisor,init,1,[{file,"supervisor.erl"},{line,295}]},{gen_server,init_it,2,[{file,"gen_server.erl"},{line,374}]},{gen_server,init_it,6,[{file,"gen_server.erl"},{line,342}]},{proc_lib,init_p_do_apply,3,[{file,"proc_lib.erl"},{line,249}]}]}
    ancestors: [<0.478.0>,<0.477.0>,rabbit_stomp_sup,<0.475.0>]
    message_queue_len: 0
    messages: []
    links: [<0.478.0>]
    dictionary: [{logger,error_logger}]
    trap_exit: true
    status: running
    heap_size: 987
    stack_size: 27
    reductions: 1427
  neighbours:
2024-01-27 19:16:00 =SUPERVISOR REPORT====
     Supervisor: {<0.477.0>,tcp_listener_sup}
     Context:    start_error
     Reason:     {shutdown,{failed_to_start_child,ranch_acceptors_sup,{listen_error,{acceptor,{0,0,0,0,0,0,0,1},61613},eaddrnotavail}}}
     Offender:   [{pid,undefined},{id,{ranch_listener_sup,{acceptor,{0,0,0,0,0,0,0,1},61613}}},{mfargs,{ranch_listener_sup,start_link,[{acceptor,{0,0,0,0,0,0,0,1},61613},ranch_tcp,#{connection_type => supervisor,handshake_timeout => 5000,max_connections => infinity,num_acceptors => 10,socket_opts => [{ip,{0,0,0,0,0,0,0,1}},{port,61613},inet6,{backlog,128},{nodelay,true}]},rabbit_stomp_client_sup,{stomp_configuration,<<"guest">>,<<"guest">>,false,false,false}]}},{restart_type,permanent},{shutdown,infinity},{child_type,supervisor}]

2024-01-27 19:16:00 =SUPERVISOR REPORT====
     Supervisor: {local,rabbit_stomp_sup}
     Context:    start_error
     Reason:     {shutdown,{failed_to_start_child,{ranch_listener_sup,{acceptor,{0,0,0,0,0,0,0,1},61613}},{shutdown,{failed_to_start_child,ranch_acceptors_sup,{listen_error,{acceptor,{0,0,0,0,0,0,0,1},61613},eaddrnotavail}}}}}
     Offender:   [{pid,undefined},{id,'rabbit_stomp_listener_sup_::1:61613'},{mfargs,{tcp_listener_sup,start_link,[{0,0,0,0,0,0,0,1},61613,ranch_tcp,[inet6,{backlog,128},{nodelay,true}],rabbit_stomp_client_sup,{stomp_configuration,<<"guest">>,<<"guest">>,false,false,false},{rabbit_networking,tcp_listener_started,[stomp,[{backlog,128},{nodelay,true}]]},{rabbit_networking,tcp_listener_stopped,[stomp,[{backlog,128},{nodelay,true}]]},10,"STOMP TCP listener"]}},{restart_type,transient},{shutdown,infinity},{child_type,supervisor}]

2024-01-27 19:16:00 =CRASH REPORT====
  crasher:
    initial call: application_master:init/4
    pid: <0.474.0>
    registered_name: []
    exception exit: {{{shutdown,{failed_to_start_child,'rabbit_stomp_listener_sup_::1:61613',{shutdown,{failed_to_start_child,{ranch_listener_sup,{acceptor,{0,0,0,0,0,0,0,1},61613}},{shutdown,{failed_to_start_child,ranch_acceptors_sup,{listen_error,{acceptor,{0,0,0,0,0,0,0,1},61613},eaddrnotavail}}}}}}},{rabbit_stomp,start,[normal,[]]}},[{application_master,init,4,[{file,"application_master.erl"},{line,138}]},{proc_lib,init_p_do_apply,3,[{file,"proc_lib.erl"},{line,249}]}]}
    ancestors: [<0.473.0>]
    message_queue_len: 1
    messages: [{'EXIT',<0.475.0>,normal}]
    links: [<0.473.0>,<0.44.0>]
    dictionary: []
    trap_exit: true
    status: running
    heap_size: 376
    stack_size: 27
    reductions: 220
  neighbours:
2024-01-27 19:16:16 =ERROR REPORT====
Failed to start Ranch listener {acceptor,{0,0,0,0,0,0,0,1},61613} in ranch_tcp:listen([{cacerts,'...'},{key,'...'},{cert,'...'},{ip,{0,0,0,0,0,0,0,1}},{port,61613},inet6,{backlog,128},{nodelay,true}]) for reason eaddrnotavail (can't assign requested address)
2024-01-27 19:16:16 =SUPERVISOR REPORT====
     Supervisor: {<0.478.0>,ranch_listener_sup}
     Context:    start_error
     Reason:     {listen_error,{acceptor,{0,0,0,0,0,0,0,1},61613},eaddrnotavail}
     Offender:   [{pid,undefined},{id,ranch_acceptors_sup},{mfargs,{ranch_acceptors_sup,start_link,[{acceptor,{0,0,0,0,0,0,0,1},61613},ranch_tcp]}},{restart_type,permanent},{shutdown,infinity},{child_type,supervisor}]

2024-01-27 19:16:16 =CRASH REPORT====
  crasher:
    initial call: supervisor:ranch_acceptors_sup/1
    pid: <0.480.0>
    registered_name: []
    exception exit: {{listen_error,{acceptor,{0,0,0,0,0,0,0,1},61613},eaddrnotavail},[{ranch_acceptors_sup,listen_error,5,[{file,"src/ranch_acceptors_sup.erl"},{line,66}]},{supervisor,init,1,[{file,"supervisor.erl"},{line,295}]},{gen_server,init_it,2,[{file,"gen_server.erl"},{line,374}]},{gen_server,init_it,6,[{file,"gen_server.erl"},{line,342}]},{proc_lib,init_p_do_apply,3,[{file,"proc_lib.erl"},{line,249}]}]}
    ancestors: [<0.478.0>,<0.477.0>,rabbit_stomp_sup,<0.475.0>]
    message_queue_len: 0
    messages: []
    links: [<0.478.0>]
    dictionary: [{logger,error_logger}]
    trap_exit: true
    status: running
    heap_size: 987
    stack_size: 27
    reductions: 1427
  neighbours:
2024-01-27 19:16:16 =SUPERVISOR REPORT====
     Supervisor: {<0.477.0>,tcp_listener_sup}
     Context:    start_error
     Reason:     {shutdown,{failed_to_start_child,ranch_acceptors_sup,{listen_error,{acceptor,{0,0,0,0,0,0,0,1},61613},eaddrnotavail}}}
     Offender:   [{pid,undefined},{id,{ranch_listener_sup,{acceptor,{0,0,0,0,0,0,0,1},61613}}},{mfargs,{ranch_listener_sup,start_link,[{acceptor,{0,0,0,0,0,0,0,1},61613},ranch_tcp,#{connection_type => supervisor,handshake_timeout => 5000,max_connections => infinity,num_acceptors => 10,socket_opts => [{ip,{0,0,0,0,0,0,0,1}},{port,61613},inet6,{backlog,128},{nodelay,true}]},rabbit_stomp_client_sup,{stomp_configuration,<<"guest">>,<<"guest">>,false,false,false}]}},{restart_type,permanent},{shutdown,infinity},{child_type,supervisor}]

2024-01-27 19:16:16 =SUPERVISOR REPORT====
     Supervisor: {local,rabbit_stomp_sup}
     Context:    start_error
     Reason:     {shutdown,{failed_to_start_child,{ranch_listener_sup,{acceptor,{0,0,0,0,0,0,0,1},61613}},{shutdown,{failed_to_start_child,ranch_acceptors_sup,{listen_error,{acceptor,{0,0,0,0,0,0,0,1},61613},eaddrnotavail}}}}}
     Offender:   [{pid,undefined},{id,'rabbit_stomp_listener_sup_::1:61613'},{mfargs,{tcp_listener_sup,start_link,[{0,0,0,0,0,0,0,1},61613,ranch_tcp,[inet6,{backlog,128},{nodelay,true}],rabbit_stomp_client_sup,{stomp_configuration,<<"guest">>,<<"guest">>,false,false,false},{rabbit_networking,tcp_listener_started,[stomp,[{backlog,128},{nodelay,true}]]},{rabbit_networking,tcp_listener_stopped,[stomp,[{backlog,128},{nodelay,true}]]},10,"STOMP TCP listener"]}},{restart_type,transient},{shutdown,infinity},{child_type,supervisor}]

2024-01-27 19:16:16 =CRASH REPORT====
  crasher:
    initial call: application_master:init/4
    pid: <0.474.0>
    registered_name: []
    exception exit: {{{shutdown,{failed_to_start_child,'rabbit_stomp_listener_sup_::1:61613',{shutdown,{failed_to_start_child,{ranch_listener_sup,{acceptor,{0,0,0,0,0,0,0,1},61613}},{shutdown,{failed_to_start_child,ranch_acceptors_sup,{listen_error,{acceptor,{0,0,0,0,0,0,0,1},61613},eaddrnotavail}}}}}}},{rabbit_stomp,start,[normal,[]]}},[{application_master,init,4,[{file,"application_master.erl"},{line,138}]},{proc_lib,init_p_do_apply,3,[{file,"proc_lib.erl"},{line,249}]}]}
    ancestors: [<0.473.0>]
    message_queue_len: 1
    messages: [{'EXIT',<0.475.0>,normal}]
    links: [<0.473.0>,<0.44.0>]
    dictionary: []
    trap_exit: true
    status: running
    heap_size: 376
    stack_size: 27
    reductions: 220
  neighbours:
2024-01-27 19:16:32 =ERROR REPORT====
Failed to start Ranch listener {acceptor,{0,0,0,0,0,0,0,1},61613} in ranch_tcp:listen([{cacerts,'...'},{key,'...'},{cert,'...'},{ip,{0,0,0,0,0,0,0,1}},{port,61613},inet6,{backlog,128},{nodelay,true}]) for reason eaddrnotavail (can't assign requested address)
2024-01-27 19:16:32 =SUPERVISOR REPORT====
     Supervisor: {<0.478.0>,ranch_listener_sup}
     Context:    start_error
     Reason:     {listen_error,{acceptor,{0,0,0,0,0,0,0,1},61613},eaddrnotavail}
     Offender:   [{pid,undefined},{id,ranch_acceptors_sup},{mfargs,{ranch_acceptors_sup,start_link,[{acceptor,{0,0,0,0,0,0,0,1},61613},ranch_tcp]}},{restart_type,permanent},{shutdown,infinity},{child_type,supervisor}]

2024-01-27 19:16:32 =CRASH REPORT====
  crasher:
    initial call: supervisor:ranch_acceptors_sup/1
    pid: <0.480.0>
    registered_name: []
    exception exit: {{listen_error,{acceptor,{0,0,0,0,0,0,0,1},61613},eaddrnotavail},[{ranch_acceptors_sup,listen_error,5,[{file,"src/ranch_acceptors_sup.erl"},{line,66}]},{supervisor,init,1,[{file,"supervisor.erl"},{line,295}]},{gen_server,init_it,2,[{file,"gen_server.erl"},{line,374}]},{gen_server,init_it,6,[{file,"gen_server.erl"},{line,342}]},{proc_lib,init_p_do_apply,3,[{file,"proc_lib.erl"},{line,249}]}]}
    ancestors: [<0.478.0>,<0.477.0>,rabbit_stomp_sup,<0.475.0>]
    message_queue_len: 0
    messages: []
    links: [<0.478.0>]
    dictionary: [{logger,error_logger}]
    trap_exit: true
    status: running
    heap_size: 987
    stack_size: 27
    reductions: 1427
  neighbours:
2024-01-27 19:16:32 =SUPERVISOR REPORT====
     Supervisor: {<0.477.0>,tcp_listener_sup}
     Context:    start_error
     Reason:     {shutdown,{failed_to_start_child,ranch_acceptors_sup,{listen_error,{acceptor,{0,0,0,0,0,0,0,1},61613},eaddrnotavail}}}
     Offender:   [{pid,undefined},{id,{ranch_listener_sup,{acceptor,{0,0,0,0,0,0,0,1},61613}}},{mfargs,{ranch_listener_sup,start_link,[{acceptor,{0,0,0,0,0,0,0,1},61613},ranch_tcp,#{connection_type => supervisor,handshake_timeout => 5000,max_connections => infinity,num_acceptors => 10,socket_opts => [{ip,{0,0,0,0,0,0,0,1}},{port,61613},inet6,{backlog,128},{nodelay,true}]},rabbit_stomp_client_sup,{stomp_configuration,<<"guest">>,<<"guest">>,false,false,false}]}},{restart_type,permanent},{shutdown,infinity},{child_type,supervisor}]

2024-01-27 19:16:32 =SUPERVISOR REPORT====
     Supervisor: {local,rabbit_stomp_sup}
     Context:    start_error
     Reason:     {shutdown,{failed_to_start_child,{ranch_listener_sup,{acceptor,{0,0,0,0,0,0,0,1},61613}},{shutdown,{failed_to_start_child,ranch_acceptors_sup,{listen_error,{acceptor,{0,0,0,0,0,0,0,1},61613},eaddrnotavail}}}}}
     Offender:   [{pid,undefined},{id,'rabbit_stomp_listener_sup_::1:61613'},{mfargs,{tcp_listener_sup,start_link,[{0,0,0,0,0,0,0,1},61613,ranch_tcp,[inet6,{backlog,128},{nodelay,true}],rabbit_stomp_client_sup,{stomp_configuration,<<"guest">>,<<"guest">>,false,false,false},{rabbit_networking,tcp_listener_started,[stomp,[{backlog,128},{nodelay,true}]]},{rabbit_networking,tcp_listener_stopped,[stomp,[{backlog,128},{nodelay,true}]]},10,"STOMP TCP listener"]}},{restart_type,transient},{shutdown,infinity},{child_type,supervisor}]

2024-01-27 19:16:32 =CRASH REPORT====
  crasher:
    initial call: application_master:init/4
    pid: <0.474.0>
    registered_name: []
    exception exit: {{{shutdown,{failed_to_start_child,'rabbit_stomp_listener_sup_::1:61613',{shutdown,{failed_to_start_child,{ranch_listener_sup,{acceptor,{0,0,0,0,0,0,0,1},61613}},{shutdown,{failed_to_start_child,ranch_acceptors_sup,{listen_error,{acceptor,{0,0,0,0,0,0,0,1},61613},eaddrnotavail}}}}}}},{rabbit_stomp,start,[normal,[]]}},[{application_master,init,4,[{file,"application_master.erl"},{line,138}]},{proc_lib,init_p_do_apply,3,[{file,"proc_lib.erl"},{line,249}]}]}
    ancestors: [<0.473.0>]
    message_queue_len: 1
    messages: [{'EXIT',<0.475.0>,normal}]
    links: [<0.473.0>,<0.44.0>]
    dictionary: []
    trap_exit: true
    status: running
    heap_size: 376
    stack_size: 27
    reductions: 220
  neighbours:
2024-01-27 22:48:42 =ERROR REPORT====
Failed to start Ranch listener {acceptor,{0,0,0,0,0,0,0,1},61613} in ranch_tcp:listen([{cacerts,'...'},{key,'...'},{cert,'...'},{ip,{0,0,0,0,0,0,0,1}},{port,61613},inet6,{sndbuf,131072},{send_timeout,120},{recbuf,131072},{keepalive,true},{exit_on_close,true},{nodelay,true},{backlog,4096}]) for reason eaddrnotavail (can't assign requested address)
2024-01-27 22:48:42 =SUPERVISOR REPORT====
     Supervisor: {<0.578.0>,ranch_listener_sup}
     Context:    start_error
     Reason:     {listen_error,{acceptor,{0,0,0,0,0,0,0,1},61613},eaddrnotavail}
     Offender:   [{pid,undefined},{id,ranch_acceptors_sup},{mfargs,{ranch_acceptors_sup,start_link,[{acceptor,{0,0,0,0,0,0,0,1},61613},ranch_tcp]}},{restart_type,permanent},{shutdown,infinity},{child_type,supervisor}]

2024-01-27 22:48:42 =CRASH REPORT====
  crasher:
    initial call: supervisor:ranch_acceptors_sup/1
    pid: <0.580.0>
    registered_name: []
    exception exit: {{listen_error,{acceptor,{0,0,0,0,0,0,0,1},61613},eaddrnotavail},[{ranch_acceptors_sup,listen_error,5,[{file,"src/ranch_acceptors_sup.erl"},{line,66}]},{supervisor,init,1,[{file,"supervisor.erl"},{line,295}]},{gen_server,init_it,2,[{file,"gen_server.erl"},{line,374}]},{gen_server,init_it,6,[{file,"gen_server.erl"},{line,342}]},{proc_lib,init_p_do_apply,3,[{file,"proc_lib.erl"},{line,249}]}]}
    ancestors: [<0.578.0>,<0.577.0>,rabbit_stomp_sup,<0.575.0>]
    message_queue_len: 0
    messages: []
    links: [<0.578.0>]
    dictionary: [{logger,error_logger}]
    trap_exit: true
    status: running
    heap_size: 610
    stack_size: 27
    reductions: 1828
  neighbours:
2024-01-27 22:48:42 =SUPERVISOR REPORT====
     Supervisor: {<0.577.0>,tcp_listener_sup}
     Context:    start_error
     Reason:     {shutdown,{failed_to_start_child,ranch_acceptors_sup,{listen_error,{acceptor,{0,0,0,0,0,0,0,1},61613},eaddrnotavail}}}
     Offender:   [{pid,undefined},{id,{ranch_listener_sup,{acceptor,{0,0,0,0,0,0,0,1},61613}}},{mfargs,{ranch_listener_sup,start_link,[{acceptor,{0,0,0,0,0,0,0,1},61613},ranch_tcp,#{connection_type => supervisor,handshake_timeout => 5000,max_connections => infinity,num_acceptors => 10,socket_opts => [{ip,{0,0,0,0,0,0,0,1}},{port,61613},inet6,{sndbuf,131072},{send_timeout,120},{recbuf,131072},{keepalive,true},{exit_on_close,true},{nodelay,true},{backlog,4096}]},rabbit_stomp_client_sup,{stomp_configuration,"guest","guest",false,false,false}]}},{restart_type,permanent},{shutdown,infinity},{child_type,supervisor}]

2024-01-27 22:48:42 =SUPERVISOR REPORT====
     Supervisor: {local,rabbit_stomp_sup}
     Context:    start_error
     Reason:     {shutdown,{failed_to_start_child,{ranch_listener_sup,{acceptor,{0,0,0,0,0,0,0,1},61613}},{shutdown,{failed_to_start_child,ranch_acceptors_sup,{listen_error,{acceptor,{0,0,0,0,0,0,0,1},61613},eaddrnotavail}}}}}
     Offender:   [{pid,undefined},{id,'rabbit_stomp_listener_sup_::1:61613'},{mfargs,{tcp_listener_sup,start_link,[{0,0,0,0,0,0,0,1},61613,ranch_tcp,[inet6,{sndbuf,131072},{send_timeout,120},{recbuf,131072},{keepalive,true},{exit_on_close,true},{nodelay,true},{backlog,4096}],rabbit_stomp_client_sup,{stomp_configuration,"guest","guest",false,false,false},{rabbit_networking,tcp_listener_started,[stomp,[{sndbuf,131072},{send_timeout,120},{recbuf,131072},{keepalive,true},{exit_on_close,true},{nodelay,true},{backlog,4096}]]},{rabbit_networking,tcp_listener_stopped,[stomp,[{sndbuf,131072},{send_timeout,120},{recbuf,131072},{keepalive,true},{exit_on_close,true},{nodelay,true},{backlog,4096}]]},10,"STOMP TCP listener"]}},{restart_type,transient},{shutdown,infinity},{child_type,supervisor}]

2024-01-27 22:48:42 =CRASH REPORT====
  crasher:
    initial call: application_master:init/4
    pid: <0.574.0>
    registered_name: []
    exception exit: {{{shutdown,{failed_to_start_child,'rabbit_stomp_listener_sup_::1:61613',{shutdown,{failed_to_start_child,{ranch_listener_sup,{acceptor,{0,0,0,0,0,0,0,1},61613}},{shutdown,{failed_to_start_child,ranch_acceptors_sup,{listen_error,{acceptor,{0,0,0,0,0,0,0,1},61613},eaddrnotavail}}}}}}},{rabbit_stomp,start,[normal,[]]}},[{application_master,init,4,[{file,"application_master.erl"},{line,138}]},{proc_lib,init_p_do_apply,3,[{file,"proc_lib.erl"},{line,249}]}]}
    ancestors: [<0.573.0>]
    message_queue_len: 1
    messages: [{'EXIT',<0.575.0>,normal}]
    links: [<0.573.0>,<0.44.0>]
    dictionary: []
    trap_exit: true
    status: running
    heap_size: 376
    stack_size: 27
    reductions: 220
  neighbours:
2024-01-27 22:48:57 =ERROR REPORT====
Failed to start Ranch listener {acceptor,{0,0,0,0,0,0,0,1},61613} in ranch_tcp:listen([{cacerts,'...'},{key,'...'},{cert,'...'},{ip,{0,0,0,0,0,0,0,1}},{port,61613},inet6,{sndbuf,131072},{send_timeout,120},{recbuf,131072},{keepalive,true},{exit_on_close,true},{nodelay,true},{backlog,4096}]) for reason eaddrnotavail (can't assign requested address)
2024-01-27 22:48:57 =SUPERVISOR REPORT====
     Supervisor: {<0.497.0>,ranch_listener_sup}
     Context:    start_error
     Reason:     {listen_error,{acceptor,{0,0,0,0,0,0,0,1},61613},eaddrnotavail}
     Offender:   [{pid,undefined},{id,ranch_acceptors_sup},{mfargs,{ranch_acceptors_sup,start_link,[{acceptor,{0,0,0,0,0,0,0,1},61613},ranch_tcp]}},{restart_type,permanent},{shutdown,infinity},{child_type,supervisor}]

2024-01-27 22:48:57 =CRASH REPORT====
  crasher:
    initial call: supervisor:ranch_acceptors_sup/1
    pid: <0.499.0>
    registered_name: []
    exception exit: {{listen_error,{acceptor,{0,0,0,0,0,0,0,1},61613},eaddrnotavail},[{ranch_acceptors_sup,listen_error,5,[{file,"src/ranch_acceptors_sup.erl"},{line,66}]},{supervisor,init,1,[{file,"supervisor.erl"},{line,295}]},{gen_server,init_it,2,[{file,"gen_server.erl"},{line,374}]},{gen_server,init_it,6,[{file,"gen_server.erl"},{line,342}]},{proc_lib,init_p_do_apply,3,[{file,"proc_lib.erl"},{line,249}]}]}
    ancestors: [<0.497.0>,<0.496.0>,rabbit_stomp_sup,<0.494.0>]
    message_queue_len: 0
    messages: []
    links: [<0.497.0>]
    dictionary: [{logger,error_logger}]
    trap_exit: true
    status: running
    heap_size: 610
    stack_size: 27
    reductions: 1827
  neighbours:
2024-01-27 22:48:57 =SUPERVISOR REPORT====
     Supervisor: {<0.496.0>,tcp_listener_sup}
     Context:    start_error
     Reason:     {shutdown,{failed_to_start_child,ranch_acceptors_sup,{listen_error,{acceptor,{0,0,0,0,0,0,0,1},61613},eaddrnotavail}}}
     Offender:   [{pid,undefined},{id,{ranch_listener_sup,{acceptor,{0,0,0,0,0,0,0,1},61613}}},{mfargs,{ranch_listener_sup,start_link,[{acceptor,{0,0,0,0,0,0,0,1},61613},ranch_tcp,#{connection_type => supervisor,handshake_timeout => 5000,max_connections => infinity,num_acceptors => 10,socket_opts => [{ip,{0,0,0,0,0,0,0,1}},{port,61613},inet6,{sndbuf,131072},{send_timeout,120},{recbuf,131072},{keepalive,true},{exit_on_close,true},{nodelay,true},{backlog,4096}]},rabbit_stomp_client_sup,{stomp_configuration,"guest","guest",false,false,false}]}},{restart_type,permanent},{shutdown,infinity},{child_type,supervisor}]

2024-01-27 22:48:57 =SUPERVISOR REPORT====
     Supervisor: {local,rabbit_stomp_sup}
     Context:    start_error
     Reason:     {shutdown,{failed_to_start_child,{ranch_listener_sup,{acceptor,{0,0,0,0,0,0,0,1},61613}},{shutdown,{failed_to_start_child,ranch_acceptors_sup,{listen_error,{acceptor,{0,0,0,0,0,0,0,1},61613},eaddrnotavail}}}}}
     Offender:   [{pid,undefined},{id,'rabbit_stomp_listener_sup_::1:61613'},{mfargs,{tcp_listener_sup,start_link,[{0,0,0,0,0,0,0,1},61613,ranch_tcp,[inet6,{sndbuf,131072},{send_timeout,120},{recbuf,131072},{keepalive,true},{exit_on_close,true},{nodelay,true},{backlog,4096}],rabbit_stomp_client_sup,{stomp_configuration,"guest","guest",false,false,false},{rabbit_networking,tcp_listener_started,[stomp,[{sndbuf,131072},{send_timeout,120},{recbuf,131072},{keepalive,true},{exit_on_close,true},{nodelay,true},{backlog,4096}]]},{rabbit_networking,tcp_listener_stopped,[stomp,[{sndbuf,131072},{send_timeout,120},{recbuf,131072},{keepalive,true},{exit_on_close,true},{nodelay,true},{backlog,4096}]]},10,"STOMP TCP listener"]}},{restart_type,transient},{shutdown,infinity},{child_type,supervisor}]

2024-01-27 22:48:57 =CRASH REPORT====
  crasher:
    initial call: application_master:init/4
    pid: <0.493.0>
    registered_name: []
    exception exit: {{{shutdown,{failed_to_start_child,'rabbit_stomp_listener_sup_::1:61613',{shutdown,{failed_to_start_child,{ranch_listener_sup,{acceptor,{0,0,0,0,0,0,0,1},61613}},{shutdown,{failed_to_start_child,ranch_acceptors_sup,{listen_error,{acceptor,{0,0,0,0,0,0,0,1},61613},eaddrnotavail}}}}}}},{rabbit_stomp,start,[normal,[]]}},[{application_master,init,4,[{file,"application_master.erl"},{line,138}]},{proc_lib,init_p_do_apply,3,[{file,"proc_lib.erl"},{line,249}]}]}
    ancestors: [<0.492.0>]
    message_queue_len: 1
    messages: [{'EXIT',<0.494.0>,normal}]
    links: [<0.492.0>,<0.44.0>]
    dictionary: []
    trap_exit: true
    status: running
    heap_size: 376
    stack_size: 27
    reductions: 220
  neighbours:
2024-01-27 22:49:14 =ERROR REPORT====
Failed to start Ranch listener {acceptor,{0,0,0,0,0,0,0,1},61613} in ranch_tcp:listen([{cacerts,'...'},{key,'...'},{cert,'...'},{ip,{0,0,0,0,0,0,0,1}},{port,61613},inet6,{sndbuf,131072},{send_timeout,120},{recbuf,131072},{keepalive,true},{exit_on_close,true},{nodelay,true},{backlog,4096}]) for reason eaddrnotavail (can't assign requested address)
2024-01-27 22:49:14 =SUPERVISOR REPORT====
     Supervisor: {<0.472.0>,ranch_listener_sup}
     Context:    start_error
     Reason:     {listen_error,{acceptor,{0,0,0,0,0,0,0,1},61613},eaddrnotavail}
     Offender:   [{pid,undefined},{id,ranch_acceptors_sup},{mfargs,{ranch_acceptors_sup,start_link,[{acceptor,{0,0,0,0,0,0,0,1},61613},ranch_tcp]}},{restart_type,permanent},{shutdown,infinity},{child_type,supervisor}]

2024-01-27 22:49:14 =CRASH REPORT====
  crasher:
    initial call: supervisor:ranch_acceptors_sup/1
    pid: <0.474.0>
    registered_name: []
    exception exit: {{listen_error,{acceptor,{0,0,0,0,0,0,0,1},61613},eaddrnotavail},[{ranch_acceptors_sup,listen_error,5,[{file,"src/ranch_acceptors_sup.erl"},{line,66}]},{supervisor,init,1,[{file,"supervisor.erl"},{line,295}]},{gen_server,init_it,2,[{file,"gen_server.erl"},{line,374}]},{gen_server,init_it,6,[{file,"gen_server.erl"},{line,342}]},{proc_lib,init_p_do_apply,3,[{file,"proc_lib.erl"},{line,249}]}]}
    ancestors: [<0.472.0>,<0.471.0>,rabbit_stomp_sup,<0.469.0>]
    message_queue_len: 0
    messages: []
    links: [<0.472.0>]
    dictionary: [{logger,error_logger}]
    trap_exit: true
    status: running
    heap_size: 610
    stack_size: 27
    reductions: 1827
  neighbours:
2024-01-27 22:49:14 =SUPERVISOR REPORT====
     Supervisor: {<0.471.0>,tcp_listener_sup}
     Context:    start_error
     Reason:     {shutdown,{failed_to_start_child,ranch_acceptors_sup,{listen_error,{acceptor,{0,0,0,0,0,0,0,1},61613},eaddrnotavail}}}
     Offender:   [{pid,undefined},{id,{ranch_listener_sup,{acceptor,{0,0,0,0,0,0,0,1},61613}}},{mfargs,{ranch_listener_sup,start_link,[{acceptor,{0,0,0,0,0,0,0,1},61613},ranch_tcp,#{connection_type => supervisor,handshake_timeout => 5000,max_connections => infinity,num_acceptors => 10,socket_opts => [{ip,{0,0,0,0,0,0,0,1}},{port,61613},inet6,{sndbuf,131072},{send_timeout,120},{recbuf,131072},{keepalive,true},{exit_on_close,true},{nodelay,true},{backlog,4096}]},rabbit_stomp_client_sup,{stomp_configuration,"guest","guest",false,false,false}]}},{restart_type,permanent},{shutdown,infinity},{child_type,supervisor}]

2024-01-27 22:49:14 =SUPERVISOR REPORT====
     Supervisor: {local,rabbit_stomp_sup}
     Context:    start_error
     Reason:     {shutdown,{failed_to_start_child,{ranch_listener_sup,{acceptor,{0,0,0,0,0,0,0,1},61613}},{shutdown,{failed_to_start_child,ranch_acceptors_sup,{listen_error,{acceptor,{0,0,0,0,0,0,0,1},61613},eaddrnotavail}}}}}
     Offender:   [{pid,undefined},{id,'rabbit_stomp_listener_sup_::1:61613'},{mfargs,{tcp_listener_sup,start_link,[{0,0,0,0,0,0,0,1},61613,ranch_tcp,[inet6,{sndbuf,131072},{send_timeout,120},{recbuf,131072},{keepalive,true},{exit_on_close,true},{nodelay,true},{backlog,4096}],rabbit_stomp_client_sup,{stomp_configuration,"guest","guest",false,false,false},{rabbit_networking,tcp_listener_started,[stomp,[{sndbuf,131072},{send_timeout,120},{recbuf,131072},{keepalive,true},{exit_on_close,true},{nodelay,true},{backlog,4096}]]},{rabbit_networking,tcp_listener_stopped,[stomp,[{sndbuf,131072},{send_timeout,120},{recbuf,131072},{keepalive,true},{exit_on_close,true},{nodelay,true},{backlog,4096}]]},10,"STOMP TCP listener"]}},{restart_type,transient},{shutdown,infinity},{child_type,supervisor}]

2024-01-27 22:49:14 =CRASH REPORT====
  crasher:
    initial call: application_master:init/4
    pid: <0.468.0>
    registered_name: []
    exception exit: {{{shutdown,{failed_to_start_child,'rabbit_stomp_listener_sup_::1:61613',{shutdown,{failed_to_start_child,{ranch_listener_sup,{acceptor,{0,0,0,0,0,0,0,1},61613}},{shutdown,{failed_to_start_child,ranch_acceptors_sup,{listen_error,{acceptor,{0,0,0,0,0,0,0,1},61613},eaddrnotavail}}}}}}},{rabbit_stomp,start,[normal,[]]}},[{application_master,init,4,[{file,"application_master.erl"},{line,138}]},{proc_lib,init_p_do_apply,3,[{file,"proc_lib.erl"},{line,249}]}]}
    ancestors: [<0.467.0>]
    message_queue_len: 1
    messages: [{'EXIT',<0.469.0>,normal}]
    links: [<0.467.0>,<0.44.0>]
    dictionary: []
    trap_exit: true
    status: running
    heap_size: 376
    stack_size: 27
    reductions: 220
  neighbours:
2024-01-27 22:49:31 =ERROR REPORT====
Failed to start Ranch listener {acceptor,{0,0,0,0,0,0,0,1},61613} in ranch_tcp:listen([{cacerts,'...'},{key,'...'},{cert,'...'},{ip,{0,0,0,0,0,0,0,1}},{port,61613},inet6,{sndbuf,131072},{send_timeout,120},{recbuf,131072},{keepalive,true},{exit_on_close,true},{nodelay,true},{backlog,4096}]) for reason eaddrnotavail (can't assign requested address)
2024-01-27 22:49:31 =SUPERVISOR REPORT====
     Supervisor: {<0.472.0>,ranch_listener_sup}
     Context:    start_error
     Reason:     {listen_error,{acceptor,{0,0,0,0,0,0,0,1},61613},eaddrnotavail}
     Offender:   [{pid,undefined},{id,ranch_acceptors_sup},{mfargs,{ranch_acceptors_sup,start_link,[{acceptor,{0,0,0,0,0,0,0,1},61613},ranch_tcp]}},{restart_type,permanent},{shutdown,infinity},{child_type,supervisor}]

2024-01-27 22:49:31 =CRASH REPORT====
  crasher:
    initial call: supervisor:ranch_acceptors_sup/1
    pid: <0.474.0>
    registered_name: []
    exception exit: {{listen_error,{acceptor,{0,0,0,0,0,0,0,1},61613},eaddrnotavail},[{ranch_acceptors_sup,listen_error,5,[{file,"src/ranch_acceptors_sup.erl"},{line,66}]},{supervisor,init,1,[{file,"supervisor.erl"},{line,295}]},{gen_server,init_it,2,[{file,"gen_server.erl"},{line,374}]},{gen_server,init_it,6,[{file,"gen_server.erl"},{line,342}]},{proc_lib,init_p_do_apply,3,[{file,"proc_lib.erl"},{line,249}]}]}
    ancestors: [<0.472.0>,<0.471.0>,rabbit_stomp_sup,<0.469.0>]
    message_queue_len: 0
    messages: []
    links: [<0.472.0>]
    dictionary: [{logger,error_logger}]
    trap_exit: true
    status: running
    heap_size: 610
    stack_size: 27
    reductions: 1828
  neighbours:
2024-01-27 22:49:31 =SUPERVISOR REPORT====
     Supervisor: {<0.471.0>,tcp_listener_sup}
     Context:    start_error
     Reason:     {shutdown,{failed_to_start_child,ranch_acceptors_sup,{listen_error,{acceptor,{0,0,0,0,0,0,0,1},61613},eaddrnotavail}}}
     Offender:   [{pid,undefined},{id,{ranch_listener_sup,{acceptor,{0,0,0,0,0,0,0,1},61613}}},{mfargs,{ranch_listener_sup,start_link,[{acceptor,{0,0,0,0,0,0,0,1},61613},ranch_tcp,#{connection_type => supervisor,handshake_timeout => 5000,max_connections => infinity,num_acceptors => 10,socket_opts => [{ip,{0,0,0,0,0,0,0,1}},{port,61613},inet6,{sndbuf,131072},{send_timeout,120},{recbuf,131072},{keepalive,true},{exit_on_close,true},{nodelay,true},{backlog,4096}]},rabbit_stomp_client_sup,{stomp_configuration,"guest","guest",false,false,false}]}},{restart_type,permanent},{shutdown,infinity},{child_type,supervisor}]

2024-01-27 22:49:31 =SUPERVISOR REPORT====
     Supervisor: {local,rabbit_stomp_sup}
     Context:    start_error
     Reason:     {shutdown,{failed_to_start_child,{ranch_listener_sup,{acceptor,{0,0,0,0,0,0,0,1},61613}},{shutdown,{failed_to_start_child,ranch_acceptors_sup,{listen_error,{acceptor,{0,0,0,0,0,0,0,1},61613},eaddrnotavail}}}}}
     Offender:   [{pid,undefined},{id,'rabbit_stomp_listener_sup_::1:61613'},{mfargs,{tcp_listener_sup,start_link,[{0,0,0,0,0,0,0,1},61613,ranch_tcp,[inet6,{sndbuf,131072},{send_timeout,120},{recbuf,131072},{keepalive,true},{exit_on_close,true},{nodelay,true},{backlog,4096}],rabbit_stomp_client_sup,{stomp_configuration,"guest","guest",false,false,false},{rabbit_networking,tcp_listener_started,[stomp,[{sndbuf,131072},{send_timeout,120},{recbuf,131072},{keepalive,true},{exit_on_close,true},{nodelay,true},{backlog,4096}]]},{rabbit_networking,tcp_listener_stopped,[stomp,[{sndbuf,131072},{send_timeout,120},{recbuf,131072},{keepalive,true},{exit_on_close,true},{nodelay,true},{backlog,4096}]]},10,"STOMP TCP listener"]}},{restart_type,transient},{shutdown,infinity},{child_type,supervisor}]

2024-01-27 22:49:31 =CRASH REPORT====
  crasher:
    initial call: application_master:init/4
    pid: <0.468.0>
    registered_name: []
    exception exit: {{{shutdown,{failed_to_start_child,'rabbit_stomp_listener_sup_::1:61613',{shutdown,{failed_to_start_child,{ranch_listener_sup,{acceptor,{0,0,0,0,0,0,0,1},61613}},{shutdown,{failed_to_start_child,ranch_acceptors_sup,{listen_error,{acceptor,{0,0,0,0,0,0,0,1},61613},eaddrnotavail}}}}}}},{rabbit_stomp,start,[normal,[]]}},[{application_master,init,4,[{file,"application_master.erl"},{line,138}]},{proc_lib,init_p_do_apply,3,[{file,"proc_lib.erl"},{line,249}]}]}
    ancestors: [<0.467.0>]
    message_queue_len: 1
    messages: [{'EXIT',<0.469.0>,normal}]
    links: [<0.467.0>,<0.44.0>]
    dictionary: []
    trap_exit: true
    status: running
    heap_size: 376
    stack_size: 27
    reductions: 220
  neighbours:
2024-01-27 22:49:47 =ERROR REPORT====
Failed to start Ranch listener {acceptor,{0,0,0,0,0,0,0,1},61613} in ranch_tcp:listen([{cacerts,'...'},{key,'...'},{cert,'...'},{ip,{0,0,0,0,0,0,0,1}},{port,61613},inet6,{sndbuf,131072},{send_timeout,120},{recbuf,131072},{keepalive,true},{exit_on_close,true},{nodelay,true},{backlog,4096}]) for reason eaddrnotavail (can't assign requested address)
2024-01-27 22:49:47 =CRASH REPORT====
  crasher:
    initial call: supervisor:ranch_acceptors_sup/1
    pid: <0.474.0>
    registered_name: []
    exception exit: {{listen_error,{acceptor,{0,0,0,0,0,0,0,1},61613},eaddrnotavail},[{ranch_acceptors_sup,listen_error,5,[{file,"src/ranch_acceptors_sup.erl"},{line,66}]},{supervisor,init,1,[{file,"supervisor.erl"},{line,295}]},{gen_server,init_it,2,[{file,"gen_server.erl"},{line,374}]},{gen_server,init_it,6,[{file,"gen_server.erl"},{line,342}]},{proc_lib,init_p_do_apply,3,[{file,"proc_lib.erl"},{line,249}]}]}
    ancestors: [<0.472.0>,<0.471.0>,rabbit_stomp_sup,<0.469.0>]
    message_queue_len: 0
    messages: []
    links: [<0.472.0>]
    dictionary: [{logger,error_logger}]
    trap_exit: true
    status: running
    heap_size: 610
    stack_size: 27
    reductions: 1828
  neighbours:
2024-01-27 22:49:47 =SUPERVISOR REPORT====
     Supervisor: {<0.472.0>,ranch_listener_sup}
     Context:    start_error
     Reason:     {listen_error,{acceptor,{0,0,0,0,0,0,0,1},61613},eaddrnotavail}
     Offender:   [{pid,undefined},{id,ranch_acceptors_sup},{mfargs,{ranch_acceptors_sup,start_link,[{acceptor,{0,0,0,0,0,0,0,1},61613},ranch_tcp]}},{restart_type,permanent},{shutdown,infinity},{child_type,supervisor}]

2024-01-27 22:49:47 =SUPERVISOR REPORT====
     Supervisor: {<0.471.0>,tcp_listener_sup}
     Context:    start_error
     Reason:     {shutdown,{failed_to_start_child,ranch_acceptors_sup,{listen_error,{acceptor,{0,0,0,0,0,0,0,1},61613},eaddrnotavail}}}
     Offender:   [{pid,undefined},{id,{ranch_listener_sup,{acceptor,{0,0,0,0,0,0,0,1},61613}}},{mfargs,{ranch_listener_sup,start_link,[{acceptor,{0,0,0,0,0,0,0,1},61613},ranch_tcp,#{connection_type => supervisor,handshake_timeout => 5000,max_connections => infinity,num_acceptors => 10,socket_opts => [{ip,{0,0,0,0,0,0,0,1}},{port,61613},inet6,{sndbuf,131072},{send_timeout,120},{recbuf,131072},{keepalive,true},{exit_on_close,true},{nodelay,true},{backlog,4096}]},rabbit_stomp_client_sup,{stomp_configuration,"guest","guest",false,false,false}]}},{restart_type,permanent},{shutdown,infinity},{child_type,supervisor}]

2024-01-27 22:49:47 =SUPERVISOR REPORT====
     Supervisor: {local,rabbit_stomp_sup}
     Context:    start_error
     Reason:     {shutdown,{failed_to_start_child,{ranch_listener_sup,{acceptor,{0,0,0,0,0,0,0,1},61613}},{shutdown,{failed_to_start_child,ranch_acceptors_sup,{listen_error,{acceptor,{0,0,0,0,0,0,0,1},61613},eaddrnotavail}}}}}
     Offender:   [{pid,undefined},{id,'rabbit_stomp_listener_sup_::1:61613'},{mfargs,{tcp_listener_sup,start_link,[{0,0,0,0,0,0,0,1},61613,ranch_tcp,[inet6,{sndbuf,131072},{send_timeout,120},{recbuf,131072},{keepalive,true},{exit_on_close,true},{nodelay,true},{backlog,4096}],rabbit_stomp_client_sup,{stomp_configuration,"guest","guest",false,false,false},{rabbit_networking,tcp_listener_started,[stomp,[{sndbuf,131072},{send_timeout,120},{recbuf,131072},{keepalive,true},{exit_on_close,true},{nodelay,true},{backlog,4096}]]},{rabbit_networking,tcp_listener_stopped,[stomp,[{sndbuf,131072},{send_timeout,120},{recbuf,131072},{keepalive,true},{exit_on_close,true},{nodelay,true},{backlog,4096}]]},10,"STOMP TCP listener"]}},{restart_type,transient},{shutdown,infinity},{child_type,supervisor}]

2024-01-27 22:49:47 =CRASH REPORT====
  crasher:
    initial call: application_master:init/4
    pid: <0.468.0>
    registered_name: []
    exception exit: {{{shutdown,{failed_to_start_child,'rabbit_stomp_listener_sup_::1:61613',{shutdown,{failed_to_start_child,{ranch_listener_sup,{acceptor,{0,0,0,0,0,0,0,1},61613}},{shutdown,{failed_to_start_child,ranch_acceptors_sup,{listen_error,{acceptor,{0,0,0,0,0,0,0,1},61613},eaddrnotavail}}}}}}},{rabbit_stomp,start,[normal,[]]}},[{application_master,init,4,[{file,"application_master.erl"},{line,138}]},{proc_lib,init_p_do_apply,3,[{file,"proc_lib.erl"},{line,249}]}]}
    ancestors: [<0.467.0>]
    message_queue_len: 0
    messages: []
    links: [<0.467.0>,<0.469.0>,<0.44.0>]
    dictionary: []
    trap_exit: true
    status: running
    heap_size: 610
    stack_size: 27
    reductions: 221
  neighbours:
2024-01-27 23:24:19 =ERROR REPORT====
Failed to start Ranch listener {acceptor,{0,0,0,0,0,0,0,0},61613} in ranch_tcp:listen([{cacerts,'...'},{key,'...'},{cert,'...'},{ip,{0,0,0,0,0,0,0,0}},{port,61613},inet6,{sndbuf,131072},{send_timeout,120},{recbuf,131072},{port,61613},{keepalive,true},{exit_on_close,true},{nodelay,true},{backlog,4096}]) for reason eaddrinuse (address already in use)
2024-01-27 23:24:19 =SUPERVISOR REPORT====
     Supervisor: {<0.498.0>,ranch_listener_sup}
     Context:    start_error
     Reason:     {listen_error,{acceptor,{0,0,0,0,0,0,0,0},61613},eaddrinuse}
     Offender:   [{pid,undefined},{id,ranch_acceptors_sup},{mfargs,{ranch_acceptors_sup,start_link,[{acceptor,{0,0,0,0,0,0,0,0},61613},ranch_tcp]}},{restart_type,permanent},{shutdown,infinity},{child_type,supervisor}]

2024-01-27 23:24:19 =CRASH REPORT====
  crasher:
    initial call: supervisor:ranch_acceptors_sup/1
    pid: <0.500.0>
    registered_name: []
    exception exit: {{listen_error,{acceptor,{0,0,0,0,0,0,0,0},61613},eaddrinuse},[{ranch_acceptors_sup,listen_error,5,[{file,"src/ranch_acceptors_sup.erl"},{line,66}]},{supervisor,init,1,[{file,"supervisor.erl"},{line,295}]},{gen_server,init_it,2,[{file,"gen_server.erl"},{line,374}]},{gen_server,init_it,6,[{file,"gen_server.erl"},{line,342}]},{proc_lib,init_p_do_apply,3,[{file,"proc_lib.erl"},{line,249}]}]}
    ancestors: [<0.498.0>,<0.497.0>,rabbit_stomp_sup,<0.480.0>]
    message_queue_len: 0
    messages: []
    links: [<0.498.0>]
    dictionary: [{logger,error_logger}]
    trap_exit: true
    status: running
    heap_size: 610
    stack_size: 27
    reductions: 1849
  neighbours:
2024-01-27 23:24:19 =SUPERVISOR REPORT====
     Supervisor: {<0.497.0>,tcp_listener_sup}
     Context:    start_error
     Reason:     {shutdown,{failed_to_start_child,ranch_acceptors_sup,{listen_error,{acceptor,{0,0,0,0,0,0,0,0},61613},eaddrinuse}}}
     Offender:   [{pid,undefined},{id,{ranch_listener_sup,{acceptor,{0,0,0,0,0,0,0,0},61613}}},{mfargs,{ranch_listener_sup,start_link,[{acceptor,{0,0,0,0,0,0,0,0},61613},ranch_tcp,#{connection_type => supervisor,handshake_timeout => 5000,max_connections => infinity,num_acceptors => 10,socket_opts => [{ip,{0,0,0,0,0,0,0,0}},{port,61613},inet6,{sndbuf,131072},{send_timeout,120},{recbuf,131072},{port,61613},{keepalive,true},{exit_on_close,true},{nodelay,true},{backlog,4096}]},rabbit_stomp_client_sup,{stomp_configuration,"guest","guest",false,false,false}]}},{restart_type,permanent},{shutdown,infinity},{child_type,supervisor}]

2024-01-27 23:24:19 =SUPERVISOR REPORT====
     Supervisor: {local,rabbit_stomp_sup}
     Context:    start_error
     Reason:     {shutdown,{failed_to_start_child,{ranch_listener_sup,{acceptor,{0,0,0,0,0,0,0,0},61613}},{shutdown,{failed_to_start_child,ranch_acceptors_sup,{listen_error,{acceptor,{0,0,0,0,0,0,0,0},61613},eaddrinuse}}}}}
     Offender:   [{pid,undefined},{id,'rabbit_stomp_listener_sup_:::61613'},{mfargs,{tcp_listener_sup,start_link,[{0,0,0,0,0,0,0,0},61613,ranch_tcp,[inet6,{sndbuf,131072},{send_timeout,120},{recbuf,131072},{port,61613},{keepalive,true},{exit_on_close,true},{nodelay,true},{backlog,4096}],rabbit_stomp_client_sup,{stomp_configuration,"guest","guest",false,false,false},{rabbit_networking,tcp_listener_started,[stomp,[{sndbuf,131072},{send_timeout,120},{recbuf,131072},{port,61613},{keepalive,true},{exit_on_close,true},{nodelay,true},{backlog,4096}]]},{rabbit_networking,tcp_listener_stopped,[stomp,[{sndbuf,131072},{send_timeout,120},{recbuf,131072},{port,61613},{keepalive,true},{exit_on_close,true},{nodelay,true},{backlog,4096}]]},10,"STOMP TCP listener"]}},{restart_type,transient},{shutdown,infinity},{child_type,supervisor}]

2024-01-27 23:24:19 =CRASH REPORT====
  crasher:
    initial call: application_master:init/4
    pid: <0.479.0>
    registered_name: []
    exception exit: {{{shutdown,{failed_to_start_child,'rabbit_stomp_listener_sup_:::61613',{shutdown,{failed_to_start_child,{ranch_listener_sup,{acceptor,{0,0,0,0,0,0,0,0},61613}},{shutdown,{failed_to_start_child,ranch_acceptors_sup,{listen_error,{acceptor,{0,0,0,0,0,0,0,0},61613},eaddrinuse}}}}}}},{rabbit_stomp,start,[normal,[]]}},[{application_master,init,4,[{file,"application_master.erl"},{line,138}]},{proc_lib,init_p_do_apply,3,[{file,"proc_lib.erl"},{line,249}]}]}
    ancestors: [<0.478.0>]
    message_queue_len: 1
    messages: [{'EXIT',<0.480.0>,normal}]
    links: [<0.478.0>,<0.44.0>]
    dictionary: []
    trap_exit: true
    status: running
    heap_size: 376
    stack_size: 27
    reductions: 220
  neighbours:
2024-01-27 23:24:36 =ERROR REPORT====
Failed to start Ranch listener {acceptor,{0,0,0,0,0,0,0,0},61613} in ranch_tcp:listen([{cacerts,'...'},{key,'...'},{cert,'...'},{ip,{0,0,0,0,0,0,0,0}},{port,61613},inet6,{sndbuf,131072},{send_timeout,120},{recbuf,131072},{port,61613},{keepalive,true},{exit_on_close,true},{nodelay,true},{backlog,4096}]) for reason eaddrinuse (address already in use)
2024-01-27 23:24:36 =SUPERVISOR REPORT====
     Supervisor: {<0.498.0>,ranch_listener_sup}
     Context:    start_error
     Reason:     {listen_error,{acceptor,{0,0,0,0,0,0,0,0},61613},eaddrinuse}
     Offender:   [{pid,undefined},{id,ranch_acceptors_sup},{mfargs,{ranch_acceptors_sup,start_link,[{acceptor,{0,0,0,0,0,0,0,0},61613},ranch_tcp]}},{restart_type,permanent},{shutdown,infinity},{child_type,supervisor}]

2024-01-27 23:24:36 =CRASH REPORT====
  crasher:
    initial call: supervisor:ranch_acceptors_sup/1
    pid: <0.500.0>
    registered_name: []
    exception exit: {{listen_error,{acceptor,{0,0,0,0,0,0,0,0},61613},eaddrinuse},[{ranch_acceptors_sup,listen_error,5,[{file,"src/ranch_acceptors_sup.erl"},{line,66}]},{supervisor,init,1,[{file,"supervisor.erl"},{line,295}]},{gen_server,init_it,2,[{file,"gen_server.erl"},{line,374}]},{gen_server,init_it,6,[{file,"gen_server.erl"},{line,342}]},{proc_lib,init_p_do_apply,3,[{file,"proc_lib.erl"},{line,249}]}]}
    ancestors: [<0.498.0>,<0.497.0>,rabbit_stomp_sup,<0.480.0>]
    message_queue_len: 0
    messages: []
    links: [<0.498.0>]
    dictionary: [{logger,error_logger}]
    trap_exit: true
    status: running
    heap_size: 610
    stack_size: 27
    reductions: 1849
  neighbours:
2024-01-27 23:24:36 =SUPERVISOR REPORT====
     Supervisor: {<0.497.0>,tcp_listener_sup}
     Context:    start_error
     Reason:     {shutdown,{failed_to_start_child,ranch_acceptors_sup,{listen_error,{acceptor,{0,0,0,0,0,0,0,0},61613},eaddrinuse}}}
     Offender:   [{pid,undefined},{id,{ranch_listener_sup,{acceptor,{0,0,0,0,0,0,0,0},61613}}},{mfargs,{ranch_listener_sup,start_link,[{acceptor,{0,0,0,0,0,0,0,0},61613},ranch_tcp,#{connection_type => supervisor,handshake_timeout => 5000,max_connections => infinity,num_acceptors => 10,socket_opts => [{ip,{0,0,0,0,0,0,0,0}},{port,61613},inet6,{sndbuf,131072},{send_timeout,120},{recbuf,131072},{port,61613},{keepalive,true},{exit_on_close,true},{nodelay,true},{backlog,4096}]},rabbit_stomp_client_sup,{stomp_configuration,"guest","guest",false,false,false}]}},{restart_type,permanent},{shutdown,infinity},{child_type,supervisor}]

2024-01-27 23:24:36 =SUPERVISOR REPORT====
     Supervisor: {local,rabbit_stomp_sup}
     Context:    start_error
     Reason:     {shutdown,{failed_to_start_child,{ranch_listener_sup,{acceptor,{0,0,0,0,0,0,0,0},61613}},{shutdown,{failed_to_start_child,ranch_acceptors_sup,{listen_error,{acceptor,{0,0,0,0,0,0,0,0},61613},eaddrinuse}}}}}
     Offender:   [{pid,undefined},{id,'rabbit_stomp_listener_sup_:::61613'},{mfargs,{tcp_listener_sup,start_link,[{0,0,0,0,0,0,0,0},61613,ranch_tcp,[inet6,{sndbuf,131072},{send_timeout,120},{recbuf,131072},{port,61613},{keepalive,true},{exit_on_close,true},{nodelay,true},{backlog,4096}],rabbit_stomp_client_sup,{stomp_configuration,"guest","guest",false,false,false},{rabbit_networking,tcp_listener_started,[stomp,[{sndbuf,131072},{send_timeout,120},{recbuf,131072},{port,61613},{keepalive,true},{exit_on_close,true},{nodelay,true},{backlog,4096}]]},{rabbit_networking,tcp_listener_stopped,[stomp,[{sndbuf,131072},{send_timeout,120},{recbuf,131072},{port,61613},{keepalive,true},{exit_on_close,true},{nodelay,true},{backlog,4096}]]},10,"STOMP TCP listener"]}},{restart_type,transient},{shutdown,infinity},{child_type,supervisor}]

2024-01-27 23:24:36 =CRASH REPORT====
  crasher:
    initial call: application_master:init/4
    pid: <0.479.0>
    registered_name: []
    exception exit: {{{shutdown,{failed_to_start_child,'rabbit_stomp_listener_sup_:::61613',{shutdown,{failed_to_start_child,{ranch_listener_sup,{acceptor,{0,0,0,0,0,0,0,0},61613}},{shutdown,{failed_to_start_child,ranch_acceptors_sup,{listen_error,{acceptor,{0,0,0,0,0,0,0,0},61613},eaddrinuse}}}}}}},{rabbit_stomp,start,[normal,[]]}},[{application_master,init,4,[{file,"application_master.erl"},{line,138}]},{proc_lib,init_p_do_apply,3,[{file,"proc_lib.erl"},{line,249}]}]}
    ancestors: [<0.478.0>]
    message_queue_len: 1
    messages: [{'EXIT',<0.480.0>,normal}]
    links: [<0.478.0>,<0.44.0>]
    dictionary: []
    trap_exit: true
    status: running
    heap_size: 376
    stack_size: 27
    reductions: 220
  neighbours:
2024-01-27 23:24:54 =ERROR REPORT====
Failed to start Ranch listener {acceptor,{0,0,0,0,0,0,0,0},61613} in ranch_tcp:listen([{cacerts,'...'},{key,'...'},{cert,'...'},{ip,{0,0,0,0,0,0,0,0}},{port,61613},inet6,{sndbuf,131072},{send_timeout,120},{recbuf,131072},{port,61613},{keepalive,true},{exit_on_close,true},{nodelay,true},{backlog,4096}]) for reason eaddrinuse (address already in use)
2024-01-27 23:24:54 =SUPERVISOR REPORT====
     Supervisor: {<0.498.0>,ranch_listener_sup}
     Context:    start_error
     Reason:     {listen_error,{acceptor,{0,0,0,0,0,0,0,0},61613},eaddrinuse}
     Offender:   [{pid,undefined},{id,ranch_acceptors_sup},{mfargs,{ranch_acceptors_sup,start_link,[{acceptor,{0,0,0,0,0,0,0,0},61613},ranch_tcp]}},{restart_type,permanent},{shutdown,infinity},{child_type,supervisor}]

2024-01-27 23:24:54 =CRASH REPORT====
  crasher:
    initial call: supervisor:ranch_acceptors_sup/1
    pid: <0.500.0>
    registered_name: []
    exception exit: {{listen_error,{acceptor,{0,0,0,0,0,0,0,0},61613},eaddrinuse},[{ranch_acceptors_sup,listen_error,5,[{file,"src/ranch_acceptors_sup.erl"},{line,66}]},{supervisor,init,1,[{file,"supervisor.erl"},{line,295}]},{gen_server,init_it,2,[{file,"gen_server.erl"},{line,374}]},{gen_server,init_it,6,[{file,"gen_server.erl"},{line,342}]},{proc_lib,init_p_do_apply,3,[{file,"proc_lib.erl"},{line,249}]}]}
    ancestors: [<0.498.0>,<0.497.0>,rabbit_stomp_sup,<0.480.0>]
    message_queue_len: 0
    messages: []
    links: [<0.498.0>]
    dictionary: [{logger,error_logger}]
    trap_exit: true
    status: running
    heap_size: 610
    stack_size: 27
    reductions: 1849
  neighbours:
2024-01-27 23:24:54 =SUPERVISOR REPORT====
     Supervisor: {<0.497.0>,tcp_listener_sup}
     Context:    start_error
     Reason:     {shutdown,{failed_to_start_child,ranch_acceptors_sup,{listen_error,{acceptor,{0,0,0,0,0,0,0,0},61613},eaddrinuse}}}
     Offender:   [{pid,undefined},{id,{ranch_listener_sup,{acceptor,{0,0,0,0,0,0,0,0},61613}}},{mfargs,{ranch_listener_sup,start_link,[{acceptor,{0,0,0,0,0,0,0,0},61613},ranch_tcp,#{connection_type => supervisor,handshake_timeout => 5000,max_connections => infinity,num_acceptors => 10,socket_opts => [{ip,{0,0,0,0,0,0,0,0}},{port,61613},inet6,{sndbuf,131072},{send_timeout,120},{recbuf,131072},{port,61613},{keepalive,true},{exit_on_close,true},{nodelay,true},{backlog,4096}]},rabbit_stomp_client_sup,{stomp_configuration,"guest","guest",false,false,false}]}},{restart_type,permanent},{shutdown,infinity},{child_type,supervisor}]

2024-01-27 23:24:54 =SUPERVISOR REPORT====
     Supervisor: {local,rabbit_stomp_sup}
     Context:    start_error
     Reason:     {shutdown,{failed_to_start_child,{ranch_listener_sup,{acceptor,{0,0,0,0,0,0,0,0},61613}},{shutdown,{failed_to_start_child,ranch_acceptors_sup,{listen_error,{acceptor,{0,0,0,0,0,0,0,0},61613},eaddrinuse}}}}}
     Offender:   [{pid,undefined},{id,'rabbit_stomp_listener_sup_:::61613'},{mfargs,{tcp_listener_sup,start_link,[{0,0,0,0,0,0,0,0},61613,ranch_tcp,[inet6,{sndbuf,131072},{send_timeout,120},{recbuf,131072},{port,61613},{keepalive,true},{exit_on_close,true},{nodelay,true},{backlog,4096}],rabbit_stomp_client_sup,{stomp_configuration,"guest","guest",false,false,false},{rabbit_networking,tcp_listener_started,[stomp,[{sndbuf,131072},{send_timeout,120},{recbuf,131072},{port,61613},{keepalive,true},{exit_on_close,true},{nodelay,true},{backlog,4096}]]},{rabbit_networking,tcp_listener_stopped,[stomp,[{sndbuf,131072},{send_timeout,120},{recbuf,131072},{port,61613},{keepalive,true},{exit_on_close,true},{nodelay,true},{backlog,4096}]]},10,"STOMP TCP listener"]}},{restart_type,transient},{shutdown,infinity},{child_type,supervisor}]

2024-01-27 23:24:54 =CRASH REPORT====
  crasher:
    initial call: application_master:init/4
    pid: <0.479.0>
    registered_name: []
    exception exit: {{{shutdown,{failed_to_start_child,'rabbit_stomp_listener_sup_:::61613',{shutdown,{failed_to_start_child,{ranch_listener_sup,{acceptor,{0,0,0,0,0,0,0,0},61613}},{shutdown,{failed_to_start_child,ranch_acceptors_sup,{listen_error,{acceptor,{0,0,0,0,0,0,0,0},61613},eaddrinuse}}}}}}},{rabbit_stomp,start,[normal,[]]}},[{application_master,init,4,[{file,"application_master.erl"},{line,138}]},{proc_lib,init_p_do_apply,3,[{file,"proc_lib.erl"},{line,249}]}]}
    ancestors: [<0.478.0>]
    message_queue_len: 1
    messages: [{'EXIT',<0.480.0>,normal}]
    links: [<0.478.0>,<0.44.0>]
    dictionary: []
    trap_exit: true
    status: running
    heap_size: 376
    stack_size: 27
    reductions: 220
  neighbours:
2024-01-27 23:25:10 =ERROR REPORT====
Failed to start Ranch listener {acceptor,{0,0,0,0,0,0,0,0},61613} in ranch_tcp:listen([{cacerts,'...'},{key,'...'},{cert,'...'},{ip,{0,0,0,0,0,0,0,0}},{port,61613},inet6,{sndbuf,131072},{send_timeout,120},{recbuf,131072},{port,61613},{keepalive,true},{exit_on_close,true},{nodelay,true},{backlog,4096}]) for reason eaddrinuse (address already in use)
2024-01-27 23:25:10 =SUPERVISOR REPORT====
     Supervisor: {<0.498.0>,ranch_listener_sup}
     Context:    start_error
     Reason:     {listen_error,{acceptor,{0,0,0,0,0,0,0,0},61613},eaddrinuse}
     Offender:   [{pid,undefined},{id,ranch_acceptors_sup},{mfargs,{ranch_acceptors_sup,start_link,[{acceptor,{0,0,0,0,0,0,0,0},61613},ranch_tcp]}},{restart_type,permanent},{shutdown,infinity},{child_type,supervisor}]

2024-01-27 23:25:10 =CRASH REPORT====
  crasher:
    initial call: supervisor:ranch_acceptors_sup/1
    pid: <0.500.0>
    registered_name: []
    exception exit: {{listen_error,{acceptor,{0,0,0,0,0,0,0,0},61613},eaddrinuse},[{ranch_acceptors_sup,listen_error,5,[{file,"src/ranch_acceptors_sup.erl"},{line,66}]},{supervisor,init,1,[{file,"supervisor.erl"},{line,295}]},{gen_server,init_it,2,[{file,"gen_server.erl"},{line,374}]},{gen_server,init_it,6,[{file,"gen_server.erl"},{line,342}]},{proc_lib,init_p_do_apply,3,[{file,"proc_lib.erl"},{line,249}]}]}
    ancestors: [<0.498.0>,<0.497.0>,rabbit_stomp_sup,<0.480.0>]
    message_queue_len: 0
    messages: []
    links: [<0.498.0>]
    dictionary: [{logger,error_logger}]
    trap_exit: true
    status: running
    heap_size: 610
    stack_size: 27
    reductions: 1851
  neighbours:
2024-01-27 23:25:10 =SUPERVISOR REPORT====
     Supervisor: {<0.497.0>,tcp_listener_sup}
     Context:    start_error
     Reason:     {shutdown,{failed_to_start_child,ranch_acceptors_sup,{listen_error,{acceptor,{0,0,0,0,0,0,0,0},61613},eaddrinuse}}}
     Offender:   [{pid,undefined},{id,{ranch_listener_sup,{acceptor,{0,0,0,0,0,0,0,0},61613}}},{mfargs,{ranch_listener_sup,start_link,[{acceptor,{0,0,0,0,0,0,0,0},61613},ranch_tcp,#{connection_type => supervisor,handshake_timeout => 5000,max_connections => infinity,num_acceptors => 10,socket_opts => [{ip,{0,0,0,0,0,0,0,0}},{port,61613},inet6,{sndbuf,131072},{send_timeout,120},{recbuf,131072},{port,61613},{keepalive,true},{exit_on_close,true},{nodelay,true},{backlog,4096}]},rabbit_stomp_client_sup,{stomp_configuration,"guest","guest",false,false,false}]}},{restart_type,permanent},{shutdown,infinity},{child_type,supervisor}]

2024-01-27 23:25:10 =SUPERVISOR REPORT====
     Supervisor: {local,rabbit_stomp_sup}
     Context:    start_error
     Reason:     {shutdown,{failed_to_start_child,{ranch_listener_sup,{acceptor,{0,0,0,0,0,0,0,0},61613}},{shutdown,{failed_to_start_child,ranch_acceptors_sup,{listen_error,{acceptor,{0,0,0,0,0,0,0,0},61613},eaddrinuse}}}}}
     Offender:   [{pid,undefined},{id,'rabbit_stomp_listener_sup_:::61613'},{mfargs,{tcp_listener_sup,start_link,[{0,0,0,0,0,0,0,0},61613,ranch_tcp,[inet6,{sndbuf,131072},{send_timeout,120},{recbuf,131072},{port,61613},{keepalive,true},{exit_on_close,true},{nodelay,true},{backlog,4096}],rabbit_stomp_client_sup,{stomp_configuration,"guest","guest",false,false,false},{rabbit_networking,tcp_listener_started,[stomp,[{sndbuf,131072},{send_timeout,120},{recbuf,131072},{port,61613},{keepalive,true},{exit_on_close,true},{nodelay,true},{backlog,4096}]]},{rabbit_networking,tcp_listener_stopped,[stomp,[{sndbuf,131072},{send_timeout,120},{recbuf,131072},{port,61613},{keepalive,true},{exit_on_close,true},{nodelay,true},{backlog,4096}]]},10,"STOMP TCP listener"]}},{restart_type,transient},{shutdown,infinity},{child_type,supervisor}]

2024-01-27 23:25:10 =CRASH REPORT====
  crasher:
    initial call: application_master:init/4
    pid: <0.479.0>
    registered_name: []
    exception exit: {{{shutdown,{failed_to_start_child,'rabbit_stomp_listener_sup_:::61613',{shutdown,{failed_to_start_child,{ranch_listener_sup,{acceptor,{0,0,0,0,0,0,0,0},61613}},{shutdown,{failed_to_start_child,ranch_acceptors_sup,{listen_error,{acceptor,{0,0,0,0,0,0,0,0},61613},eaddrinuse}}}}}}},{rabbit_stomp,start,[normal,[]]}},[{application_master,init,4,[{file,"application_master.erl"},{line,138}]},{proc_lib,init_p_do_apply,3,[{file,"proc_lib.erl"},{line,249}]}]}
    ancestors: [<0.478.0>]
    message_queue_len: 1
    messages: [{'EXIT',<0.480.0>,normal}]
    links: [<0.478.0>,<0.44.0>]
    dictionary: []
    trap_exit: true
    status: running
    heap_size: 376
    stack_size: 27
    reductions: 220
  neighbours:
2024-01-27 23:25:29 =ERROR REPORT====
Failed to start Ranch listener {acceptor,{0,0,0,0,0,0,0,0},61613} in ranch_tcp:listen([{cacerts,'...'},{key,'...'},{cert,'...'},{ip,{0,0,0,0,0,0,0,0}},{port,61613},inet6,{sndbuf,131072},{send_timeout,120},{recbuf,131072},{port,61613},{keepalive,true},{exit_on_close,true},{nodelay,true},{backlog,4096}]) for reason eaddrinuse (address already in use)
2024-01-27 23:25:29 =SUPERVISOR REPORT====
     Supervisor: {<0.498.0>,ranch_listener_sup}
     Context:    start_error
     Reason:     {listen_error,{acceptor,{0,0,0,0,0,0,0,0},61613},eaddrinuse}
     Offender:   [{pid,undefined},{id,ranch_acceptors_sup},{mfargs,{ranch_acceptors_sup,start_link,[{acceptor,{0,0,0,0,0,0,0,0},61613},ranch_tcp]}},{restart_type,permanent},{shutdown,infinity},{child_type,supervisor}]

2024-01-27 23:25:29 =CRASH REPORT====
  crasher:
    initial call: supervisor:ranch_acceptors_sup/1
    pid: <0.500.0>
    registered_name: []
    exception exit: {{listen_error,{acceptor,{0,0,0,0,0,0,0,0},61613},eaddrinuse},[{ranch_acceptors_sup,listen_error,5,[{file,"src/ranch_acceptors_sup.erl"},{line,66}]},{supervisor,init,1,[{file,"supervisor.erl"},{line,295}]},{gen_server,init_it,2,[{file,"gen_server.erl"},{line,374}]},{gen_server,init_it,6,[{file,"gen_server.erl"},{line,342}]},{proc_lib,init_p_do_apply,3,[{file,"proc_lib.erl"},{line,249}]}]}
    ancestors: [<0.498.0>,<0.497.0>,rabbit_stomp_sup,<0.480.0>]
    message_queue_len: 0
    messages: []
    links: [<0.498.0>]
    dictionary: [{logger,error_logger}]
    trap_exit: true
    status: running
    heap_size: 610
    stack_size: 27
    reductions: 1849
  neighbours:
2024-01-27 23:25:29 =SUPERVISOR REPORT====
     Supervisor: {<0.497.0>,tcp_listener_sup}
     Context:    start_error
     Reason:     {shutdown,{failed_to_start_child,ranch_acceptors_sup,{listen_error,{acceptor,{0,0,0,0,0,0,0,0},61613},eaddrinuse}}}
     Offender:   [{pid,undefined},{id,{ranch_listener_sup,{acceptor,{0,0,0,0,0,0,0,0},61613}}},{mfargs,{ranch_listener_sup,start_link,[{acceptor,{0,0,0,0,0,0,0,0},61613},ranch_tcp,#{connection_type => supervisor,handshake_timeout => 5000,max_connections => infinity,num_acceptors => 10,socket_opts => [{ip,{0,0,0,0,0,0,0,0}},{port,61613},inet6,{sndbuf,131072},{send_timeout,120},{recbuf,131072},{port,61613},{keepalive,true},{exit_on_close,true},{nodelay,true},{backlog,4096}]},rabbit_stomp_client_sup,{stomp_configuration,"guest","guest",false,false,false}]}},{restart_type,permanent},{shutdown,infinity},{child_type,supervisor}]

2024-01-27 23:25:29 =SUPERVISOR REPORT====
     Supervisor: {local,rabbit_stomp_sup}
     Context:    start_error
     Reason:     {shutdown,{failed_to_start_child,{ranch_listener_sup,{acceptor,{0,0,0,0,0,0,0,0},61613}},{shutdown,{failed_to_start_child,ranch_acceptors_sup,{listen_error,{acceptor,{0,0,0,0,0,0,0,0},61613},eaddrinuse}}}}}
     Offender:   [{pid,undefined},{id,'rabbit_stomp_listener_sup_:::61613'},{mfargs,{tcp_listener_sup,start_link,[{0,0,0,0,0,0,0,0},61613,ranch_tcp,[inet6,{sndbuf,131072},{send_timeout,120},{recbuf,131072},{port,61613},{keepalive,true},{exit_on_close,true},{nodelay,true},{backlog,4096}],rabbit_stomp_client_sup,{stomp_configuration,"guest","guest",false,false,false},{rabbit_networking,tcp_listener_started,[stomp,[{sndbuf,131072},{send_timeout,120},{recbuf,131072},{port,61613},{keepalive,true},{exit_on_close,true},{nodelay,true},{backlog,4096}]]},{rabbit_networking,tcp_listener_stopped,[stomp,[{sndbuf,131072},{send_timeout,120},{recbuf,131072},{port,61613},{keepalive,true},{exit_on_close,true},{nodelay,true},{backlog,4096}]]},10,"STOMP TCP listener"]}},{restart_type,transient},{shutdown,infinity},{child_type,supervisor}]

2024-01-27 23:25:29 =CRASH REPORT====
  crasher:
    initial call: application_master:init/4
    pid: <0.479.0>
    registered_name: []
    exception exit: {{{shutdown,{failed_to_start_child,'rabbit_stomp_listener_sup_:::61613',{shutdown,{failed_to_start_child,{ranch_listener_sup,{acceptor,{0,0,0,0,0,0,0,0},61613}},{shutdown,{failed_to_start_child,ranch_acceptors_sup,{listen_error,{acceptor,{0,0,0,0,0,0,0,0},61613},eaddrinuse}}}}}}},{rabbit_stomp,start,[normal,[]]}},[{application_master,init,4,[{file,"application_master.erl"},{line,138}]},{proc_lib,init_p_do_apply,3,[{file,"proc_lib.erl"},{line,249}]}]}
    ancestors: [<0.478.0>]
    message_queue_len: 1
    messages: [{'EXIT',<0.480.0>,normal}]
    links: [<0.478.0>,<0.44.0>]
    dictionary: []
    trap_exit: true
    status: running
    heap_size: 376
    stack_size: 27
    reductions: 220
  neighbours:
2024-01-27 23:25:57 =ERROR REPORT====
Failed to start Ranch listener {acceptor,{0,0,0,0,0,0,0,0},61613} in ranch_tcp:listen([{cacerts,'...'},{key,'...'},{cert,'...'},{ip,{0,0,0,0,0,0,0,0}},{port,61613},inet6,{sndbuf,131072},{send_timeout,120},{recbuf,131072},{port,61613},{keepalive,true},{exit_on_close,true},{nodelay,true},{backlog,4096}]) for reason eaddrinuse (address already in use)
2024-01-27 23:25:57 =SUPERVISOR REPORT====
     Supervisor: {<0.498.0>,ranch_listener_sup}
     Context:    start_error
     Reason:     {listen_error,{acceptor,{0,0,0,0,0,0,0,0},61613},eaddrinuse}
     Offender:   [{pid,undefined},{id,ranch_acceptors_sup},{mfargs,{ranch_acceptors_sup,start_link,[{acceptor,{0,0,0,0,0,0,0,0},61613},ranch_tcp]}},{restart_type,permanent},{shutdown,infinity},{child_type,supervisor}]

2024-01-27 23:25:57 =CRASH REPORT====
  crasher:
    initial call: supervisor:ranch_acceptors_sup/1
    pid: <0.500.0>
    registered_name: []
    exception exit: {{listen_error,{acceptor,{0,0,0,0,0,0,0,0},61613},eaddrinuse},[{ranch_acceptors_sup,listen_error,5,[{file,"src/ranch_acceptors_sup.erl"},{line,66}]},{supervisor,init,1,[{file,"supervisor.erl"},{line,295}]},{gen_server,init_it,2,[{file,"gen_server.erl"},{line,374}]},{gen_server,init_it,6,[{file,"gen_server.erl"},{line,342}]},{proc_lib,init_p_do_apply,3,[{file,"proc_lib.erl"},{line,249}]}]}
    ancestors: [<0.498.0>,<0.497.0>,rabbit_stomp_sup,<0.480.0>]
    message_queue_len: 0
    messages: []
    links: [<0.498.0>]
    dictionary: [{logger,error_logger}]
    trap_exit: true
    status: running
    heap_size: 610
    stack_size: 27
    reductions: 1851
  neighbours:
2024-01-27 23:25:57 =SUPERVISOR REPORT====
     Supervisor: {<0.497.0>,tcp_listener_sup}
     Context:    start_error
     Reason:     {shutdown,{failed_to_start_child,ranch_acceptors_sup,{listen_error,{acceptor,{0,0,0,0,0,0,0,0},61613},eaddrinuse}}}
     Offender:   [{pid,undefined},{id,{ranch_listener_sup,{acceptor,{0,0,0,0,0,0,0,0},61613}}},{mfargs,{ranch_listener_sup,start_link,[{acceptor,{0,0,0,0,0,0,0,0},61613},ranch_tcp,#{connection_type => supervisor,handshake_timeout => 5000,max_connections => infinity,num_acceptors => 10,socket_opts => [{ip,{0,0,0,0,0,0,0,0}},{port,61613},inet6,{sndbuf,131072},{send_timeout,120},{recbuf,131072},{port,61613},{keepalive,true},{exit_on_close,true},{nodelay,true},{backlog,4096}]},rabbit_stomp_client_sup,{stomp_configuration,"guest","guest",false,false,false}]}},{restart_type,permanent},{shutdown,infinity},{child_type,supervisor}]

2024-01-27 23:25:57 =SUPERVISOR REPORT====
     Supervisor: {local,rabbit_stomp_sup}
     Context:    start_error
     Reason:     {shutdown,{failed_to_start_child,{ranch_listener_sup,{acceptor,{0,0,0,0,0,0,0,0},61613}},{shutdown,{failed_to_start_child,ranch_acceptors_sup,{listen_error,{acceptor,{0,0,0,0,0,0,0,0},61613},eaddrinuse}}}}}
     Offender:   [{pid,undefined},{id,'rabbit_stomp_listener_sup_:::61613'},{mfargs,{tcp_listener_sup,start_link,[{0,0,0,0,0,0,0,0},61613,ranch_tcp,[inet6,{sndbuf,131072},{send_timeout,120},{recbuf,131072},{port,61613},{keepalive,true},{exit_on_close,true},{nodelay,true},{backlog,4096}],rabbit_stomp_client_sup,{stomp_configuration,"guest","guest",false,false,false},{rabbit_networking,tcp_listener_started,[stomp,[{sndbuf,131072},{send_timeout,120},{recbuf,131072},{port,61613},{keepalive,true},{exit_on_close,true},{nodelay,true},{backlog,4096}]]},{rabbit_networking,tcp_listener_stopped,[stomp,[{sndbuf,131072},{send_timeout,120},{recbuf,131072},{port,61613},{keepalive,true},{exit_on_close,true},{nodelay,true},{backlog,4096}]]},10,"STOMP TCP listener"]}},{restart_type,transient},{shutdown,infinity},{child_type,supervisor}]

2024-01-27 23:25:57 =CRASH REPORT====
  crasher:
    initial call: application_master:init/4
    pid: <0.479.0>
    registered_name: []
    exception exit: {{{shutdown,{failed_to_start_child,'rabbit_stomp_listener_sup_:::61613',{shutdown,{failed_to_start_child,{ranch_listener_sup,{acceptor,{0,0,0,0,0,0,0,0},61613}},{shutdown,{failed_to_start_child,ranch_acceptors_sup,{listen_error,{acceptor,{0,0,0,0,0,0,0,0},61613},eaddrinuse}}}}}}},{rabbit_stomp,start,[normal,[]]}},[{application_master,init,4,[{file,"application_master.erl"},{line,138}]},{proc_lib,init_p_do_apply,3,[{file,"proc_lib.erl"},{line,249}]}]}
    ancestors: [<0.478.0>]
    message_queue_len: 0
    messages: []
    links: [<0.478.0>,<0.480.0>,<0.44.0>]
    dictionary: []
    trap_exit: true
    status: running
    heap_size: 610
    stack_size: 27
    reductions: 221
  neighbours:
2024-01-27 23:26:16 =ERROR REPORT====
Failed to start Ranch listener {acceptor,{0,0,0,0,0,0,0,0},61613} in ranch_tcp:listen([{cacerts,'...'},{key,'...'},{cert,'...'},{ip,{0,0,0,0,0,0,0,0}},{port,61613},inet6,{sndbuf,131072},{send_timeout,120},{recbuf,131072},{port,61613},{keepalive,true},{exit_on_close,true},{nodelay,true},{backlog,4096}]) for reason eaddrinuse (address already in use)
2024-01-27 23:26:16 =SUPERVISOR REPORT====
     Supervisor: {<0.498.0>,ranch_listener_sup}
     Context:    start_error
     Reason:     {listen_error,{acceptor,{0,0,0,0,0,0,0,0},61613},eaddrinuse}
     Offender:   [{pid,undefined},{id,ranch_acceptors_sup},{mfargs,{ranch_acceptors_sup,start_link,[{acceptor,{0,0,0,0,0,0,0,0},61613},ranch_tcp]}},{restart_type,permanent},{shutdown,infinity},{child_type,supervisor}]

2024-01-27 23:26:16 =CRASH REPORT====
  crasher:
    initial call: supervisor:ranch_acceptors_sup/1
    pid: <0.500.0>
    registered_name: []
    exception exit: {{listen_error,{acceptor,{0,0,0,0,0,0,0,0},61613},eaddrinuse},[{ranch_acceptors_sup,listen_error,5,[{file,"src/ranch_acceptors_sup.erl"},{line,66}]},{supervisor,init,1,[{file,"supervisor.erl"},{line,295}]},{gen_server,init_it,2,[{file,"gen_server.erl"},{line,374}]},{gen_server,init_it,6,[{file,"gen_server.erl"},{line,342}]},{proc_lib,init_p_do_apply,3,[{file,"proc_lib.erl"},{line,249}]}]}
    ancestors: [<0.498.0>,<0.497.0>,rabbit_stomp_sup,<0.480.0>]
    message_queue_len: 0
    messages: []
    links: [<0.498.0>]
    dictionary: [{logger,error_logger}]
    trap_exit: true
    status: running
    heap_size: 610
    stack_size: 27
    reductions: 1849
  neighbours:
2024-01-27 23:26:16 =SUPERVISOR REPORT====
     Supervisor: {<0.497.0>,tcp_listener_sup}
     Context:    start_error
     Reason:     {shutdown,{failed_to_start_child,ranch_acceptors_sup,{listen_error,{acceptor,{0,0,0,0,0,0,0,0},61613},eaddrinuse}}}
     Offender:   [{pid,undefined},{id,{ranch_listener_sup,{acceptor,{0,0,0,0,0,0,0,0},61613}}},{mfargs,{ranch_listener_sup,start_link,[{acceptor,{0,0,0,0,0,0,0,0},61613},ranch_tcp,#{connection_type => supervisor,handshake_timeout => 5000,max_connections => infinity,num_acceptors => 10,socket_opts => [{ip,{0,0,0,0,0,0,0,0}},{port,61613},inet6,{sndbuf,131072},{send_timeout,120},{recbuf,131072},{port,61613},{keepalive,true},{exit_on_close,true},{nodelay,true},{backlog,4096}]},rabbit_stomp_client_sup,{stomp_configuration,"guest","guest",false,false,false}]}},{restart_type,permanent},{shutdown,infinity},{child_type,supervisor}]

2024-01-27 23:26:16 =SUPERVISOR REPORT====
     Supervisor: {local,rabbit_stomp_sup}
     Context:    start_error
     Reason:     {shutdown,{failed_to_start_child,{ranch_listener_sup,{acceptor,{0,0,0,0,0,0,0,0},61613}},{shutdown,{failed_to_start_child,ranch_acceptors_sup,{listen_error,{acceptor,{0,0,0,0,0,0,0,0},61613},eaddrinuse}}}}}
     Offender:   [{pid,undefined},{id,'rabbit_stomp_listener_sup_:::61613'},{mfargs,{tcp_listener_sup,start_link,[{0,0,0,0,0,0,0,0},61613,ranch_tcp,[inet6,{sndbuf,131072},{send_timeout,120},{recbuf,131072},{port,61613},{keepalive,true},{exit_on_close,true},{nodelay,true},{backlog,4096}],rabbit_stomp_client_sup,{stomp_configuration,"guest","guest",false,false,false},{rabbit_networking,tcp_listener_started,[stomp,[{sndbuf,131072},{send_timeout,120},{recbuf,131072},{port,61613},{keepalive,true},{exit_on_close,true},{nodelay,true},{backlog,4096}]]},{rabbit_networking,tcp_listener_stopped,[stomp,[{sndbuf,131072},{send_timeout,120},{recbuf,131072},{port,61613},{keepalive,true},{exit_on_close,true},{nodelay,true},{backlog,4096}]]},10,"STOMP TCP listener"]}},{restart_type,transient},{shutdown,infinity},{child_type,supervisor}]

2024-01-27 23:26:16 =CRASH REPORT====
  crasher:
    initial call: application_master:init/4
    pid: <0.479.0>
    registered_name: []
    exception exit: {{{shutdown,{failed_to_start_child,'rabbit_stomp_listener_sup_:::61613',{shutdown,{failed_to_start_child,{ranch_listener_sup,{acceptor,{0,0,0,0,0,0,0,0},61613}},{shutdown,{failed_to_start_child,ranch_acceptors_sup,{listen_error,{acceptor,{0,0,0,0,0,0,0,0},61613},eaddrinuse}}}}}}},{rabbit_stomp,start,[normal,[]]}},[{application_master,init,4,[{file,"application_master.erl"},{line,138}]},{proc_lib,init_p_do_apply,3,[{file,"proc_lib.erl"},{line,249}]}]}
    ancestors: [<0.478.0>]
    message_queue_len: 1
    messages: [{'EXIT',<0.480.0>,normal}]
    links: [<0.478.0>,<0.44.0>]
    dictionary: []
    trap_exit: true
    status: running
    heap_size: 376
    stack_size: 27
    reductions: 220
  neighbours:
2024-01-27 23:26:35 =ERROR REPORT====
Failed to start Ranch listener {acceptor,{0,0,0,0,0,0,0,0},61613} in ranch_tcp:listen([{cacerts,'...'},{key,'...'},{cert,'...'},{ip,{0,0,0,0,0,0,0,0}},{port,61613},inet6,{sndbuf,131072},{send_timeout,120},{recbuf,131072},{port,61613},{keepalive,true},{exit_on_close,true},{nodelay,true},{backlog,4096}]) for reason eaddrinuse (address already in use)
2024-01-27 23:26:35 =SUPERVISOR REPORT====
     Supervisor: {<0.498.0>,ranch_listener_sup}
     Context:    start_error
     Reason:     {listen_error,{acceptor,{0,0,0,0,0,0,0,0},61613},eaddrinuse}
     Offender:   [{pid,undefined},{id,ranch_acceptors_sup},{mfargs,{ranch_acceptors_sup,start_link,[{acceptor,{0,0,0,0,0,0,0,0},61613},ranch_tcp]}},{restart_type,permanent},{shutdown,infinity},{child_type,supervisor}]

2024-01-27 23:26:35 =CRASH REPORT====
  crasher:
    initial call: supervisor:ranch_acceptors_sup/1
    pid: <0.500.0>
    registered_name: []
    exception exit: {{listen_error,{acceptor,{0,0,0,0,0,0,0,0},61613},eaddrinuse},[{ranch_acceptors_sup,listen_error,5,[{file,"src/ranch_acceptors_sup.erl"},{line,66}]},{supervisor,init,1,[{file,"supervisor.erl"},{line,295}]},{gen_server,init_it,2,[{file,"gen_server.erl"},{line,374}]},{gen_server,init_it,6,[{file,"gen_server.erl"},{line,342}]},{proc_lib,init_p_do_apply,3,[{file,"proc_lib.erl"},{line,249}]}]}
    ancestors: [<0.498.0>,<0.497.0>,rabbit_stomp_sup,<0.480.0>]
    message_queue_len: 0
    messages: []
    links: [<0.498.0>]
    dictionary: [{logger,error_logger}]
    trap_exit: true
    status: running
    heap_size: 610
    stack_size: 27
    reductions: 1849
  neighbours:
2024-01-27 23:26:35 =SUPERVISOR REPORT====
     Supervisor: {<0.497.0>,tcp_listener_sup}
     Context:    start_error
     Reason:     {shutdown,{failed_to_start_child,ranch_acceptors_sup,{listen_error,{acceptor,{0,0,0,0,0,0,0,0},61613},eaddrinuse}}}
     Offender:   [{pid,undefined},{id,{ranch_listener_sup,{acceptor,{0,0,0,0,0,0,0,0},61613}}},{mfargs,{ranch_listener_sup,start_link,[{acceptor,{0,0,0,0,0,0,0,0},61613},ranch_tcp,#{connection_type => supervisor,handshake_timeout => 5000,max_connections => infinity,num_acceptors => 10,socket_opts => [{ip,{0,0,0,0,0,0,0,0}},{port,61613},inet6,{sndbuf,131072},{send_timeout,120},{recbuf,131072},{port,61613},{keepalive,true},{exit_on_close,true},{nodelay,true},{backlog,4096}]},rabbit_stomp_client_sup,{stomp_configuration,"guest","guest",false,false,false}]}},{restart_type,permanent},{shutdown,infinity},{child_type,supervisor}]

2024-01-27 23:26:35 =SUPERVISOR REPORT====
     Supervisor: {local,rabbit_stomp_sup}
     Context:    start_error
     Reason:     {shutdown,{failed_to_start_child,{ranch_listener_sup,{acceptor,{0,0,0,0,0,0,0,0},61613}},{shutdown,{failed_to_start_child,ranch_acceptors_sup,{listen_error,{acceptor,{0,0,0,0,0,0,0,0},61613},eaddrinuse}}}}}
     Offender:   [{pid,undefined},{id,'rabbit_stomp_listener_sup_:::61613'},{mfargs,{tcp_listener_sup,start_link,[{0,0,0,0,0,0,0,0},61613,ranch_tcp,[inet6,{sndbuf,131072},{send_timeout,120},{recbuf,131072},{port,61613},{keepalive,true},{exit_on_close,true},{nodelay,true},{backlog,4096}],rabbit_stomp_client_sup,{stomp_configuration,"guest","guest",false,false,false},{rabbit_networking,tcp_listener_started,[stomp,[{sndbuf,131072},{send_timeout,120},{recbuf,131072},{port,61613},{keepalive,true},{exit_on_close,true},{nodelay,true},{backlog,4096}]]},{rabbit_networking,tcp_listener_stopped,[stomp,[{sndbuf,131072},{send_timeout,120},{recbuf,131072},{port,61613},{keepalive,true},{exit_on_close,true},{nodelay,true},{backlog,4096}]]},10,"STOMP TCP listener"]}},{restart_type,transient},{shutdown,infinity},{child_type,supervisor}]

2024-01-27 23:26:35 =CRASH REPORT====
  crasher:
    initial call: application_master:init/4
    pid: <0.479.0>
    registered_name: []
    exception exit: {{{shutdown,{failed_to_start_child,'rabbit_stomp_listener_sup_:::61613',{shutdown,{failed_to_start_child,{ranch_listener_sup,{acceptor,{0,0,0,0,0,0,0,0},61613}},{shutdown,{failed_to_start_child,ranch_acceptors_sup,{listen_error,{acceptor,{0,0,0,0,0,0,0,0},61613},eaddrinuse}}}}}}},{rabbit_stomp,start,[normal,[]]}},[{application_master,init,4,[{file,"application_master.erl"},{line,138}]},{proc_lib,init_p_do_apply,3,[{file,"proc_lib.erl"},{line,249}]}]}
    ancestors: [<0.478.0>]
    message_queue_len: 1
    messages: [{'EXIT',<0.480.0>,normal}]
    links: [<0.478.0>,<0.44.0>]
    dictionary: []
    trap_exit: true
    status: running
    heap_size: 376
    stack_size: 27
    reductions: 220
  neighbours:
2024-01-27 23:26:53 =ERROR REPORT====
Failed to start Ranch listener {acceptor,{0,0,0,0,0,0,0,0},61613} in ranch_tcp:listen([{cacerts,'...'},{key,'...'},{cert,'...'},{ip,{0,0,0,0,0,0,0,0}},{port,61613},inet6,{sndbuf,131072},{send_timeout,120},{recbuf,131072},{port,61613},{keepalive,true},{exit_on_close,true},{nodelay,true},{backlog,4096}]) for reason eaddrinuse (address already in use)
2024-01-27 23:26:53 =SUPERVISOR REPORT====
     Supervisor: {<0.498.0>,ranch_listener_sup}
     Context:    start_error
     Reason:     {listen_error,{acceptor,{0,0,0,0,0,0,0,0},61613},eaddrinuse}
     Offender:   [{pid,undefined},{id,ranch_acceptors_sup},{mfargs,{ranch_acceptors_sup,start_link,[{acceptor,{0,0,0,0,0,0,0,0},61613},ranch_tcp]}},{restart_type,permanent},{shutdown,infinity},{child_type,supervisor}]

2024-01-27 23:26:53 =CRASH REPORT====
  crasher:
    initial call: supervisor:ranch_acceptors_sup/1
    pid: <0.500.0>
    registered_name: []
    exception exit: {{listen_error,{acceptor,{0,0,0,0,0,0,0,0},61613},eaddrinuse},[{ranch_acceptors_sup,listen_error,5,[{file,"src/ranch_acceptors_sup.erl"},{line,66}]},{supervisor,init,1,[{file,"supervisor.erl"},{line,295}]},{gen_server,init_it,2,[{file,"gen_server.erl"},{line,374}]},{gen_server,init_it,6,[{file,"gen_server.erl"},{line,342}]},{proc_lib,init_p_do_apply,3,[{file,"proc_lib.erl"},{line,249}]}]}
    ancestors: [<0.498.0>,<0.497.0>,rabbit_stomp_sup,<0.480.0>]
    message_queue_len: 0
    messages: []
    links: [<0.498.0>]
    dictionary: [{logger,error_logger}]
    trap_exit: true
    status: running
    heap_size: 610
    stack_size: 27
    reductions: 1849
  neighbours:
2024-01-27 23:26:53 =SUPERVISOR REPORT====
     Supervisor: {<0.497.0>,tcp_listener_sup}
     Context:    start_error
     Reason:     {shutdown,{failed_to_start_child,ranch_acceptors_sup,{listen_error,{acceptor,{0,0,0,0,0,0,0,0},61613},eaddrinuse}}}
     Offender:   [{pid,undefined},{id,{ranch_listener_sup,{acceptor,{0,0,0,0,0,0,0,0},61613}}},{mfargs,{ranch_listener_sup,start_link,[{acceptor,{0,0,0,0,0,0,0,0},61613},ranch_tcp,#{connection_type => supervisor,handshake_timeout => 5000,max_connections => infinity,num_acceptors => 10,socket_opts => [{ip,{0,0,0,0,0,0,0,0}},{port,61613},inet6,{sndbuf,131072},{send_timeout,120},{recbuf,131072},{port,61613},{keepalive,true},{exit_on_close,true},{nodelay,true},{backlog,4096}]},rabbit_stomp_client_sup,{stomp_configuration,"guest","guest",false,false,false}]}},{restart_type,permanent},{shutdown,infinity},{child_type,supervisor}]

2024-01-27 23:26:53 =SUPERVISOR REPORT====
     Supervisor: {local,rabbit_stomp_sup}
     Context:    start_error
     Reason:     {shutdown,{failed_to_start_child,{ranch_listener_sup,{acceptor,{0,0,0,0,0,0,0,0},61613}},{shutdown,{failed_to_start_child,ranch_acceptors_sup,{listen_error,{acceptor,{0,0,0,0,0,0,0,0},61613},eaddrinuse}}}}}
     Offender:   [{pid,undefined},{id,'rabbit_stomp_listener_sup_:::61613'},{mfargs,{tcp_listener_sup,start_link,[{0,0,0,0,0,0,0,0},61613,ranch_tcp,[inet6,{sndbuf,131072},{send_timeout,120},{recbuf,131072},{port,61613},{keepalive,true},{exit_on_close,true},{nodelay,true},{backlog,4096}],rabbit_stomp_client_sup,{stomp_configuration,"guest","guest",false,false,false},{rabbit_networking,tcp_listener_started,[stomp,[{sndbuf,131072},{send_timeout,120},{recbuf,131072},{port,61613},{keepalive,true},{exit_on_close,true},{nodelay,true},{backlog,4096}]]},{rabbit_networking,tcp_listener_stopped,[stomp,[{sndbuf,131072},{send_timeout,120},{recbuf,131072},{port,61613},{keepalive,true},{exit_on_close,true},{nodelay,true},{backlog,4096}]]},10,"STOMP TCP listener"]}},{restart_type,transient},{shutdown,infinity},{child_type,supervisor}]

2024-01-27 23:26:53 =CRASH REPORT====
  crasher:
    initial call: application_master:init/4
    pid: <0.479.0>
    registered_name: []
    exception exit: {{{shutdown,{failed_to_start_child,'rabbit_stomp_listener_sup_:::61613',{shutdown,{failed_to_start_child,{ranch_listener_sup,{acceptor,{0,0,0,0,0,0,0,0},61613}},{shutdown,{failed_to_start_child,ranch_acceptors_sup,{listen_error,{acceptor,{0,0,0,0,0,0,0,0},61613},eaddrinuse}}}}}}},{rabbit_stomp,start,[normal,[]]}},[{application_master,init,4,[{file,"application_master.erl"},{line,138}]},{proc_lib,init_p_do_apply,3,[{file,"proc_lib.erl"},{line,249}]}]}
    ancestors: [<0.478.0>]
    message_queue_len: 0
    messages: []
    links: [<0.478.0>,<0.480.0>,<0.44.0>]
    dictionary: []
    trap_exit: true
    status: running
    heap_size: 610
    stack_size: 27
    reductions: 223
  neighbours:
2024-01-27 23:27:23 =ERROR REPORT====
Failed to start Ranch listener {acceptor,{0,0,0,0,0,0,0,0},61613} in ranch_tcp:listen([{cacerts,'...'},{key,'...'},{cert,'...'},{ip,{0,0,0,0,0,0,0,0}},{port,61613},inet6,{sndbuf,131072},{send_timeout,120},{recbuf,131072},{port,61613},{keepalive,true},{exit_on_close,true},{nodelay,true},{backlog,4096}]) for reason eaddrinuse (address already in use)
2024-01-27 23:27:23 =SUPERVISOR REPORT====
     Supervisor: {<0.498.0>,ranch_listener_sup}
     Context:    start_error
     Reason:     {listen_error,{acceptor,{0,0,0,0,0,0,0,0},61613},eaddrinuse}
     Offender:   [{pid,undefined},{id,ranch_acceptors_sup},{mfargs,{ranch_acceptors_sup,start_link,[{acceptor,{0,0,0,0,0,0,0,0},61613},ranch_tcp]}},{restart_type,permanent},{shutdown,infinity},{child_type,supervisor}]

2024-01-27 23:27:23 =CRASH REPORT====
  crasher:
    initial call: supervisor:ranch_acceptors_sup/1
    pid: <0.500.0>
    registered_name: []
    exception exit: {{listen_error,{acceptor,{0,0,0,0,0,0,0,0},61613},eaddrinuse},[{ranch_acceptors_sup,listen_error,5,[{file,"src/ranch_acceptors_sup.erl"},{line,66}]},{supervisor,init,1,[{file,"supervisor.erl"},{line,295}]},{gen_server,init_it,2,[{file,"gen_server.erl"},{line,374}]},{gen_server,init_it,6,[{file,"gen_server.erl"},{line,342}]},{proc_lib,init_p_do_apply,3,[{file,"proc_lib.erl"},{line,249}]}]}
    ancestors: [<0.498.0>,<0.497.0>,rabbit_stomp_sup,<0.480.0>]
    message_queue_len: 0
    messages: []
    links: [<0.498.0>]
    dictionary: [{logger,error_logger}]
    trap_exit: true
    status: running
    heap_size: 610
    stack_size: 27
    reductions: 1851
  neighbours:
2024-01-27 23:27:23 =SUPERVISOR REPORT====
     Supervisor: {<0.497.0>,tcp_listener_sup}
     Context:    start_error
     Reason:     {shutdown,{failed_to_start_child,ranch_acceptors_sup,{listen_error,{acceptor,{0,0,0,0,0,0,0,0},61613},eaddrinuse}}}
     Offender:   [{pid,undefined},{id,{ranch_listener_sup,{acceptor,{0,0,0,0,0,0,0,0},61613}}},{mfargs,{ranch_listener_sup,start_link,[{acceptor,{0,0,0,0,0,0,0,0},61613},ranch_tcp,#{connection_type => supervisor,handshake_timeout => 5000,max_connections => infinity,num_acceptors => 10,socket_opts => [{ip,{0,0,0,0,0,0,0,0}},{port,61613},inet6,{sndbuf,131072},{send_timeout,120},{recbuf,131072},{port,61613},{keepalive,true},{exit_on_close,true},{nodelay,true},{backlog,4096}]},rabbit_stomp_client_sup,{stomp_configuration,"guest","guest",false,false,false}]}},{restart_type,permanent},{shutdown,infinity},{child_type,supervisor}]

2024-01-27 23:27:23 =SUPERVISOR REPORT====
     Supervisor: {local,rabbit_stomp_sup}
     Context:    start_error
     Reason:     {shutdown,{failed_to_start_child,{ranch_listener_sup,{acceptor,{0,0,0,0,0,0,0,0},61613}},{shutdown,{failed_to_start_child,ranch_acceptors_sup,{listen_error,{acceptor,{0,0,0,0,0,0,0,0},61613},eaddrinuse}}}}}
     Offender:   [{pid,undefined},{id,'rabbit_stomp_listener_sup_:::61613'},{mfargs,{tcp_listener_sup,start_link,[{0,0,0,0,0,0,0,0},61613,ranch_tcp,[inet6,{sndbuf,131072},{send_timeout,120},{recbuf,131072},{port,61613},{keepalive,true},{exit_on_close,true},{nodelay,true},{backlog,4096}],rabbit_stomp_client_sup,{stomp_configuration,"guest","guest",false,false,false},{rabbit_networking,tcp_listener_started,[stomp,[{sndbuf,131072},{send_timeout,120},{recbuf,131072},{port,61613},{keepalive,true},{exit_on_close,true},{nodelay,true},{backlog,4096}]]},{rabbit_networking,tcp_listener_stopped,[stomp,[{sndbuf,131072},{send_timeout,120},{recbuf,131072},{port,61613},{keepalive,true},{exit_on_close,true},{nodelay,true},{backlog,4096}]]},10,"STOMP TCP listener"]}},{restart_type,transient},{shutdown,infinity},{child_type,supervisor}]

2024-01-27 23:27:23 =CRASH REPORT====
  crasher:
    initial call: application_master:init/4
    pid: <0.479.0>
    registered_name: []
    exception exit: {{{shutdown,{failed_to_start_child,'rabbit_stomp_listener_sup_:::61613',{shutdown,{failed_to_start_child,{ranch_listener_sup,{acceptor,{0,0,0,0,0,0,0,0},61613}},{shutdown,{failed_to_start_child,ranch_acceptors_sup,{listen_error,{acceptor,{0,0,0,0,0,0,0,0},61613},eaddrinuse}}}}}}},{rabbit_stomp,start,[normal,[]]}},[{application_master,init,4,[{file,"application_master.erl"},{line,138}]},{proc_lib,init_p_do_apply,3,[{file,"proc_lib.erl"},{line,249}]}]}
    ancestors: [<0.478.0>]
    message_queue_len: 0
    messages: []
    links: [<0.478.0>,<0.480.0>,<0.44.0>]
    dictionary: []
    trap_exit: true
    status: running
    heap_size: 610
    stack_size: 27
    reductions: 221
  neighbours:
2024-01-27 23:27:42 =ERROR REPORT====
Failed to start Ranch listener {acceptor,{0,0,0,0,0,0,0,0},61613} in ranch_tcp:listen([{cacerts,'...'},{key,'...'},{cert,'...'},{ip,{0,0,0,0,0,0,0,0}},{port,61613},inet6,{sndbuf,131072},{send_timeout,120},{recbuf,131072},{port,61613},{keepalive,true},{exit_on_close,true},{nodelay,true},{backlog,4096}]) for reason eaddrinuse (address already in use)
2024-01-27 23:27:42 =SUPERVISOR REPORT====
     Supervisor: {<0.498.0>,ranch_listener_sup}
     Context:    start_error
     Reason:     {listen_error,{acceptor,{0,0,0,0,0,0,0,0},61613},eaddrinuse}
     Offender:   [{pid,undefined},{id,ranch_acceptors_sup},{mfargs,{ranch_acceptors_sup,start_link,[{acceptor,{0,0,0,0,0,0,0,0},61613},ranch_tcp]}},{restart_type,permanent},{shutdown,infinity},{child_type,supervisor}]

2024-01-27 23:27:42 =CRASH REPORT====
  crasher:
    initial call: supervisor:ranch_acceptors_sup/1
    pid: <0.500.0>
    registered_name: []
    exception exit: {{listen_error,{acceptor,{0,0,0,0,0,0,0,0},61613},eaddrinuse},[{ranch_acceptors_sup,listen_error,5,[{file,"src/ranch_acceptors_sup.erl"},{line,66}]},{supervisor,init,1,[{file,"supervisor.erl"},{line,295}]},{gen_server,init_it,2,[{file,"gen_server.erl"},{line,374}]},{gen_server,init_it,6,[{file,"gen_server.erl"},{line,342}]},{proc_lib,init_p_do_apply,3,[{file,"proc_lib.erl"},{line,249}]}]}
    ancestors: [<0.498.0>,<0.497.0>,rabbit_stomp_sup,<0.480.0>]
    message_queue_len: 0
    messages: []
    links: [<0.498.0>]
    dictionary: [{logger,error_logger}]
    trap_exit: true
    status: running
    heap_size: 610
    stack_size: 27
    reductions: 1849
  neighbours:
2024-01-27 23:27:42 =SUPERVISOR REPORT====
     Supervisor: {<0.497.0>,tcp_listener_sup}
     Context:    start_error
     Reason:     {shutdown,{failed_to_start_child,ranch_acceptors_sup,{listen_error,{acceptor,{0,0,0,0,0,0,0,0},61613},eaddrinuse}}}
     Offender:   [{pid,undefined},{id,{ranch_listener_sup,{acceptor,{0,0,0,0,0,0,0,0},61613}}},{mfargs,{ranch_listener_sup,start_link,[{acceptor,{0,0,0,0,0,0,0,0},61613},ranch_tcp,#{connection_type => supervisor,handshake_timeout => 5000,max_connections => infinity,num_acceptors => 10,socket_opts => [{ip,{0,0,0,0,0,0,0,0}},{port,61613},inet6,{sndbuf,131072},{send_timeout,120},{recbuf,131072},{port,61613},{keepalive,true},{exit_on_close,true},{nodelay,true},{backlog,4096}]},rabbit_stomp_client_sup,{stomp_configuration,"guest","guest",false,false,false}]}},{restart_type,permanent},{shutdown,infinity},{child_type,supervisor}]

2024-01-27 23:27:42 =SUPERVISOR REPORT====
     Supervisor: {local,rabbit_stomp_sup}
     Context:    start_error
     Reason:     {shutdown,{failed_to_start_child,{ranch_listener_sup,{acceptor,{0,0,0,0,0,0,0,0},61613}},{shutdown,{failed_to_start_child,ranch_acceptors_sup,{listen_error,{acceptor,{0,0,0,0,0,0,0,0},61613},eaddrinuse}}}}}
     Offender:   [{pid,undefined},{id,'rabbit_stomp_listener_sup_:::61613'},{mfargs,{tcp_listener_sup,start_link,[{0,0,0,0,0,0,0,0},61613,ranch_tcp,[inet6,{sndbuf,131072},{send_timeout,120},{recbuf,131072},{port,61613},{keepalive,true},{exit_on_close,true},{nodelay,true},{backlog,4096}],rabbit_stomp_client_sup,{stomp_configuration,"guest","guest",false,false,false},{rabbit_networking,tcp_listener_started,[stomp,[{sndbuf,131072},{send_timeout,120},{recbuf,131072},{port,61613},{keepalive,true},{exit_on_close,true},{nodelay,true},{backlog,4096}]]},{rabbit_networking,tcp_listener_stopped,[stomp,[{sndbuf,131072},{send_timeout,120},{recbuf,131072},{port,61613},{keepalive,true},{exit_on_close,true},{nodelay,true},{backlog,4096}]]},10,"STOMP TCP listener"]}},{restart_type,transient},{shutdown,infinity},{child_type,supervisor}]

2024-01-27 23:27:42 =CRASH REPORT====
  crasher:
    initial call: application_master:init/4
    pid: <0.479.0>
    registered_name: []
    exception exit: {{{shutdown,{failed_to_start_child,'rabbit_stomp_listener_sup_:::61613',{shutdown,{failed_to_start_child,{ranch_listener_sup,{acceptor,{0,0,0,0,0,0,0,0},61613}},{shutdown,{failed_to_start_child,ranch_acceptors_sup,{listen_error,{acceptor,{0,0,0,0,0,0,0,0},61613},eaddrinuse}}}}}}},{rabbit_stomp,start,[normal,[]]}},[{application_master,init,4,[{file,"application_master.erl"},{line,138}]},{proc_lib,init_p_do_apply,3,[{file,"proc_lib.erl"},{line,249}]}]}
    ancestors: [<0.478.0>]
    message_queue_len: 0
    messages: []
    links: [<0.478.0>,<0.480.0>,<0.44.0>]
    dictionary: []
    trap_exit: true
    status: running
    heap_size: 610
    stack_size: 27
    reductions: 221
  neighbours:
