2024-01-28 03:03:59 =CRASH REPORT====
  crasher:
    initial call: cowboy_clear:connection_process/4
    pid: <0.1116.0>
    registered_name: []
    exception error: {{case_clause,{error,{header_no_value,"asdasdsad"}}},[{rabbit_web_stomp_handler,handle_data,2,[{file,"src/rabbit_web_stomp_handler.erl"},{line,236}]},{cowboy_websocket,handler_call,6,[{file,"src/cowboy_websocket.erl"},{line,471}]},{cowboy_http,loop,2,[{file,"src/cowboy_http.erl"},{line,233}]},{proc_lib,init_p_do_apply,3,[{file,"proc_lib.erl"},{line,249}]}]}
    ancestors: [<0.1114.0>,<0.586.0>,<0.585.0>,ranch_sup,<0.215.0>]
    message_queue_len: 0
    messages: []
    links: [#Port<0.148>,<0.1114.0>]
    dictionary: []
    trap_exit: true
    status: running
    heap_size: 987
    stack_size: 27
    reductions: 2981
  neighbours:
2024-01-28 03:03:59 =SUPERVISOR REPORT====
     Supervisor: {<0.1114.0>,rabbit_web_stomp_connection_sup}
     Context:    child_terminated
     Reason:     {{case_clause,{error,{header_no_value,"asdasdsad"}}},[{rabbit_web_stomp_handler,handle_data,2,[{file,"src/rabbit_web_stomp_handler.erl"},{line,236}]},{cowboy_websocket,handler_call,6,[{file,"src/cowboy_websocket.erl"},{line,471}]},{cowboy_http,loop,2,[{file,"src/cowboy_http.erl"},{line,233}]},{proc_lib,init_p_do_apply,3,[{file,"proc_lib.erl"},{line,249}]}]}
     Offender:   [{pid,<0.1116.0>},{name,cowboy_clear},{mfargs,{cowboy_clear,start_link,[web_stomp,#Port<0.148>,ranch_tcp,#{env => #{dispatch => [{'_',[],[{[<<"ws">>],[],rabbit_web_stomp_handler,[{type,text},{ws_opts,#{}}]}]}],keepalive_sup => <0.1115.0>,socket => #Port<0.148>},middlewares => [cowboy_router,rabbit_web_stomp_middleware,cowboy_handler],proxy_header => false}]}},{restart_type,intrinsic},{shutdown,30000},{child_type,worker}]

2024-01-28 03:03:59 =SUPERVISOR REPORT====
     Supervisor: {<0.1114.0>,rabbit_web_stomp_connection_sup}
     Context:    shutdown
     Reason:     reached_max_restart_intensity
     Offender:   [{pid,<0.1116.0>},{name,cowboy_clear},{mfargs,{cowboy_clear,start_link,[web_stomp,#Port<0.148>,ranch_tcp,#{env => #{dispatch => [{'_',[],[{[<<"ws">>],[],rabbit_web_stomp_handler,[{type,text},{ws_opts,#{}}]}]}],keepalive_sup => <0.1115.0>,socket => #Port<0.148>},middlewares => [cowboy_router,rabbit_web_stomp_middleware,cowboy_handler],proxy_header => false}]}},{restart_type,intrinsic},{shutdown,30000},{child_type,worker}]

2024-01-28 03:04:09 =CRASH REPORT====
  crasher:
    initial call: cowboy_clear:connection_process/4
    pid: <0.1123.0>
    registered_name: []
    exception error: {{case_clause,{error,{header_no_value,"asdasdsad"}}},[{rabbit_web_stomp_handler,handle_data,2,[{file,"src/rabbit_web_stomp_handler.erl"},{line,236}]},{cowboy_websocket,handler_call,6,[{file,"src/cowboy_websocket.erl"},{line,471}]},{cowboy_http,loop,2,[{file,"src/cowboy_http.erl"},{line,233}]},{proc_lib,init_p_do_apply,3,[{file,"proc_lib.erl"},{line,249}]}]}
    ancestors: [<0.1121.0>,<0.586.0>,<0.585.0>,ranch_sup,<0.215.0>]
    message_queue_len: 0
    messages: []
    links: [#Port<0.151>,<0.1121.0>]
    dictionary: []
    trap_exit: true
    status: running
    heap_size: 987
    stack_size: 27
    reductions: 2998
  neighbours:
2024-01-28 03:04:09 =SUPERVISOR REPORT====
     Supervisor: {<0.1121.0>,rabbit_web_stomp_connection_sup}
     Context:    child_terminated
     Reason:     {{case_clause,{error,{header_no_value,"asdasdsad"}}},[{rabbit_web_stomp_handler,handle_data,2,[{file,"src/rabbit_web_stomp_handler.erl"},{line,236}]},{cowboy_websocket,handler_call,6,[{file,"src/cowboy_websocket.erl"},{line,471}]},{cowboy_http,loop,2,[{file,"src/cowboy_http.erl"},{line,233}]},{proc_lib,init_p_do_apply,3,[{file,"proc_lib.erl"},{line,249}]}]}
     Offender:   [{pid,<0.1123.0>},{name,cowboy_clear},{mfargs,{cowboy_clear,start_link,[web_stomp,#Port<0.151>,ranch_tcp,#{env => #{dispatch => [{'_',[],[{[<<"ws">>],[],rabbit_web_stomp_handler,[{type,text},{ws_opts,#{}}]}]}],keepalive_sup => <0.1122.0>,socket => #Port<0.151>},middlewares => [cowboy_router,rabbit_web_stomp_middleware,cowboy_handler],proxy_header => false}]}},{restart_type,intrinsic},{shutdown,30000},{child_type,worker}]

2024-01-28 03:04:09 =SUPERVISOR REPORT====
     Supervisor: {<0.1121.0>,rabbit_web_stomp_connection_sup}
     Context:    shutdown
     Reason:     reached_max_restart_intensity
     Offender:   [{pid,<0.1123.0>},{name,cowboy_clear},{mfargs,{cowboy_clear,start_link,[web_stomp,#Port<0.151>,ranch_tcp,#{env => #{dispatch => [{'_',[],[{[<<"ws">>],[],rabbit_web_stomp_handler,[{type,text},{ws_opts,#{}}]}]}],keepalive_sup => <0.1122.0>,socket => #Port<0.151>},middlewares => [cowboy_router,rabbit_web_stomp_middleware,cowboy_handler],proxy_header => false}]}},{restart_type,intrinsic},{shutdown,30000},{child_type,worker}]

2024-01-28 03:04:44 =CRASH REPORT====
  crasher:
    initial call: cowboy_clear:connection_process/4
    pid: <0.1133.0>
    registered_name: []
    exception error: {{case_clause,{error,{header_no_value,"asdasdsad"}}},[{rabbit_web_stomp_handler,handle_data,2,[{file,"src/rabbit_web_stomp_handler.erl"},{line,236}]},{cowboy_websocket,handler_call,6,[{file,"src/cowboy_websocket.erl"},{line,471}]},{cowboy_http,loop,2,[{file,"src/cowboy_http.erl"},{line,233}]},{proc_lib,init_p_do_apply,3,[{file,"proc_lib.erl"},{line,249}]}]}
    ancestors: [<0.1131.0>,<0.586.0>,<0.585.0>,ranch_sup,<0.215.0>]
    message_queue_len: 0
    messages: []
    links: [#Port<0.155>,<0.1131.0>]
    dictionary: []
    trap_exit: true
    status: running
    heap_size: 987
    stack_size: 27
    reductions: 2998
  neighbours:
2024-01-28 03:04:44 =SUPERVISOR REPORT====
     Supervisor: {<0.1131.0>,rabbit_web_stomp_connection_sup}
     Context:    child_terminated
     Reason:     {{case_clause,{error,{header_no_value,"asdasdsad"}}},[{rabbit_web_stomp_handler,handle_data,2,[{file,"src/rabbit_web_stomp_handler.erl"},{line,236}]},{cowboy_websocket,handler_call,6,[{file,"src/cowboy_websocket.erl"},{line,471}]},{cowboy_http,loop,2,[{file,"src/cowboy_http.erl"},{line,233}]},{proc_lib,init_p_do_apply,3,[{file,"proc_lib.erl"},{line,249}]}]}
     Offender:   [{pid,<0.1133.0>},{name,cowboy_clear},{mfargs,{cowboy_clear,start_link,[web_stomp,#Port<0.155>,ranch_tcp,#{env => #{dispatch => [{'_',[],[{[<<"ws">>],[],rabbit_web_stomp_handler,[{type,text},{ws_opts,#{}}]}]}],keepalive_sup => <0.1132.0>,socket => #Port<0.155>},middlewares => [cowboy_router,rabbit_web_stomp_middleware,cowboy_handler],proxy_header => false}]}},{restart_type,intrinsic},{shutdown,30000},{child_type,worker}]

2024-01-28 03:04:44 =SUPERVISOR REPORT====
     Supervisor: {<0.1131.0>,rabbit_web_stomp_connection_sup}
     Context:    shutdown
     Reason:     reached_max_restart_intensity
     Offender:   [{pid,<0.1133.0>},{name,cowboy_clear},{mfargs,{cowboy_clear,start_link,[web_stomp,#Port<0.155>,ranch_tcp,#{env => #{dispatch => [{'_',[],[{[<<"ws">>],[],rabbit_web_stomp_handler,[{type,text},{ws_opts,#{}}]}]}],keepalive_sup => <0.1132.0>,socket => #Port<0.155>},middlewares => [cowboy_router,rabbit_web_stomp_middleware,cowboy_handler],proxy_header => false}]}},{restart_type,intrinsic},{shutdown,30000},{child_type,worker}]

2024-01-28 05:11:35 =SUPERVISOR REPORT====
     Supervisor: {<0.6220.0>,amqp_channel_sup_sup}
     Context:    shutdown_error
     Reason:     shutdown
     Offender:   [{nb_children,1},{name,channel_sup},{mfargs,{amqp_channel_sup,start_link,[direct,<0.6219.0>,<<"172.27.0.1:49942 -> 172.27.0.2:15674">>]}},{restart_type,temporary},{shutdown,infinity},{child_type,supervisor}]

2024-01-28 05:53:36 =ERROR REPORT====
** Generic server rabbit_mgmt_external_stats terminating 
** Last message in was emit_update
** When Server state == {state,1048576,[{{io_file_handle_open_attempt,count},20},{{io_file_handle_open_attempt,time},18139},{{io_read,bytes},1},{{io_read,count},1},{{io_read,time},170},{{io_reopen,count},0},{{io_seek,count},4},{{io_seek,time},974},{{io_sync,count},3},{{io_sync,time},185},{{io_write,bytes},766},{{io_write,count},3},{{io_write,time},11860},{{mnesia_disk_tx,count},1},{{mnesia_ram_tx,count},17},{{msg_store_read,count},0},{{msg_store_write,count},0},{{queue_index_journal_write,count},3},{{queue_index_read,count},0},{{queue_index_write,count},1}],{set,0,16,16,8,80,48,{[],[],[],[],[],[],[],[],[],[],[],[],[],[],[],[]},{{[],[],[],[],[],[],[],[],[],[],[],[],[],[],[],[]}}},undefined,5000,undefined}
** Reason for termination ==
** {bad_return_value,{error,{cannot_read_enabled_plugins_file,"/etc/rabbitmq/enabled_plugins",{2,erl_parse,["syntax error before: ","rabbitmq_mqtt"]}}}}
2024-01-28 05:53:36 =CRASH REPORT====
  crasher:
    initial call: rabbit_mgmt_external_stats:init/1
    pid: <0.643.0>
    registered_name: rabbit_mgmt_external_stats
    exception exit: {{bad_return_value,{error,{cannot_read_enabled_plugins_file,"/etc/rabbitmq/enabled_plugins",{2,erl_parse,["syntax error before: ","rabbitmq_mqtt"]}}}},[{gen_server,handle_common_reply,8,[{file,"gen_server.erl"},{line,755}]},{proc_lib,init_p_do_apply,3,[{file,"proc_lib.erl"},{line,249}]}]}
    ancestors: [rabbit_mgmt_agent_sup,rabbit_mgmt_agent_sup_sup,<0.633.0>]
    message_queue_len: 0
    messages: []
    links: [<0.635.0>]
    dictionary: []
    trap_exit: false
    status: running
    heap_size: 6772
    stack_size: 27
    reductions: 6766953
  neighbours:
2024-01-28 05:53:36 =SUPERVISOR REPORT====
     Supervisor: {local,rabbit_mgmt_agent_sup}
     Context:    child_terminated
     Reason:     {bad_return_value,{error,{cannot_read_enabled_plugins_file,"/etc/rabbitmq/enabled_plugins",{2,erl_parse,["syntax error before: ","rabbitmq_mqtt"]}}}}
     Offender:   [{pid,<0.643.0>},{id,rabbit_mgmt_external_stats},{mfargs,{rabbit_mgmt_external_stats,start_link,[]}},{restart_type,permanent},{shutdown,5000},{child_type,worker}]

2024-01-28 05:53:36 =SUPERVISOR REPORT====
     Supervisor: {local,rabbit_mgmt_agent_sup}
     Context:    start_error
     Reason:     {bad_return_value,{error,{cannot_read_enabled_plugins_file,"/etc/rabbitmq/enabled_plugins",{2,erl_parse,["syntax error before: ","rabbitmq_mqtt"]}}}}
     Offender:   [{pid,<0.643.0>},{id,rabbit_mgmt_external_stats},{mfargs,{rabbit_mgmt_external_stats,start_link,[]}},{restart_type,permanent},{shutdown,5000},{child_type,worker}]

2024-01-28 05:53:36 =SUPERVISOR REPORT====
     Supervisor: {local,rabbit_mgmt_agent_sup}
     Context:    start_error
     Reason:     {already_started,<0.8523.0>}
     Offender:   [{pid,{restarting,<0.643.0>}},{id,rabbit_mgmt_external_stats},{mfargs,{rabbit_mgmt_external_stats,start_link,[]}},{restart_type,permanent},{shutdown,5000},{child_type,worker}]

2024-01-28 05:53:36 =SUPERVISOR REPORT====
     Supervisor: {local,rabbit_mgmt_agent_sup}
     Context:    start_error
     Reason:     {already_started,<0.8523.0>}
     Offender:   [{pid,{restarting,<0.643.0>}},{id,rabbit_mgmt_external_stats},{mfargs,{rabbit_mgmt_external_stats,start_link,[]}},{restart_type,permanent},{shutdown,5000},{child_type,worker}]

2024-01-28 05:53:36 =SUPERVISOR REPORT====
     Supervisor: {local,rabbit_mgmt_agent_sup}
     Context:    start_error
     Reason:     {already_started,<0.8523.0>}
     Offender:   [{pid,{restarting,<0.643.0>}},{id,rabbit_mgmt_external_stats},{mfargs,{rabbit_mgmt_external_stats,start_link,[]}},{restart_type,permanent},{shutdown,5000},{child_type,worker}]

2024-01-28 05:53:36 =SUPERVISOR REPORT====
     Supervisor: {local,rabbit_mgmt_agent_sup}
     Context:    start_error
     Reason:     {already_started,<0.8523.0>}
     Offender:   [{pid,{restarting,<0.643.0>}},{id,rabbit_mgmt_external_stats},{mfargs,{rabbit_mgmt_external_stats,start_link,[]}},{restart_type,permanent},{shutdown,5000},{child_type,worker}]

2024-01-28 05:53:36 =SUPERVISOR REPORT====
     Supervisor: {local,rabbit_mgmt_agent_sup}
     Context:    start_error
     Reason:     {already_started,<0.8523.0>}
     Offender:   [{pid,{restarting,<0.643.0>}},{id,rabbit_mgmt_external_stats},{mfargs,{rabbit_mgmt_external_stats,start_link,[]}},{restart_type,permanent},{shutdown,5000},{child_type,worker}]

2024-01-28 05:53:36 =SUPERVISOR REPORT====
     Supervisor: {local,rabbit_mgmt_agent_sup}
     Context:    start_error
     Reason:     {already_started,<0.8523.0>}
     Offender:   [{pid,{restarting,<0.643.0>}},{id,rabbit_mgmt_external_stats},{mfargs,{rabbit_mgmt_external_stats,start_link,[]}},{restart_type,permanent},{shutdown,5000},{child_type,worker}]

2024-01-28 05:53:36 =SUPERVISOR REPORT====
     Supervisor: {local,rabbit_mgmt_agent_sup}
     Context:    start_error
     Reason:     {already_started,<0.8523.0>}
     Offender:   [{pid,{restarting,<0.643.0>}},{id,rabbit_mgmt_external_stats},{mfargs,{rabbit_mgmt_external_stats,start_link,[]}},{restart_type,permanent},{shutdown,5000},{child_type,worker}]

2024-01-28 05:53:36 =SUPERVISOR REPORT====
     Supervisor: {local,rabbit_mgmt_agent_sup}
     Context:    start_error
     Reason:     {already_started,<0.8523.0>}
     Offender:   [{pid,{restarting,<0.643.0>}},{id,rabbit_mgmt_external_stats},{mfargs,{rabbit_mgmt_external_stats,start_link,[]}},{restart_type,permanent},{shutdown,5000},{child_type,worker}]

2024-01-28 05:53:36 =SUPERVISOR REPORT====
     Supervisor: {local,rabbit_mgmt_agent_sup}
     Context:    start_error
     Reason:     {already_started,<0.8523.0>}
     Offender:   [{pid,{restarting,<0.643.0>}},{id,rabbit_mgmt_external_stats},{mfargs,{rabbit_mgmt_external_stats,start_link,[]}},{restart_type,permanent},{shutdown,5000},{child_type,worker}]

2024-01-28 05:53:36 =SUPERVISOR REPORT====
     Supervisor: {local,rabbit_mgmt_agent_sup}
     Context:    start_error
     Reason:     {already_started,<0.8523.0>}
     Offender:   [{pid,{restarting,<0.643.0>}},{id,rabbit_mgmt_external_stats},{mfargs,{rabbit_mgmt_external_stats,start_link,[]}},{restart_type,permanent},{shutdown,5000},{child_type,worker}]

2024-01-28 05:53:36 =SUPERVISOR REPORT====
     Supervisor: {local,rabbit_mgmt_agent_sup}
     Context:    start_error
     Reason:     {already_started,<0.8523.0>}
     Offender:   [{pid,{restarting,<0.643.0>}},{id,rabbit_mgmt_external_stats},{mfargs,{rabbit_mgmt_external_stats,start_link,[]}},{restart_type,permanent},{shutdown,5000},{child_type,worker}]

2024-01-28 05:53:36 =SUPERVISOR REPORT====
     Supervisor: {local,rabbit_mgmt_agent_sup}
     Context:    start_error
     Reason:     {already_started,<0.8523.0>}
     Offender:   [{pid,{restarting,<0.643.0>}},{id,rabbit_mgmt_external_stats},{mfargs,{rabbit_mgmt_external_stats,start_link,[]}},{restart_type,permanent},{shutdown,5000},{child_type,worker}]

2024-01-28 05:53:36 =SUPERVISOR REPORT====
     Supervisor: {local,rabbit_mgmt_agent_sup}
     Context:    start_error
     Reason:     {already_started,<0.8523.0>}
     Offender:   [{pid,{restarting,<0.643.0>}},{id,rabbit_mgmt_external_stats},{mfargs,{rabbit_mgmt_external_stats,start_link,[]}},{restart_type,permanent},{shutdown,5000},{child_type,worker}]

2024-01-28 05:53:36 =SUPERVISOR REPORT====
     Supervisor: {local,rabbit_mgmt_agent_sup}
     Context:    start_error
     Reason:     {already_started,<0.8523.0>}
     Offender:   [{pid,{restarting,<0.643.0>}},{id,rabbit_mgmt_external_stats},{mfargs,{rabbit_mgmt_external_stats,start_link,[]}},{restart_type,permanent},{shutdown,5000},{child_type,worker}]

2024-01-28 05:53:36 =SUPERVISOR REPORT====
     Supervisor: {local,rabbit_mgmt_agent_sup}
     Context:    start_error
     Reason:     {already_started,<0.8523.0>}
     Offender:   [{pid,{restarting,<0.643.0>}},{id,rabbit_mgmt_external_stats},{mfargs,{rabbit_mgmt_external_stats,start_link,[]}},{restart_type,permanent},{shutdown,5000},{child_type,worker}]

2024-01-28 05:53:36 =SUPERVISOR REPORT====
     Supervisor: {local,rabbit_mgmt_agent_sup}
     Context:    start_error
     Reason:     {already_started,<0.8523.0>}
     Offender:   [{pid,{restarting,<0.643.0>}},{id,rabbit_mgmt_external_stats},{mfargs,{rabbit_mgmt_external_stats,start_link,[]}},{restart_type,permanent},{shutdown,5000},{child_type,worker}]

2024-01-28 05:53:36 =CRASH REPORT====
  crasher:
    initial call: rabbit_mgmt_external_stats:init/1
    pid: <0.8523.0>
    registered_name: rabbit_mgmt_external_stats
    exception exit: {{bad_return_value,{error,{cannot_read_enabled_plugins_file,"/etc/rabbitmq/enabled_plugins",{2,erl_parse,["syntax error before: ","rabbitmq_mqtt"]}}}},[{gen_server,init_it,6,[{file,"gen_server.erl"},{line,366}]},{proc_lib,init_p_do_apply,3,[{file,"proc_lib.erl"},{line,249}]}]}
    ancestors: [rabbit_mgmt_agent_sup,rabbit_mgmt_agent_sup_sup,<0.633.0>]
    message_queue_len: 0
    messages: []
    links: [<0.635.0>]
    dictionary: []
    trap_exit: false
    status: running
    heap_size: 6772
    stack_size: 27
    reductions: 4932
  neighbours:
2024-01-28 05:53:36 =SUPERVISOR REPORT====
     Supervisor: {local,rabbit_mgmt_agent_sup}
     Context:    start_error
     Reason:     {bad_return_value,{error,{cannot_read_enabled_plugins_file,"/etc/rabbitmq/enabled_plugins",{2,erl_parse,["syntax error before: ","rabbitmq_mqtt"]}}}}
     Offender:   [{pid,{restarting,<0.643.0>}},{id,rabbit_mgmt_external_stats},{mfargs,{rabbit_mgmt_external_stats,start_link,[]}},{restart_type,permanent},{shutdown,5000},{child_type,worker}]

2024-01-28 05:53:36 =SUPERVISOR REPORT====
     Supervisor: {local,rabbit_mgmt_agent_sup}
     Context:    start_error
     Reason:     {already_started,<0.8524.0>}
     Offender:   [{pid,{restarting,<0.643.0>}},{id,rabbit_mgmt_external_stats},{mfargs,{rabbit_mgmt_external_stats,start_link,[]}},{restart_type,permanent},{shutdown,5000},{child_type,worker}]

2024-01-28 05:53:36 =SUPERVISOR REPORT====
     Supervisor: {local,rabbit_mgmt_agent_sup}
     Context:    start_error
     Reason:     {already_started,<0.8524.0>}
     Offender:   [{pid,{restarting,<0.643.0>}},{id,rabbit_mgmt_external_stats},{mfargs,{rabbit_mgmt_external_stats,start_link,[]}},{restart_type,permanent},{shutdown,5000},{child_type,worker}]

2024-01-28 05:53:36 =SUPERVISOR REPORT====
     Supervisor: {local,rabbit_mgmt_agent_sup}
     Context:    start_error
     Reason:     {already_started,<0.8524.0>}
     Offender:   [{pid,{restarting,<0.643.0>}},{id,rabbit_mgmt_external_stats},{mfargs,{rabbit_mgmt_external_stats,start_link,[]}},{restart_type,permanent},{shutdown,5000},{child_type,worker}]

2024-01-28 05:53:36 =SUPERVISOR REPORT====
     Supervisor: {local,rabbit_mgmt_agent_sup}
     Context:    start_error
     Reason:     {already_started,<0.8524.0>}
     Offender:   [{pid,{restarting,<0.643.0>}},{id,rabbit_mgmt_external_stats},{mfargs,{rabbit_mgmt_external_stats,start_link,[]}},{restart_type,permanent},{shutdown,5000},{child_type,worker}]

2024-01-28 05:53:36 =SUPERVISOR REPORT====
     Supervisor: {local,rabbit_mgmt_agent_sup}
     Context:    start_error
     Reason:     {already_started,<0.8524.0>}
     Offender:   [{pid,{restarting,<0.643.0>}},{id,rabbit_mgmt_external_stats},{mfargs,{rabbit_mgmt_external_stats,start_link,[]}},{restart_type,permanent},{shutdown,5000},{child_type,worker}]

2024-01-28 05:53:36 =CRASH REPORT====
  crasher:
    initial call: rabbit_mgmt_external_stats:init/1
    pid: <0.8524.0>
    registered_name: rabbit_mgmt_external_stats
    exception exit: {{bad_return_value,{error,{cannot_read_enabled_plugins_file,"/etc/rabbitmq/enabled_plugins",{2,erl_parse,["syntax error before: ","rabbitmq_mqtt"]}}}},[{gen_server,init_it,6,[{file,"gen_server.erl"},{line,366}]},{proc_lib,init_p_do_apply,3,[{file,"proc_lib.erl"},{line,249}]}]}
    ancestors: [rabbit_mgmt_agent_sup,rabbit_mgmt_agent_sup_sup,<0.633.0>]
    message_queue_len: 0
    messages: []
    links: [<0.635.0>]
    dictionary: []
    trap_exit: false
    status: running
    heap_size: 6772
    stack_size: 27
    reductions: 4932
  neighbours:
2024-01-28 05:53:36 =SUPERVISOR REPORT====
     Supervisor: {local,rabbit_mgmt_agent_sup}
     Context:    start_error
     Reason:     {already_started,<0.8524.0>}
     Offender:   [{pid,{restarting,<0.643.0>}},{id,rabbit_mgmt_external_stats},{mfargs,{rabbit_mgmt_external_stats,start_link,[]}},{restart_type,permanent},{shutdown,5000},{child_type,worker}]

2024-01-28 05:53:36 =SUPERVISOR REPORT====
     Supervisor: {local,rabbit_mgmt_agent_sup}
     Context:    start_error
     Reason:     {bad_return_value,{error,{cannot_read_enabled_plugins_file,"/etc/rabbitmq/enabled_plugins",{2,erl_parse,["syntax error before: ","rabbitmq_mqtt"]}}}}
     Offender:   [{pid,{restarting,<0.643.0>}},{id,rabbit_mgmt_external_stats},{mfargs,{rabbit_mgmt_external_stats,start_link,[]}},{restart_type,permanent},{shutdown,5000},{child_type,worker}]

2024-01-28 05:53:36 =SUPERVISOR REPORT====
     Supervisor: {local,rabbit_mgmt_agent_sup}
     Context:    start_error
     Reason:     {already_started,<0.8525.0>}
     Offender:   [{pid,{restarting,<0.643.0>}},{id,rabbit_mgmt_external_stats},{mfargs,{rabbit_mgmt_external_stats,start_link,[]}},{restart_type,permanent},{shutdown,5000},{child_type,worker}]

2024-01-28 05:53:36 =SUPERVISOR REPORT====
     Supervisor: {local,rabbit_mgmt_agent_sup}
     Context:    start_error
     Reason:     {already_started,<0.8525.0>}
     Offender:   [{pid,{restarting,<0.643.0>}},{id,rabbit_mgmt_external_stats},{mfargs,{rabbit_mgmt_external_stats,start_link,[]}},{restart_type,permanent},{shutdown,5000},{child_type,worker}]

2024-01-28 05:53:36 =SUPERVISOR REPORT====
     Supervisor: {local,rabbit_mgmt_agent_sup}
     Context:    start_error
     Reason:     {already_started,<0.8525.0>}
     Offender:   [{pid,{restarting,<0.643.0>}},{id,rabbit_mgmt_external_stats},{mfargs,{rabbit_mgmt_external_stats,start_link,[]}},{restart_type,permanent},{shutdown,5000},{child_type,worker}]

2024-01-28 05:53:36 =SUPERVISOR REPORT====
     Supervisor: {local,rabbit_mgmt_agent_sup}
     Context:    start_error
     Reason:     {already_started,<0.8525.0>}
     Offender:   [{pid,{restarting,<0.643.0>}},{id,rabbit_mgmt_external_stats},{mfargs,{rabbit_mgmt_external_stats,start_link,[]}},{restart_type,permanent},{shutdown,5000},{child_type,worker}]

2024-01-28 05:53:36 =SUPERVISOR REPORT====
     Supervisor: {local,rabbit_mgmt_agent_sup}
     Context:    start_error
     Reason:     {already_started,<0.8525.0>}
     Offender:   [{pid,{restarting,<0.643.0>}},{id,rabbit_mgmt_external_stats},{mfargs,{rabbit_mgmt_external_stats,start_link,[]}},{restart_type,permanent},{shutdown,5000},{child_type,worker}]

2024-01-28 05:53:36 =SUPERVISOR REPORT====
     Supervisor: {local,rabbit_mgmt_agent_sup}
     Context:    start_error
     Reason:     {already_started,<0.8525.0>}
     Offender:   [{pid,{restarting,<0.643.0>}},{id,rabbit_mgmt_external_stats},{mfargs,{rabbit_mgmt_external_stats,start_link,[]}},{restart_type,permanent},{shutdown,5000},{child_type,worker}]

2024-01-28 05:53:36 =SUPERVISOR REPORT====
     Supervisor: {local,rabbit_mgmt_agent_sup}
     Context:    start_error
     Reason:     {already_started,<0.8525.0>}
     Offender:   [{pid,{restarting,<0.643.0>}},{id,rabbit_mgmt_external_stats},{mfargs,{rabbit_mgmt_external_stats,start_link,[]}},{restart_type,permanent},{shutdown,5000},{child_type,worker}]

2024-01-28 05:53:36 =SUPERVISOR REPORT====
     Supervisor: {local,rabbit_mgmt_agent_sup}
     Context:    start_error
     Reason:     {already_started,<0.8525.0>}
     Offender:   [{pid,{restarting,<0.643.0>}},{id,rabbit_mgmt_external_stats},{mfargs,{rabbit_mgmt_external_stats,start_link,[]}},{restart_type,permanent},{shutdown,5000},{child_type,worker}]

2024-01-28 05:53:36 =SUPERVISOR REPORT====
     Supervisor: {local,rabbit_mgmt_agent_sup}
     Context:    start_error
     Reason:     {already_started,<0.8525.0>}
     Offender:   [{pid,{restarting,<0.643.0>}},{id,rabbit_mgmt_external_stats},{mfargs,{rabbit_mgmt_external_stats,start_link,[]}},{restart_type,permanent},{shutdown,5000},{child_type,worker}]

2024-01-28 05:53:36 =SUPERVISOR REPORT====
     Supervisor: {local,rabbit_mgmt_agent_sup}
     Context:    start_error
     Reason:     {already_started,<0.8525.0>}
     Offender:   [{pid,{restarting,<0.643.0>}},{id,rabbit_mgmt_external_stats},{mfargs,{rabbit_mgmt_external_stats,start_link,[]}},{restart_type,permanent},{shutdown,5000},{child_type,worker}]

2024-01-28 05:53:36 =SUPERVISOR REPORT====
     Supervisor: {local,rabbit_mgmt_agent_sup}
     Context:    start_error
     Reason:     {already_started,<0.8525.0>}
     Offender:   [{pid,{restarting,<0.643.0>}},{id,rabbit_mgmt_external_stats},{mfargs,{rabbit_mgmt_external_stats,start_link,[]}},{restart_type,permanent},{shutdown,5000},{child_type,worker}]

2024-01-28 05:53:36 =CRASH REPORT====
  crasher:
    initial call: rabbit_mgmt_external_stats:init/1
    pid: <0.8525.0>
    registered_name: rabbit_mgmt_external_stats
    exception exit: {{bad_return_value,{error,{cannot_read_enabled_plugins_file,"/etc/rabbitmq/enabled_plugins",{2,erl_parse,["syntax error before: ","rabbitmq_mqtt"]}}}},[{gen_server,init_it,6,[{file,"gen_server.erl"},{line,366}]},{proc_lib,init_p_do_apply,3,[{file,"proc_lib.erl"},{line,249}]}]}
    ancestors: [rabbit_mgmt_agent_sup,rabbit_mgmt_agent_sup_sup,<0.633.0>]
    message_queue_len: 0
    messages: []
    links: [<0.635.0>]
    dictionary: []
    trap_exit: false
    status: running
    heap_size: 6772
    stack_size: 27
    reductions: 4948
  neighbours:
2024-01-28 05:53:36 =SUPERVISOR REPORT====
     Supervisor: {local,rabbit_mgmt_agent_sup}
     Context:    start_error
     Reason:     {already_started,<0.8525.0>}
     Offender:   [{pid,{restarting,<0.643.0>}},{id,rabbit_mgmt_external_stats},{mfargs,{rabbit_mgmt_external_stats,start_link,[]}},{restart_type,permanent},{shutdown,5000},{child_type,worker}]

2024-01-28 05:53:36 =SUPERVISOR REPORT====
     Supervisor: {local,rabbit_mgmt_agent_sup}
     Context:    start_error
     Reason:     {bad_return_value,{error,{cannot_read_enabled_plugins_file,"/etc/rabbitmq/enabled_plugins",{2,erl_parse,["syntax error before: ","rabbitmq_mqtt"]}}}}
     Offender:   [{pid,{restarting,<0.643.0>}},{id,rabbit_mgmt_external_stats},{mfargs,{rabbit_mgmt_external_stats,start_link,[]}},{restart_type,permanent},{shutdown,5000},{child_type,worker}]

2024-01-28 05:53:36 =SUPERVISOR REPORT====
     Supervisor: {local,rabbit_mgmt_agent_sup}
     Context:    start_error
     Reason:     {already_started,<0.8526.0>}
     Offender:   [{pid,{restarting,<0.643.0>}},{id,rabbit_mgmt_external_stats},{mfargs,{rabbit_mgmt_external_stats,start_link,[]}},{restart_type,permanent},{shutdown,5000},{child_type,worker}]

2024-01-28 05:53:36 =SUPERVISOR REPORT====
     Supervisor: {local,rabbit_mgmt_agent_sup}
     Context:    start_error
     Reason:     {already_started,<0.8526.0>}
     Offender:   [{pid,{restarting,<0.643.0>}},{id,rabbit_mgmt_external_stats},{mfargs,{rabbit_mgmt_external_stats,start_link,[]}},{restart_type,permanent},{shutdown,5000},{child_type,worker}]

2024-01-28 05:53:36 =SUPERVISOR REPORT====
     Supervisor: {local,rabbit_mgmt_agent_sup}
     Context:    start_error
     Reason:     {already_started,<0.8526.0>}
     Offender:   [{pid,{restarting,<0.643.0>}},{id,rabbit_mgmt_external_stats},{mfargs,{rabbit_mgmt_external_stats,start_link,[]}},{restart_type,permanent},{shutdown,5000},{child_type,worker}]

2024-01-28 05:53:36 =SUPERVISOR REPORT====
     Supervisor: {local,rabbit_mgmt_agent_sup}
     Context:    start_error
     Reason:     {already_started,<0.8526.0>}
     Offender:   [{pid,{restarting,<0.643.0>}},{id,rabbit_mgmt_external_stats},{mfargs,{rabbit_mgmt_external_stats,start_link,[]}},{restart_type,permanent},{shutdown,5000},{child_type,worker}]

2024-01-28 05:53:36 =SUPERVISOR REPORT====
     Supervisor: {local,rabbit_mgmt_agent_sup}
     Context:    start_error
     Reason:     {already_started,<0.8526.0>}
     Offender:   [{pid,{restarting,<0.643.0>}},{id,rabbit_mgmt_external_stats},{mfargs,{rabbit_mgmt_external_stats,start_link,[]}},{restart_type,permanent},{shutdown,5000},{child_type,worker}]

2024-01-28 05:53:36 =SUPERVISOR REPORT====
     Supervisor: {local,rabbit_mgmt_agent_sup}
     Context:    start_error
     Reason:     {already_started,<0.8526.0>}
     Offender:   [{pid,{restarting,<0.643.0>}},{id,rabbit_mgmt_external_stats},{mfargs,{rabbit_mgmt_external_stats,start_link,[]}},{restart_type,permanent},{shutdown,5000},{child_type,worker}]

2024-01-28 05:53:36 =SUPERVISOR REPORT====
     Supervisor: {local,rabbit_mgmt_agent_sup}
     Context:    start_error
     Reason:     {already_started,<0.8526.0>}
     Offender:   [{pid,{restarting,<0.643.0>}},{id,rabbit_mgmt_external_stats},{mfargs,{rabbit_mgmt_external_stats,start_link,[]}},{restart_type,permanent},{shutdown,5000},{child_type,worker}]

2024-01-28 05:53:36 =SUPERVISOR REPORT====
     Supervisor: {local,rabbit_mgmt_agent_sup}
     Context:    start_error
     Reason:     {already_started,<0.8526.0>}
     Offender:   [{pid,{restarting,<0.643.0>}},{id,rabbit_mgmt_external_stats},{mfargs,{rabbit_mgmt_external_stats,start_link,[]}},{restart_type,permanent},{shutdown,5000},{child_type,worker}]

2024-01-28 05:53:36 =SUPERVISOR REPORT====
     Supervisor: {local,rabbit_mgmt_agent_sup}
     Context:    start_error
     Reason:     {already_started,<0.8526.0>}
     Offender:   [{pid,{restarting,<0.643.0>}},{id,rabbit_mgmt_external_stats},{mfargs,{rabbit_mgmt_external_stats,start_link,[]}},{restart_type,permanent},{shutdown,5000},{child_type,worker}]

2024-01-28 05:53:36 =CRASH REPORT====
  crasher:
    initial call: rabbit_mgmt_external_stats:init/1
    pid: <0.8526.0>
    registered_name: rabbit_mgmt_external_stats
    exception exit: {{bad_return_value,{error,{cannot_read_enabled_plugins_file,"/etc/rabbitmq/enabled_plugins",{2,erl_parse,["syntax error before: ","rabbitmq_mqtt"]}}}},[{gen_server,init_it,6,[{file,"gen_server.erl"},{line,366}]},{proc_lib,init_p_do_apply,3,[{file,"proc_lib.erl"},{line,249}]}]}
    ancestors: [rabbit_mgmt_agent_sup,rabbit_mgmt_agent_sup_sup,<0.633.0>]
    message_queue_len: 0
    messages: []
    links: [<0.635.0>]
    dictionary: []
    trap_exit: false
    status: running
    heap_size: 6772
    stack_size: 27
    reductions: 4940
  neighbours:
2024-01-28 05:53:36 =SUPERVISOR REPORT====
     Supervisor: {local,rabbit_mgmt_agent_sup}
     Context:    start_error
     Reason:     {already_started,<0.8526.0>}
     Offender:   [{pid,{restarting,<0.643.0>}},{id,rabbit_mgmt_external_stats},{mfargs,{rabbit_mgmt_external_stats,start_link,[]}},{restart_type,permanent},{shutdown,5000},{child_type,worker}]

2024-01-28 05:53:36 =SUPERVISOR REPORT====
     Supervisor: {local,rabbit_mgmt_agent_sup}
     Context:    start_error
     Reason:     {bad_return_value,{error,{cannot_read_enabled_plugins_file,"/etc/rabbitmq/enabled_plugins",{2,erl_parse,["syntax error before: ","rabbitmq_mqtt"]}}}}
     Offender:   [{pid,{restarting,<0.643.0>}},{id,rabbit_mgmt_external_stats},{mfargs,{rabbit_mgmt_external_stats,start_link,[]}},{restart_type,permanent},{shutdown,5000},{child_type,worker}]

2024-01-28 05:53:36 =SUPERVISOR REPORT====
     Supervisor: {local,rabbit_mgmt_agent_sup}
     Context:    start_error
     Reason:     {already_started,<0.8527.0>}
     Offender:   [{pid,{restarting,<0.643.0>}},{id,rabbit_mgmt_external_stats},{mfargs,{rabbit_mgmt_external_stats,start_link,[]}},{restart_type,permanent},{shutdown,5000},{child_type,worker}]

2024-01-28 05:53:36 =SUPERVISOR REPORT====
     Supervisor: {local,rabbit_mgmt_agent_sup}
     Context:    start_error
     Reason:     {already_started,<0.8527.0>}
     Offender:   [{pid,{restarting,<0.643.0>}},{id,rabbit_mgmt_external_stats},{mfargs,{rabbit_mgmt_external_stats,start_link,[]}},{restart_type,permanent},{shutdown,5000},{child_type,worker}]

2024-01-28 05:53:36 =SUPERVISOR REPORT====
     Supervisor: {local,rabbit_mgmt_agent_sup}
     Context:    start_error
     Reason:     {already_started,<0.8527.0>}
     Offender:   [{pid,{restarting,<0.643.0>}},{id,rabbit_mgmt_external_stats},{mfargs,{rabbit_mgmt_external_stats,start_link,[]}},{restart_type,permanent},{shutdown,5000},{child_type,worker}]

2024-01-28 05:53:36 =SUPERVISOR REPORT====
     Supervisor: {local,rabbit_mgmt_agent_sup}
     Context:    start_error
     Reason:     {already_started,<0.8527.0>}
     Offender:   [{pid,{restarting,<0.643.0>}},{id,rabbit_mgmt_external_stats},{mfargs,{rabbit_mgmt_external_stats,start_link,[]}},{restart_type,permanent},{shutdown,5000},{child_type,worker}]

2024-01-28 05:53:36 =SUPERVISOR REPORT====
     Supervisor: {local,rabbit_mgmt_agent_sup}
     Context:    start_error
     Reason:     {already_started,<0.8527.0>}
     Offender:   [{pid,{restarting,<0.643.0>}},{id,rabbit_mgmt_external_stats},{mfargs,{rabbit_mgmt_external_stats,start_link,[]}},{restart_type,permanent},{shutdown,5000},{child_type,worker}]

2024-01-28 05:53:36 =SUPERVISOR REPORT====
     Supervisor: {local,rabbit_mgmt_agent_sup}
     Context:    start_error
     Reason:     {already_started,<0.8527.0>}
     Offender:   [{pid,{restarting,<0.643.0>}},{id,rabbit_mgmt_external_stats},{mfargs,{rabbit_mgmt_external_stats,start_link,[]}},{restart_type,permanent},{shutdown,5000},{child_type,worker}]

2024-01-28 05:53:36 =SUPERVISOR REPORT====
     Supervisor: {local,rabbit_mgmt_agent_sup}
     Context:    start_error
     Reason:     {already_started,<0.8527.0>}
     Offender:   [{pid,{restarting,<0.643.0>}},{id,rabbit_mgmt_external_stats},{mfargs,{rabbit_mgmt_external_stats,start_link,[]}},{restart_type,permanent},{shutdown,5000},{child_type,worker}]

2024-01-28 05:53:36 =SUPERVISOR REPORT====
     Supervisor: {local,rabbit_mgmt_agent_sup}
     Context:    start_error
     Reason:     {already_started,<0.8527.0>}
     Offender:   [{pid,{restarting,<0.643.0>}},{id,rabbit_mgmt_external_stats},{mfargs,{rabbit_mgmt_external_stats,start_link,[]}},{restart_type,permanent},{shutdown,5000},{child_type,worker}]

2024-01-28 05:53:36 =CRASH REPORT====
  crasher:
    initial call: rabbit_mgmt_external_stats:init/1
    pid: <0.8527.0>
    registered_name: rabbit_mgmt_external_stats
    exception exit: {{bad_return_value,{error,{cannot_read_enabled_plugins_file,"/etc/rabbitmq/enabled_plugins",{2,erl_parse,["syntax error before: ","rabbitmq_mqtt"]}}}},[{gen_server,init_it,6,[{file,"gen_server.erl"},{line,366}]},{proc_lib,init_p_do_apply,3,[{file,"proc_lib.erl"},{line,249}]}]}
    ancestors: [rabbit_mgmt_agent_sup,rabbit_mgmt_agent_sup_sup,<0.633.0>]
    message_queue_len: 0
    messages: []
    links: [<0.635.0>]
    dictionary: []
    trap_exit: false
    status: running
    heap_size: 6772
    stack_size: 27
    reductions: 4948
  neighbours:
2024-01-28 05:53:36 =SUPERVISOR REPORT====
     Supervisor: {local,rabbit_mgmt_agent_sup}
     Context:    start_error
     Reason:     {already_started,<0.8527.0>}
     Offender:   [{pid,{restarting,<0.643.0>}},{id,rabbit_mgmt_external_stats},{mfargs,{rabbit_mgmt_external_stats,start_link,[]}},{restart_type,permanent},{shutdown,5000},{child_type,worker}]

2024-01-28 05:53:36 =SUPERVISOR REPORT====
     Supervisor: {local,rabbit_mgmt_agent_sup}
     Context:    start_error
     Reason:     {bad_return_value,{error,{cannot_read_enabled_plugins_file,"/etc/rabbitmq/enabled_plugins",{2,erl_parse,["syntax error before: ","rabbitmq_mqtt"]}}}}
     Offender:   [{pid,{restarting,<0.643.0>}},{id,rabbit_mgmt_external_stats},{mfargs,{rabbit_mgmt_external_stats,start_link,[]}},{restart_type,permanent},{shutdown,5000},{child_type,worker}]

2024-01-28 05:53:36 =SUPERVISOR REPORT====
     Supervisor: {local,rabbit_mgmt_agent_sup}
     Context:    start_error
     Reason:     {already_started,<0.8528.0>}
     Offender:   [{pid,{restarting,<0.643.0>}},{id,rabbit_mgmt_external_stats},{mfargs,{rabbit_mgmt_external_stats,start_link,[]}},{restart_type,permanent},{shutdown,5000},{child_type,worker}]

2024-01-28 05:53:36 =SUPERVISOR REPORT====
     Supervisor: {local,rabbit_mgmt_agent_sup}
     Context:    start_error
     Reason:     {already_started,<0.8528.0>}
     Offender:   [{pid,{restarting,<0.643.0>}},{id,rabbit_mgmt_external_stats},{mfargs,{rabbit_mgmt_external_stats,start_link,[]}},{restart_type,permanent},{shutdown,5000},{child_type,worker}]

2024-01-28 05:53:36 =SUPERVISOR REPORT====
     Supervisor: {local,rabbit_mgmt_agent_sup}
     Context:    start_error
     Reason:     {already_started,<0.8528.0>}
     Offender:   [{pid,{restarting,<0.643.0>}},{id,rabbit_mgmt_external_stats},{mfargs,{rabbit_mgmt_external_stats,start_link,[]}},{restart_type,permanent},{shutdown,5000},{child_type,worker}]

2024-01-28 05:53:36 =SUPERVISOR REPORT====
     Supervisor: {local,rabbit_mgmt_agent_sup}
     Context:    start_error
     Reason:     {already_started,<0.8528.0>}
     Offender:   [{pid,{restarting,<0.643.0>}},{id,rabbit_mgmt_external_stats},{mfargs,{rabbit_mgmt_external_stats,start_link,[]}},{restart_type,permanent},{shutdown,5000},{child_type,worker}]

2024-01-28 05:53:36 =SUPERVISOR REPORT====
     Supervisor: {local,rabbit_mgmt_agent_sup}
     Context:    start_error
     Reason:     {already_started,<0.8528.0>}
     Offender:   [{pid,{restarting,<0.643.0>}},{id,rabbit_mgmt_external_stats},{mfargs,{rabbit_mgmt_external_stats,start_link,[]}},{restart_type,permanent},{shutdown,5000},{child_type,worker}]

2024-01-28 05:53:36 =SUPERVISOR REPORT====
     Supervisor: {local,rabbit_mgmt_agent_sup}
     Context:    start_error
     Reason:     {already_started,<0.8528.0>}
     Offender:   [{pid,{restarting,<0.643.0>}},{id,rabbit_mgmt_external_stats},{mfargs,{rabbit_mgmt_external_stats,start_link,[]}},{restart_type,permanent},{shutdown,5000},{child_type,worker}]

2024-01-28 05:53:36 =SUPERVISOR REPORT====
     Supervisor: {local,rabbit_mgmt_agent_sup}
     Context:    start_error
     Reason:     {already_started,<0.8528.0>}
     Offender:   [{pid,{restarting,<0.643.0>}},{id,rabbit_mgmt_external_stats},{mfargs,{rabbit_mgmt_external_stats,start_link,[]}},{restart_type,permanent},{shutdown,5000},{child_type,worker}]

2024-01-28 05:53:36 =SUPERVISOR REPORT====
     Supervisor: {local,rabbit_mgmt_agent_sup}
     Context:    start_error
     Reason:     {already_started,<0.8528.0>}
     Offender:   [{pid,{restarting,<0.643.0>}},{id,rabbit_mgmt_external_stats},{mfargs,{rabbit_mgmt_external_stats,start_link,[]}},{restart_type,permanent},{shutdown,5000},{child_type,worker}]

2024-01-28 05:53:36 =CRASH REPORT====
  crasher:
    initial call: rabbit_mgmt_external_stats:init/1
    pid: <0.8528.0>
    registered_name: rabbit_mgmt_external_stats
    exception exit: {{bad_return_value,{error,{cannot_read_enabled_plugins_file,"/etc/rabbitmq/enabled_plugins",{2,erl_parse,["syntax error before: ","rabbitmq_mqtt"]}}}},[{gen_server,init_it,6,[{file,"gen_server.erl"},{line,366}]},{proc_lib,init_p_do_apply,3,[{file,"proc_lib.erl"},{line,249}]}]}
    ancestors: [rabbit_mgmt_agent_sup,rabbit_mgmt_agent_sup_sup,<0.633.0>]
    message_queue_len: 0
    messages: []
    links: [<0.635.0>]
    dictionary: []
    trap_exit: false
    status: running
    heap_size: 6772
    stack_size: 27
    reductions: 4948
  neighbours:
2024-01-28 05:53:36 =SUPERVISOR REPORT====
     Supervisor: {local,rabbit_mgmt_agent_sup}
     Context:    start_error
     Reason:     {bad_return_value,{error,{cannot_read_enabled_plugins_file,"/etc/rabbitmq/enabled_plugins",{2,erl_parse,["syntax error before: ","rabbitmq_mqtt"]}}}}
     Offender:   [{pid,{restarting,<0.643.0>}},{id,rabbit_mgmt_external_stats},{mfargs,{rabbit_mgmt_external_stats,start_link,[]}},{restart_type,permanent},{shutdown,5000},{child_type,worker}]

2024-01-28 05:53:36 =SUPERVISOR REPORT====
     Supervisor: {local,rabbit_mgmt_agent_sup}
     Context:    start_error
     Reason:     {already_started,<0.8529.0>}
     Offender:   [{pid,{restarting,<0.643.0>}},{id,rabbit_mgmt_external_stats},{mfargs,{rabbit_mgmt_external_stats,start_link,[]}},{restart_type,permanent},{shutdown,5000},{child_type,worker}]

2024-01-28 05:53:36 =SUPERVISOR REPORT====
     Supervisor: {local,rabbit_mgmt_agent_sup}
     Context:    start_error
     Reason:     {already_started,<0.8529.0>}
     Offender:   [{pid,{restarting,<0.643.0>}},{id,rabbit_mgmt_external_stats},{mfargs,{rabbit_mgmt_external_stats,start_link,[]}},{restart_type,permanent},{shutdown,5000},{child_type,worker}]

2024-01-28 05:53:36 =SUPERVISOR REPORT====
     Supervisor: {local,rabbit_mgmt_agent_sup}
     Context:    start_error
     Reason:     {already_started,<0.8529.0>}
     Offender:   [{pid,{restarting,<0.643.0>}},{id,rabbit_mgmt_external_stats},{mfargs,{rabbit_mgmt_external_stats,start_link,[]}},{restart_type,permanent},{shutdown,5000},{child_type,worker}]

2024-01-28 05:53:36 =SUPERVISOR REPORT====
     Supervisor: {local,rabbit_mgmt_agent_sup}
     Context:    start_error
     Reason:     {already_started,<0.8529.0>}
     Offender:   [{pid,{restarting,<0.643.0>}},{id,rabbit_mgmt_external_stats},{mfargs,{rabbit_mgmt_external_stats,start_link,[]}},{restart_type,permanent},{shutdown,5000},{child_type,worker}]

2024-01-28 05:53:36 =SUPERVISOR REPORT====
     Supervisor: {local,rabbit_mgmt_agent_sup}
     Context:    start_error
     Reason:     {already_started,<0.8529.0>}
     Offender:   [{pid,{restarting,<0.643.0>}},{id,rabbit_mgmt_external_stats},{mfargs,{rabbit_mgmt_external_stats,start_link,[]}},{restart_type,permanent},{shutdown,5000},{child_type,worker}]

2024-01-28 05:53:36 =SUPERVISOR REPORT====
     Supervisor: {local,rabbit_mgmt_agent_sup}
     Context:    start_error
     Reason:     {already_started,<0.8529.0>}
     Offender:   [{pid,{restarting,<0.643.0>}},{id,rabbit_mgmt_external_stats},{mfargs,{rabbit_mgmt_external_stats,start_link,[]}},{restart_type,permanent},{shutdown,5000},{child_type,worker}]

2024-01-28 05:53:36 =SUPERVISOR REPORT====
     Supervisor: {local,rabbit_mgmt_agent_sup}
     Context:    start_error
     Reason:     {already_started,<0.8529.0>}
     Offender:   [{pid,{restarting,<0.643.0>}},{id,rabbit_mgmt_external_stats},{mfargs,{rabbit_mgmt_external_stats,start_link,[]}},{restart_type,permanent},{shutdown,5000},{child_type,worker}]

2024-01-28 05:53:36 =CRASH REPORT====
  crasher:
    initial call: rabbit_mgmt_external_stats:init/1
    pid: <0.8529.0>
    registered_name: rabbit_mgmt_external_stats
    exception exit: {{bad_return_value,{error,{cannot_read_enabled_plugins_file,"/etc/rabbitmq/enabled_plugins",{2,erl_parse,["syntax error before: ","rabbitmq_mqtt"]}}}},[{gen_server,init_it,6,[{file,"gen_server.erl"},{line,366}]},{proc_lib,init_p_do_apply,3,[{file,"proc_lib.erl"},{line,249}]}]}
    ancestors: [rabbit_mgmt_agent_sup,rabbit_mgmt_agent_sup_sup,<0.633.0>]
    message_queue_len: 0
    messages: []
    links: [<0.635.0>]
    dictionary: []
    trap_exit: false
    status: running
    heap_size: 6772
    stack_size: 27
    reductions: 4948
  neighbours:
2024-01-28 05:53:36 =SUPERVISOR REPORT====
     Supervisor: {local,rabbit_mgmt_agent_sup}
     Context:    start_error
     Reason:     {bad_return_value,{error,{cannot_read_enabled_plugins_file,"/etc/rabbitmq/enabled_plugins",{2,erl_parse,["syntax error before: ","rabbitmq_mqtt"]}}}}
     Offender:   [{pid,{restarting,<0.643.0>}},{id,rabbit_mgmt_external_stats},{mfargs,{rabbit_mgmt_external_stats,start_link,[]}},{restart_type,permanent},{shutdown,5000},{child_type,worker}]

2024-01-28 05:53:36 =SUPERVISOR REPORT====
     Supervisor: {local,rabbit_mgmt_agent_sup}
     Context:    start_error
     Reason:     {already_started,<0.8530.0>}
     Offender:   [{pid,{restarting,<0.643.0>}},{id,rabbit_mgmt_external_stats},{mfargs,{rabbit_mgmt_external_stats,start_link,[]}},{restart_type,permanent},{shutdown,5000},{child_type,worker}]

2024-01-28 05:53:36 =SUPERVISOR REPORT====
     Supervisor: {local,rabbit_mgmt_agent_sup}
     Context:    start_error
     Reason:     {already_started,<0.8530.0>}
     Offender:   [{pid,{restarting,<0.643.0>}},{id,rabbit_mgmt_external_stats},{mfargs,{rabbit_mgmt_external_stats,start_link,[]}},{restart_type,permanent},{shutdown,5000},{child_type,worker}]

2024-01-28 05:53:36 =SUPERVISOR REPORT====
     Supervisor: {local,rabbit_mgmt_agent_sup}
     Context:    start_error
     Reason:     {already_started,<0.8530.0>}
     Offender:   [{pid,{restarting,<0.643.0>}},{id,rabbit_mgmt_external_stats},{mfargs,{rabbit_mgmt_external_stats,start_link,[]}},{restart_type,permanent},{shutdown,5000},{child_type,worker}]

2024-01-28 05:53:36 =SUPERVISOR REPORT====
     Supervisor: {local,rabbit_mgmt_agent_sup}
     Context:    start_error
     Reason:     {already_started,<0.8530.0>}
     Offender:   [{pid,{restarting,<0.643.0>}},{id,rabbit_mgmt_external_stats},{mfargs,{rabbit_mgmt_external_stats,start_link,[]}},{restart_type,permanent},{shutdown,5000},{child_type,worker}]

2024-01-28 05:53:36 =SUPERVISOR REPORT====
     Supervisor: {local,rabbit_mgmt_agent_sup}
     Context:    start_error
     Reason:     {already_started,<0.8530.0>}
     Offender:   [{pid,{restarting,<0.643.0>}},{id,rabbit_mgmt_external_stats},{mfargs,{rabbit_mgmt_external_stats,start_link,[]}},{restart_type,permanent},{shutdown,5000},{child_type,worker}]

2024-01-28 05:53:36 =SUPERVISOR REPORT====
     Supervisor: {local,rabbit_mgmt_agent_sup}
     Context:    start_error
     Reason:     {already_started,<0.8530.0>}
     Offender:   [{pid,{restarting,<0.643.0>}},{id,rabbit_mgmt_external_stats},{mfargs,{rabbit_mgmt_external_stats,start_link,[]}},{restart_type,permanent},{shutdown,5000},{child_type,worker}]

2024-01-28 05:53:36 =CRASH REPORT====
  crasher:
    initial call: rabbit_mgmt_external_stats:init/1
    pid: <0.8530.0>
    registered_name: rabbit_mgmt_external_stats
    exception exit: {{bad_return_value,{error,{cannot_read_enabled_plugins_file,"/etc/rabbitmq/enabled_plugins",{2,erl_parse,["syntax error before: ","rabbitmq_mqtt"]}}}},[{gen_server,init_it,6,[{file,"gen_server.erl"},{line,366}]},{proc_lib,init_p_do_apply,3,[{file,"proc_lib.erl"},{line,249}]}]}
    ancestors: [rabbit_mgmt_agent_sup,rabbit_mgmt_agent_sup_sup,<0.633.0>]
    message_queue_len: 0
    messages: []
    links: [<0.635.0>]
    dictionary: []
    trap_exit: false
    status: running
    heap_size: 6772
    stack_size: 27
    reductions: 4948
  neighbours:
2024-01-28 05:53:36 =SUPERVISOR REPORT====
     Supervisor: {local,rabbit_mgmt_agent_sup}
     Context:    start_error
     Reason:     {already_started,<0.8530.0>}
     Offender:   [{pid,{restarting,<0.643.0>}},{id,rabbit_mgmt_external_stats},{mfargs,{rabbit_mgmt_external_stats,start_link,[]}},{restart_type,permanent},{shutdown,5000},{child_type,worker}]

2024-01-28 05:53:36 =SUPERVISOR REPORT====
     Supervisor: {local,rabbit_mgmt_agent_sup}
     Context:    start_error
     Reason:     {bad_return_value,{error,{cannot_read_enabled_plugins_file,"/etc/rabbitmq/enabled_plugins",{2,erl_parse,["syntax error before: ","rabbitmq_mqtt"]}}}}
     Offender:   [{pid,{restarting,<0.643.0>}},{id,rabbit_mgmt_external_stats},{mfargs,{rabbit_mgmt_external_stats,start_link,[]}},{restart_type,permanent},{shutdown,5000},{child_type,worker}]

2024-01-28 05:53:36 =SUPERVISOR REPORT====
     Supervisor: {local,rabbit_mgmt_agent_sup}
     Context:    start_error
     Reason:     {already_started,<0.8531.0>}
     Offender:   [{pid,{restarting,<0.643.0>}},{id,rabbit_mgmt_external_stats},{mfargs,{rabbit_mgmt_external_stats,start_link,[]}},{restart_type,permanent},{shutdown,5000},{child_type,worker}]

2024-01-28 05:53:36 =SUPERVISOR REPORT====
     Supervisor: {local,rabbit_mgmt_agent_sup}
     Context:    start_error
     Reason:     {already_started,<0.8531.0>}
     Offender:   [{pid,{restarting,<0.643.0>}},{id,rabbit_mgmt_external_stats},{mfargs,{rabbit_mgmt_external_stats,start_link,[]}},{restart_type,permanent},{shutdown,5000},{child_type,worker}]

2024-01-28 05:53:36 =SUPERVISOR REPORT====
     Supervisor: {local,rabbit_mgmt_agent_sup}
     Context:    start_error
     Reason:     {already_started,<0.8531.0>}
     Offender:   [{pid,{restarting,<0.643.0>}},{id,rabbit_mgmt_external_stats},{mfargs,{rabbit_mgmt_external_stats,start_link,[]}},{restart_type,permanent},{shutdown,5000},{child_type,worker}]

2024-01-28 05:53:36 =SUPERVISOR REPORT====
     Supervisor: {local,rabbit_mgmt_agent_sup}
     Context:    start_error
     Reason:     {already_started,<0.8531.0>}
     Offender:   [{pid,{restarting,<0.643.0>}},{id,rabbit_mgmt_external_stats},{mfargs,{rabbit_mgmt_external_stats,start_link,[]}},{restart_type,permanent},{shutdown,5000},{child_type,worker}]

2024-01-28 05:53:36 =SUPERVISOR REPORT====
     Supervisor: {local,rabbit_mgmt_agent_sup}
     Context:    start_error
     Reason:     {already_started,<0.8531.0>}
     Offender:   [{pid,{restarting,<0.643.0>}},{id,rabbit_mgmt_external_stats},{mfargs,{rabbit_mgmt_external_stats,start_link,[]}},{restart_type,permanent},{shutdown,5000},{child_type,worker}]

2024-01-28 05:53:36 =SUPERVISOR REPORT====
     Supervisor: {local,rabbit_mgmt_agent_sup}
     Context:    start_error
     Reason:     {already_started,<0.8531.0>}
     Offender:   [{pid,{restarting,<0.643.0>}},{id,rabbit_mgmt_external_stats},{mfargs,{rabbit_mgmt_external_stats,start_link,[]}},{restart_type,permanent},{shutdown,5000},{child_type,worker}]

2024-01-28 05:53:36 =CRASH REPORT====
  crasher:
    initial call: rabbit_mgmt_external_stats:init/1
    pid: <0.8531.0>
    registered_name: rabbit_mgmt_external_stats
    exception exit: {{bad_return_value,{error,{cannot_read_enabled_plugins_file,"/etc/rabbitmq/enabled_plugins",{2,erl_parse,["syntax error before: ","rabbitmq_mqtt"]}}}},[{gen_server,init_it,6,[{file,"gen_server.erl"},{line,366}]},{proc_lib,init_p_do_apply,3,[{file,"proc_lib.erl"},{line,249}]}]}
    ancestors: [rabbit_mgmt_agent_sup,rabbit_mgmt_agent_sup_sup,<0.633.0>]
    message_queue_len: 0
    messages: []
    links: [<0.635.0>]
    dictionary: []
    trap_exit: false
    status: running
    heap_size: 6772
    stack_size: 27
    reductions: 4956
  neighbours:
2024-01-28 05:53:36 =SUPERVISOR REPORT====
     Supervisor: {local,rabbit_mgmt_agent_sup}
     Context:    start_error
     Reason:     {already_started,<0.8531.0>}
     Offender:   [{pid,{restarting,<0.643.0>}},{id,rabbit_mgmt_external_stats},{mfargs,{rabbit_mgmt_external_stats,start_link,[]}},{restart_type,permanent},{shutdown,5000},{child_type,worker}]

2024-01-28 05:53:36 =SUPERVISOR REPORT====
     Supervisor: {local,rabbit_mgmt_agent_sup}
     Context:    start_error
     Reason:     {bad_return_value,{error,{cannot_read_enabled_plugins_file,"/etc/rabbitmq/enabled_plugins",{2,erl_parse,["syntax error before: ","rabbitmq_mqtt"]}}}}
     Offender:   [{pid,{restarting,<0.643.0>}},{id,rabbit_mgmt_external_stats},{mfargs,{rabbit_mgmt_external_stats,start_link,[]}},{restart_type,permanent},{shutdown,5000},{child_type,worker}]

2024-01-28 05:53:36 =SUPERVISOR REPORT====
     Supervisor: {local,rabbit_mgmt_agent_sup}
     Context:    start_error
     Reason:     {already_started,<0.8532.0>}
     Offender:   [{pid,{restarting,<0.643.0>}},{id,rabbit_mgmt_external_stats},{mfargs,{rabbit_mgmt_external_stats,start_link,[]}},{restart_type,permanent},{shutdown,5000},{child_type,worker}]

2024-01-28 05:53:36 =SUPERVISOR REPORT====
     Supervisor: {local,rabbit_mgmt_agent_sup}
     Context:    start_error
     Reason:     {already_started,<0.8532.0>}
     Offender:   [{pid,{restarting,<0.643.0>}},{id,rabbit_mgmt_external_stats},{mfargs,{rabbit_mgmt_external_stats,start_link,[]}},{restart_type,permanent},{shutdown,5000},{child_type,worker}]

2024-01-28 05:53:36 =SUPERVISOR REPORT====
     Supervisor: {local,rabbit_mgmt_agent_sup}
     Context:    start_error
     Reason:     {already_started,<0.8532.0>}
     Offender:   [{pid,{restarting,<0.643.0>}},{id,rabbit_mgmt_external_stats},{mfargs,{rabbit_mgmt_external_stats,start_link,[]}},{restart_type,permanent},{shutdown,5000},{child_type,worker}]

2024-01-28 05:53:36 =SUPERVISOR REPORT====
     Supervisor: {local,rabbit_mgmt_agent_sup}
     Context:    start_error
     Reason:     {already_started,<0.8532.0>}
     Offender:   [{pid,{restarting,<0.643.0>}},{id,rabbit_mgmt_external_stats},{mfargs,{rabbit_mgmt_external_stats,start_link,[]}},{restart_type,permanent},{shutdown,5000},{child_type,worker}]

2024-01-28 05:53:36 =SUPERVISOR REPORT====
     Supervisor: {local,rabbit_mgmt_agent_sup}
     Context:    start_error
     Reason:     {already_started,<0.8532.0>}
     Offender:   [{pid,{restarting,<0.643.0>}},{id,rabbit_mgmt_external_stats},{mfargs,{rabbit_mgmt_external_stats,start_link,[]}},{restart_type,permanent},{shutdown,5000},{child_type,worker}]

2024-01-28 05:53:36 =SUPERVISOR REPORT====
     Supervisor: {local,rabbit_mgmt_agent_sup}
     Context:    start_error
     Reason:     {already_started,<0.8532.0>}
     Offender:   [{pid,{restarting,<0.643.0>}},{id,rabbit_mgmt_external_stats},{mfargs,{rabbit_mgmt_external_stats,start_link,[]}},{restart_type,permanent},{shutdown,5000},{child_type,worker}]

2024-01-28 05:53:36 =CRASH REPORT====
  crasher:
    initial call: rabbit_mgmt_external_stats:init/1
    pid: <0.8532.0>
    registered_name: rabbit_mgmt_external_stats
    exception exit: {{bad_return_value,{error,{cannot_read_enabled_plugins_file,"/etc/rabbitmq/enabled_plugins",{2,erl_parse,["syntax error before: ","rabbitmq_mqtt"]}}}},[{gen_server,init_it,6,[{file,"gen_server.erl"},{line,366}]},{proc_lib,init_p_do_apply,3,[{file,"proc_lib.erl"},{line,249}]}]}
    ancestors: [rabbit_mgmt_agent_sup,rabbit_mgmt_agent_sup_sup,<0.633.0>]
    message_queue_len: 0
    messages: []
    links: [<0.635.0>]
    dictionary: []
    trap_exit: false
    status: running
    heap_size: 6772
    stack_size: 27
    reductions: 4940
  neighbours:
2024-01-28 05:53:36 =SUPERVISOR REPORT====
     Supervisor: {local,rabbit_mgmt_agent_sup}
     Context:    start_error
     Reason:     {already_started,<0.8532.0>}
     Offender:   [{pid,{restarting,<0.643.0>}},{id,rabbit_mgmt_external_stats},{mfargs,{rabbit_mgmt_external_stats,start_link,[]}},{restart_type,permanent},{shutdown,5000},{child_type,worker}]

2024-01-28 05:53:36 =SUPERVISOR REPORT====
     Supervisor: {local,rabbit_mgmt_agent_sup}
     Context:    start_error
     Reason:     {bad_return_value,{error,{cannot_read_enabled_plugins_file,"/etc/rabbitmq/enabled_plugins",{2,erl_parse,["syntax error before: ","rabbitmq_mqtt"]}}}}
     Offender:   [{pid,{restarting,<0.643.0>}},{id,rabbit_mgmt_external_stats},{mfargs,{rabbit_mgmt_external_stats,start_link,[]}},{restart_type,permanent},{shutdown,5000},{child_type,worker}]

2024-01-28 05:53:36 =SUPERVISOR REPORT====
     Supervisor: {local,rabbit_mgmt_agent_sup}
     Context:    shutdown
     Reason:     reached_max_restart_intensity
     Offender:   [{pid,{restarting,<0.643.0>}},{id,rabbit_mgmt_external_stats},{mfargs,{rabbit_mgmt_external_stats,start_link,[]}},{restart_type,permanent},{shutdown,5000},{child_type,worker}]

2024-01-28 05:53:36 =CRASH REPORT====
  crasher:
    initial call: rabbit_mgmt_external_stats:init/1
    pid: <0.8533.0>
    registered_name: rabbit_mgmt_external_stats
    exception exit: {{bad_return_value,{error,{cannot_read_enabled_plugins_file,"/etc/rabbitmq/enabled_plugins",{2,erl_parse,["syntax error before: ","rabbitmq_mqtt"]}}}},[{gen_server,init_it,6,[{file,"gen_server.erl"},{line,366}]},{proc_lib,init_p_do_apply,3,[{file,"proc_lib.erl"},{line,249}]}]}
    ancestors: [rabbit_mgmt_agent_sup,rabbit_mgmt_agent_sup_sup,<0.633.0>]
    message_queue_len: 0
    messages: []
    links: [<0.635.0>]
    dictionary: []
    trap_exit: false
    status: running
    heap_size: 6772
    stack_size: 27
    reductions: 4932
  neighbours:
2024-01-28 05:53:39 =ERROR REPORT====
** Generic server <0.781.0> terminating
** Last message in was {submit,#Fun<rabbit_mgmt_db.21.64020770>,<0.8537.0>,reuse}
** When Server state == {from,<0.8537.0>,#Ref<0.1659100015.3440902145.77503>}
** Reason for termination == 
** {{badkey,rabbit@58969a4f46eb},[{maps,get,[rabbit@58969a4f46eb,#{}],[]},{rabbit_mgmt_db,'-node_stats/3-lc$^1/1-1-',4,[{file,"src/rabbit_mgmt_db.erl"},{line,601}]},{worker_pool_worker,handle_call,3,[{file,"src/worker_pool_worker.erl"},{line,105}]},{gen_server2,handle_msg,2,[{file,"src/gen_server2.erl"},{line,1046}]},{proc_lib,wake_up,3,[{file,"proc_lib.erl"},{line,259}]}]}
2024-01-28 05:53:39 =CRASH REPORT====
  crasher:
    initial call: worker_pool_worker:init/1
    pid: <0.781.0>
    registered_name: []
    exception exit: {{{badkey,rabbit@58969a4f46eb},[{maps,get,[rabbit@58969a4f46eb,#{}],[]},{rabbit_mgmt_db,'-node_stats/3-lc$^1/1-1-',4,[{file,"src/rabbit_mgmt_db.erl"},{line,601}]},{worker_pool_worker,handle_call,3,[{file,"src/worker_pool_worker.erl"},{line,105}]},{gen_server2,handle_msg,2,[{file,"src/gen_server2.erl"},{line,1046}]},{proc_lib,wake_up,3,[{file,"proc_lib.erl"},{line,259}]}]},[{gen_server2,terminate,3,[{file,"src/gen_server2.erl"},{line,1183}]},{proc_lib,wake_up,3,[{file,"proc_lib.erl"},{line,259}]}]}
    ancestors: [management_worker_pool_sup,rabbit_mgmt_sup,rabbit_mgmt_sup_sup,<0.672.0>]
    message_queue_len: 0
    messages: []
    links: [<0.779.0>]
    dictionary: [{worker_pool_name,management_worker_pool},{rand_seed,{#{jump => #Fun<rand.3.8986388>,max => 288230376151711743,next => #Fun<rand.2.8986388>,type => exsplus},[40803303725292596|31262792862625551]}},{worker_pool_worker,true}]
    trap_exit: false
    status: running
    heap_size: 10958
    stack_size: 27
    reductions: 10044614
  neighbours:
2024-01-28 05:53:39 =CRASH REPORT====
  crasher:
    initial call: cowboy_stream_h:request_process/3
    pid: <0.8537.0>
    registered_name: []
    exception exit: {{{{{badkey,rabbit@58969a4f46eb},[{maps,get,[rabbit@58969a4f46eb,#{}],[]},{rabbit_mgmt_db,'-node_stats/3-lc$^1/1-1-',4,[{file,"src/rabbit_mgmt_db.erl"},{line,601}]},{worker_pool_worker,handle_call,3,[{file,"src/worker_pool_worker.erl"},{line,105}]},{gen_server2,handle_msg,2,[{file,"src/gen_server2.erl"},{line,1046}]},{proc_lib,wake_up,3,[{file,"proc_lib.erl"},{line,259}]}]},{gen_server2,call,[<0.781.0>,{submit,#Fun<rabbit_mgmt_db.21.64020770>,<0.8537.0>,reuse},infinity]}},[{gen_server2,call,3,[{file,"src/gen_server2.erl"},{line,346}]},{rabbit_mgmt_wm_overview,web_contexts,1,[{file,"src/rabbit_mgmt_wm_overview.erl"},{line,98}]},{rabbit_mgmt_wm_overview,to_json,2,[{file,"src/rabbit_mgmt_wm_overview.erl"},{line,63}]},{cowboy_rest,call,3,[{file,"src/cowboy_rest.erl"},{line,1576}]},{cowboy_rest,set_resp_body,2,[{file,"src/cowboy_rest.erl"},{line,1466}]},{cowboy_rest,upgrade,4,[{file,"src/cowboy_rest.erl"},{line,288}]},{cowboy_stream_h,execute,3,[{file,"src/cowboy_stream_h.erl"},{line,296}]},{cowboy_stream_h,request_process,3,[{file,"src/cowboy_stream_h.erl"},{line,274}]}]},[{gen_server2,call,3,[{file,"src/gen_server2.erl"},{line,346}]},{rabbit_mgmt_wm_overview,web_contexts,1,[{file,"src/rabbit_mgmt_wm_overview.erl"},{line,98}]},{rabbit_mgmt_wm_overview,to_json,2,[{file,"src/rabbit_mgmt_wm_overview.erl"},{line,63}]},{cowboy_rest,call,3,[{file,"src/cowboy_rest.erl"},{line,1576}]},{cowboy_rest,set_resp_body,2,[{file,"src/cowboy_rest.erl"},{line,1466}]},{cowboy_rest,upgrade,4,[{file,"src/cowboy_rest.erl"},{line,288}]},{cowboy_stream_h,execute,3,[{file,"src/cowboy_stream_h.erl"},{line,296}]},{cowboy_stream_h,request_process,3,[{file,"src/cowboy_stream_h.erl"},{line,274}]}]}
    ancestors: [<0.8536.0>,<0.674.0>,<0.673.0>,rabbit_web_dispatch_sup,<0.520.0>]
    message_queue_len: 0
    messages: []
    links: [<0.8536.0>]
    dictionary: []
    trap_exit: false
    status: running
    heap_size: 1598
    stack_size: 27
    reductions: 7834
  neighbours:
2024-01-28 05:53:39 =SUPERVISOR REPORT====
     Supervisor: {local,management_worker_pool_sup}
     Context:    child_terminated
     Reason:     {{badkey,rabbit@58969a4f46eb},[{maps,get,[rabbit@58969a4f46eb,#{}],[]},{rabbit_mgmt_db,'-node_stats/3-lc$^1/1-1-',4,[{file,"src/rabbit_mgmt_db.erl"},{line,601}]},{worker_pool_worker,handle_call,3,[{file,"src/worker_pool_worker.erl"},{line,105}]},{gen_server2,handle_msg,2,[{file,"src/gen_server2.erl"},{line,1046}]},{proc_lib,wake_up,3,[{file,"proc_lib.erl"},{line,259}]}]}
     Offender:   [{pid,<0.781.0>},{id,1},{mfargs,{worker_pool_worker,start_link,[management_worker_pool]}},{restart_type,transient},{shutdown,4294967295},{child_type,worker}]

2024-01-28 05:53:39 =ERROR REPORT====
Ranch listener rabbit_web_dispatch_sup_15672, connection process <0.8536.0>, stream 1 had its request process <0.8537.0> exit with reason {{{badkey,rabbit@58969a4f46eb},[{maps,get,[rabbit@58969a4f46eb,#{}],[]},{rabbit_mgmt_db,'-node_stats/3-lc$^1/1-1-',4,[{file,"src/rabbit_mgmt_db.erl"},{line,601}]},{worker_pool_worker,handle_call,3,[{file,"src/worker_pool_worker.erl"},{line,105}]},{gen_server2,handle_msg,2,[{file,"src/gen_server2.erl"},{line,1046}]},{proc_lib,wake_up,3,[{file,"proc_lib.erl"},{line,259}]}]},{gen_server2,call,[<0.781.0>,{submit,#Fun<rabbit_mgmt_db.21.64020770>,<0.8537.0>,reuse},infinity]}} and stacktrace [{gen_server2,call,3,[{file,"src/gen_server2.erl"},{line,346}]},{rabbit_mgmt_wm_overview,web_contexts,1,[{file,"src/rabbit_mgmt_wm_overview.erl"},{line,98}]},{rabbit_mgmt_wm_overview,to_json,2,[{file,"src/rabbit_mgmt_wm_overview.erl"},{line,63}]},{cowboy_rest,call,3,[{file,"src/cowboy_rest.erl"},{line,1576}]},{cowboy_rest,set_resp_body,2,[{file,"src/cowboy_rest.erl"},{line,1466}]},{cowboy_rest,upgrade,4,[{file,"src/cowboy_rest.erl"},{line,288}]},{cowboy_stream_h,execute,3,[{file,"src/cowboy_stream_h.erl"},{line,296}]},{cowboy_stream_h,request_process,3,[{file,"src/cowboy_stream_h.erl"},{line,274}]}]
2024-01-28 06:50:46 =CRASH REPORT====
  crasher:
    initial call: cowboy_stream_h:request_process/3
    pid: <0.806.0>
    registered_name: []
    exception exit: {{{request_error,{header,<<"authorization">>},'Malformed header. Please consult the relevant specification.'},[{cow_http_hd,parse_authorization,[<<"null">>],[]},{cowboy_req,parse_header,3,[{file,"src/cowboy_req.erl"},{line,414}]},{rabbit_mgmt_util,is_authorized1,4,[{file,"src/rabbit_mgmt_util.erl"},{line,174}]},{cowboy_rest,call,3,[{file,"src/cowboy_rest.erl"},{line,1576}]},{cowboy_rest,is_authorized,2,[{file,"src/cowboy_rest.erl"},{line,372}]},{cowboy_rest,upgrade,4,[{file,"src/cowboy_rest.erl"},{line,288}]},{cowboy_stream_h,execute,3,[{file,"src/cowboy_stream_h.erl"},{line,296}]},{cowboy_stream_h,request_process,3,[{file,"src/cowboy_stream_h.erl"},{line,274}]}]},[{cow_http_hd,parse_authorization,[<<"null">>],[]},{cowboy_req,parse_header,3,[{file,"src/cowboy_req.erl"},{line,414}]},{rabbit_mgmt_util,is_authorized1,4,[{file,"src/rabbit_mgmt_util.erl"},{line,174}]},{cowboy_rest,call,3,[{file,"src/cowboy_rest.erl"},{line,1576}]},{cowboy_rest,is_authorized,2,[{file,"src/cowboy_rest.erl"},{line,372}]},{cowboy_rest,upgrade,4,[{file,"src/cowboy_rest.erl"},{line,288}]},{cowboy_stream_h,execute,3,[{file,"src/cowboy_stream_h.erl"},{line,296}]},{cowboy_stream_h,request_process,3,[{file,"src/cowboy_stream_h.erl"},{line,274}]}]}
    ancestors: [<0.803.0>,<0.690.0>,<0.689.0>,rabbit_web_dispatch_sup,<0.471.0>]
    message_queue_len: 0
    messages: []
    links: [<0.803.0>]
    dictionary: []
    trap_exit: false
    status: running
    heap_size: 6772
    stack_size: 27
    reductions: 1040
  neighbours:
2024-01-28 17:54:36 =CRASH REPORT====
  crasher:
    initial call: cowboy_stream_h:request_process/3
    pid: <0.803.0>
    registered_name: []
    exception exit: {{{request_error,{header,<<"authorization">>},'Malformed header. Please consult the relevant specification.'},[{cow_http_hd,parse_authorization,[<<"null">>],[]},{cowboy_req,parse_header,3,[{file,"src/cowboy_req.erl"},{line,414}]},{rabbit_mgmt_util,is_authorized1,4,[{file,"src/rabbit_mgmt_util.erl"},{line,174}]},{cowboy_rest,call,3,[{file,"src/cowboy_rest.erl"},{line,1576}]},{cowboy_rest,is_authorized,2,[{file,"src/cowboy_rest.erl"},{line,372}]},{cowboy_rest,upgrade,4,[{file,"src/cowboy_rest.erl"},{line,288}]},{cowboy_stream_h,execute,3,[{file,"src/cowboy_stream_h.erl"},{line,296}]},{cowboy_stream_h,request_process,3,[{file,"src/cowboy_stream_h.erl"},{line,274}]}]},[{cow_http_hd,parse_authorization,[<<"null">>],[]},{cowboy_req,parse_header,3,[{file,"src/cowboy_req.erl"},{line,414}]},{rabbit_mgmt_util,is_authorized1,4,[{file,"src/rabbit_mgmt_util.erl"},{line,174}]},{cowboy_rest,call,3,[{file,"src/cowboy_rest.erl"},{line,1576}]},{cowboy_rest,is_authorized,2,[{file,"src/cowboy_rest.erl"},{line,372}]},{cowboy_rest,upgrade,4,[{file,"src/cowboy_rest.erl"},{line,288}]},{cowboy_stream_h,execute,3,[{file,"src/cowboy_stream_h.erl"},{line,296}]},{cowboy_stream_h,request_process,3,[{file,"src/cowboy_stream_h.erl"},{line,274}]}]}
    ancestors: [<0.782.0>,<0.666.0>,<0.665.0>,rabbit_web_dispatch_sup,<0.447.0>]
    message_queue_len: 0
    messages: []
    links: [<0.782.0>]
    dictionary: []
    trap_exit: false
    status: running
    heap_size: 6772
    stack_size: 27
    reductions: 1040
  neighbours:
